2017-12-05 11:46:21.946274: I tensorflow/core/common_runtime/gpu/gpu_device.cc:940] Found device 0 with properties: 
name: Tesla P100-PCIE-16GB
major: 6 minor: 0 memoryClockRate (GHz) 1.3285
pciBusID 0000:02:00.0
Total memory: 15.89GiB
Free memory: 15.61GiB
2017-12-05 11:46:21.946874: I tensorflow/core/common_runtime/gpu/gpu_device.cc:961] DMA: 0 
2017-12-05 11:46:21.946893: I tensorflow/core/common_runtime/gpu/gpu_device.cc:971] 0:   Y 
2017-12-05 11:46:21.947390: I tensorflow/core/common_runtime/gpu/gpu_device.cc:1030] Creating TensorFlow device (/gpu:0) -> (device: 0, name: Tesla P100-PCIE-16GB, pci bus id: 0000:02:00.0)
2017-12-05 11:46:22.109497: I tensorflow/core/distributed_runtime/rpc/grpc_channel.cc:215] Initialize GrpcChannelCache for job ps -> {0 -> nid06480:2230, 1 -> nid06481:2230, 2 -> nid06482:2230, 3 -> nid06483:2230, 4 -> nid06484:2230, 5 -> nid06485:2230}
2017-12-05 11:46:22.109555: I tensorflow/core/distributed_runtime/rpc/grpc_channel.cc:215] Initialize GrpcChannelCache for job worker -> {0 -> nid06480:2220, 1 -> nid06481:2220, 2 -> nid06482:2220, 3 -> nid06483:2220, 4 -> nid06484:2220, 5 -> nid06485:2220, 6 -> localhost:2220, 7 -> nid06487:2220}
2017-12-05 11:46:22.112906: I tensorflow/core/distributed_runtime/rpc/grpc_server_lib.cc:316] Started server with target: grpc://localhost:2220
2017-12-05 11:46:46.625066: I tensorflow/core/distributed_runtime/master_session.cc:999] Start master session 9878d5367e478390 with config: 
intra_op_parallelism_threads: 1
allow_soft_placement: true

