2017-12-05 11:46:08.730128: I tensorflow/core/common_runtime/gpu/gpu_device.cc:940] Found device 0 with properties: 
name: Tesla P100-PCIE-16GB
major: 6 minor: 0 memoryClockRate (GHz) 1.3285
pciBusID 0000:02:00.0
Total memory: 15.89GiB
Free memory: 15.61GiB
2017-12-05 11:46:08.730574: I tensorflow/core/common_runtime/gpu/gpu_device.cc:961] DMA: 0 
2017-12-05 11:46:08.730594: I tensorflow/core/common_runtime/gpu/gpu_device.cc:971] 0:   Y 
2017-12-05 11:46:08.730835: I tensorflow/core/common_runtime/gpu/gpu_device.cc:1030] Creating TensorFlow device (/gpu:0) -> (device: 0, name: Tesla P100-PCIE-16GB, pci bus id: 0000:02:00.0)
2017-12-05 11:46:08.878989: I tensorflow/core/distributed_runtime/rpc/grpc_channel.cc:215] Initialize GrpcChannelCache for job ps -> {0 -> nid06480:2230, 1 -> nid06481:2230, 2 -> nid06482:2230, 3 -> nid06483:2230, 4 -> nid06484:2230, 5 -> nid06485:2230}
2017-12-05 11:46:08.879046: I tensorflow/core/distributed_runtime/rpc/grpc_channel.cc:215] Initialize GrpcChannelCache for job worker -> {0 -> localhost:2220, 1 -> nid06481:2220, 2 -> nid06482:2220, 3 -> nid06483:2220, 4 -> nid06484:2220, 5 -> nid06485:2220, 6 -> nid06486:2220, 7 -> nid06487:2220}
2017-12-05 11:46:08.879742: I tensorflow/core/distributed_runtime/rpc/grpc_server_lib.cc:316] Started server with target: grpc://localhost:2220
2017-12-05 11:46:32.239451: I tensorflow/core/distributed_runtime/master_session.cc:999] Start master session 942ac53b410c24ae with config: 
intra_op_parallelism_threads: 1
allow_soft_placement: true

