2017-10-06 17:41:30.880207: I tensorflow/core/common_runtime/gpu/gpu_device.cc:940] Found device 0 with properties: 
name: Tesla P100-PCIE-16GB
major: 6 minor: 0 memoryClockRate (GHz) 1.3285
pciBusID 0000:02:00.0
Total memory: 15.89GiB
Free memory: 15.61GiB
2017-10-06 17:41:30.880667: I tensorflow/core/common_runtime/gpu/gpu_device.cc:961] DMA: 0 
2017-10-06 17:41:30.880684: I tensorflow/core/common_runtime/gpu/gpu_device.cc:971] 0:   Y 
2017-10-06 17:41:30.881464: I tensorflow/core/common_runtime/gpu/gpu_device.cc:1030] Creating TensorFlow device (/gpu:0) -> (device: 0, name: Tesla P100-PCIE-16GB, pci bus id: 0000:02:00.0)
2017-10-06 17:41:31.118516: I tensorflow/core/distributed_runtime/rpc/grpc_channel.cc:215] Initialize GrpcChannelCache for job ps -> {0 -> nid05084:2230, 1 -> nid05085:2230, 2 -> nid05086:2230, 3 -> nid05087:2230}
2017-10-06 17:41:31.118555: I tensorflow/core/distributed_runtime/rpc/grpc_channel.cc:215] Initialize GrpcChannelCache for job worker -> {0 -> nid05084:2220, 1 -> localhost:2220, 2 -> nid05086:2220, 3 -> nid05087:2220}
2017-10-06 17:41:31.119268: I tensorflow/core/distributed_runtime/rpc/grpc_server_lib.cc:316] Started server with target: grpc://localhost:2220
2017-10-06 17:41:54.549179: I tensorflow/core/distributed_runtime/master_session.cc:999] Start master session 78c8da75fdd4e014 with config: 
intra_op_parallelism_threads: 1
allow_soft_placement: true

2017-10-06 17:42:30.156489: I tensorflow/core/distributed_runtime/master_session.cc:999] Start master session faa5bbb26b57d69d with config: 
intra_op_parallelism_threads: 1
allow_soft_placement: true

TensorFlow:  1.2
Model:       resnet50
Mode:        training
Batch size:  32 global
             32.0 per device
Devices:     ['/job:worker/task:1/gpu:0']
Data format: NCHW
Optimizer:   sgd
Variables:   distributed_replicated
Sync:        True
==========
Generating model
Running warm up
Done warm up
Step	Img/sec	loss
Starting real work at step 40 at time Fri Oct  6 17:42:40 2017
1	on average processed 32 images in 0.271582 seconds	8.370
2	on average processed 32 images in 0.270802 seconds	7.988
3	on average processed 32 images in 0.285391 seconds	8.012
4	on average processed 32 images in 0.281776 seconds	8.063
5	on average processed 32 images in 0.278738 seconds	8.068
6	on average processed 32 images in 0.275137 seconds	7.985
7	on average processed 32 images in 0.274785 seconds	8.244
8	on average processed 32 images in 0.272532 seconds	8.102
9	on average processed 32 images in 0.272127 seconds	8.157
10	on average processed 32 images in 0.270450 seconds	7.932
11	on average processed 32 images in 0.270928 seconds	8.115
12	on average processed 32 images in 0.270613 seconds	8.197
13	on average processed 32 images in 0.270556 seconds	8.058
14	on average processed 32 images in 0.271718 seconds	7.915
15	on average processed 32 images in 0.271574 seconds	8.058
16	on average processed 32 images in 0.270984 seconds	7.800
17	on average processed 32 images in 0.270922 seconds	8.040
18	on average processed 32 images in 0.269881 seconds	8.104
19	on average processed 32 images in 0.270033 seconds	7.954
20	on average processed 32 images in 0.269719 seconds	7.925
21	on average processed 32 images in 0.270199 seconds	8.042
22	on average processed 32 images in 0.269666 seconds	7.754
23	on average processed 32 images in 0.269604 seconds	8.003
24	on average processed 32 images in 0.268944 seconds	7.936
25	on average processed 32 images in 0.269128 seconds	8.018
26	on average processed 32 images in 0.269176 seconds	7.831
27	on average processed 32 images in 0.269279 seconds	7.949
28	on average processed 32 images in 0.269593 seconds	8.153
29	on average processed 32 images in 0.269923 seconds	7.940
30	on average processed 32 images in 0.270352 seconds	7.951
31	on average processed 32 images in 0.270022 seconds	7.851
32	on average processed 32 images in 0.270567 seconds	7.997
33	on average processed 32 images in 0.270683 seconds	7.999
34	on average processed 32 images in 0.270804 seconds	7.917
35	on average processed 32 images in 0.270831 seconds	8.036
36	on average processed 32 images in 0.270650 seconds	7.866
37	on average processed 32 images in 0.270298 seconds	7.955
38	on average processed 32 images in 0.270379 seconds	7.871
39	on average processed 32 images in 0.270541 seconds	7.940
40	on average processed 32 images in 0.270258 seconds	7.959
41	on average processed 32 images in 0.270391 seconds	7.924
42	on average processed 32 images in 0.270508 seconds	7.965
43	on average processed 32 images in 0.270479 seconds	7.944
44	on average processed 32 images in 0.270514 seconds	7.961
45	on average processed 32 images in 0.270485 seconds	8.092
46	on average processed 32 images in 0.270496 seconds	7.921
47	on average processed 32 images in 0.270458 seconds	7.928
48	on average processed 32 images in 0.270591 seconds	7.784
49	on average processed 32 images in 0.270633 seconds	8.077
50	on average processed 32 images in 0.270575 seconds	7.759
51	on average processed 32 images in 0.270605 seconds	8.001
52	on average processed 32 images in 0.270661 seconds	7.721
53	on average processed 32 images in 0.270755 seconds	7.866
54	on average processed 32 images in 0.270780 seconds	7.899
55	on average processed 32 images in 0.270814 seconds	8.044
56	on average processed 32 images in 0.270976 seconds	7.817
57	on average processed 32 images in 0.270934 seconds	7.910
58	on average processed 32 images in 0.270895 seconds	8.105
59	on average processed 32 images in 0.270932 seconds	7.851
60	on average processed 32 images in 0.270636 seconds	7.904
61	on average processed 32 images in 0.270627 seconds	7.877
62	on average processed 32 images in 0.270671 seconds	8.007
63	on average processed 32 images in 0.270520 seconds	7.926
64	on average processed 32 images in 0.270615 seconds	8.033
65	on average processed 32 images in 0.270635 seconds	7.763
66	on average processed 32 images in 0.270472 seconds	7.969
67	on average processed 32 images in 0.270316 seconds	7.841
68	on average processed 32 images in 0.270316 seconds	7.947
69	on average processed 32 images in 0.270170 seconds	7.818
70	on average processed 32 images in 0.270028 seconds	8.052
71	on average processed 32 images in 0.270070 seconds	7.980
72	on average processed 32 images in 0.270110 seconds	8.073
73	on average processed 32 images in 0.270140 seconds	7.857
74	on average processed 32 images in 0.269840 seconds	7.958
75	on average processed 32 images in 0.269859 seconds	7.892
76	on average processed 32 images in 0.269920 seconds	7.892
77	on average processed 32 images in 0.270080 seconds	7.788
78	on average processed 32 images in 0.270111 seconds	7.877
79	on average processed 32 images in 0.270128 seconds	7.805
80	on average processed 32 images in 0.270164 seconds	8.054
81	on average processed 32 images in 0.270045 seconds	7.895
82	on average processed 32 images in 0.270063 seconds	7.875
83	on average processed 32 images in 0.270266 seconds	7.991
84	on average processed 32 images in 0.270413 seconds	7.909
85	on average processed 32 images in 0.270283 seconds	8.007
86	on average processed 32 images in 0.269998 seconds	7.801
87	on average processed 32 images in 0.270009 seconds	8.032
88	on average processed 32 images in 0.269990 seconds	7.931
89	on average processed 32 images in 0.270081 seconds	7.981
90	on average processed 32 images in 0.270096 seconds	8.005
91	on average processed 32 images in 0.269991 seconds	7.975
92	on average processed 32 images in 0.270035 seconds	7.907
93	on average processed 32 images in 0.270171 seconds	7.940
94	on average processed 32 images in 0.269992 seconds	7.977
95	on average processed 32 images in 0.269964 seconds	7.936
96	on average processed 32 images in 0.269862 seconds	7.943
97	on average processed 32 images in 0.269794 seconds	7.870
98	on average processed 32 images in 0.269803 seconds	7.839
99	on average processed 32 images in 0.269764 seconds	7.790
100	on average processed 32 images in 0.269720 seconds	7.980
Finishing real work at step 440 at time Fri Oct  6 17:43:07 2017
----------------------------------------------------------------
total images/sec: 470.25
----------------------------------------------------------------
