2017-10-17 14:05:47.456536: I tensorflow/core/common_runtime/gpu/gpu_device.cc:940] Found device 0 with properties: 
name: Tesla P100-PCIE-16GB
major: 6 minor: 0 memoryClockRate (GHz) 1.3285
pciBusID 0000:02:00.0
Total memory: 15.89GiB
Free memory: 15.61GiB
2017-10-17 14:05:47.457247: I tensorflow/core/common_runtime/gpu/gpu_device.cc:961] DMA: 0 
2017-10-17 14:05:47.457265: I tensorflow/core/common_runtime/gpu/gpu_device.cc:971] 0:   Y 
2017-10-17 14:05:47.457284: I tensorflow/core/common_runtime/gpu/gpu_device.cc:1030] Creating TensorFlow device (/gpu:0) -> (device: 0, name: Tesla P100-PCIE-16GB, pci bus id: 0000:02:00.0)
2017-10-17 14:05:47.682402: I tensorflow/core/distributed_runtime/rpc/grpc_channel.cc:215] Initialize GrpcChannelCache for job ps -> {0 -> nid02367:2230, 1 -> nid02368:2230, 2 -> nid02369:2230, 3 -> nid02370:2230, 4 -> nid02371:2230, 5 -> nid02372:2230, 6 -> nid02373:2230, 7 -> nid02374:2230, 8 -> nid02375:2230, 9 -> nid02376:2230, 10 -> nid02377:2230, 11 -> nid02378:2230, 12 -> nid02379:2230, 13 -> nid02380:2230, 14 -> nid02381:2230, 15 -> nid02382:2230, 16 -> nid02383:2230, 17 -> nid02384:2230, 18 -> nid02385:2230, 19 -> nid02386:2230, 20 -> nid02387:2230, 21 -> nid02388:2230, 22 -> nid02389:2230, 23 -> nid02390:2230, 24 -> nid02391:2230, 25 -> nid02392:2230, 26 -> nid02393:2230, 27 -> nid02394:2230, 28 -> nid02395:2230, 29 -> nid03577:2230, 30 -> nid03578:2230, 31 -> nid03579:2230}
2017-10-17 14:05:47.682447: I tensorflow/core/distributed_runtime/rpc/grpc_channel.cc:215] Initialize GrpcChannelCache for job worker -> {0 -> nid02367:2220, 1 -> nid02368:2220, 2 -> nid02369:2220, 3 -> nid02370:2220, 4 -> nid02371:2220, 5 -> nid02372:2220, 6 -> nid02373:2220, 7 -> nid02374:2220, 8 -> nid02375:2220, 9 -> nid02376:2220, 10 -> nid02377:2220, 11 -> nid02378:2220, 12 -> nid02379:2220, 13 -> nid02380:2220, 14 -> nid02381:2220, 15 -> nid02382:2220, 16 -> nid02383:2220, 17 -> nid02384:2220, 18 -> nid02385:2220, 19 -> localhost:2220, 20 -> nid02387:2220, 21 -> nid02388:2220, 22 -> nid02389:2220, 23 -> nid02390:2220, 24 -> nid02391:2220, 25 -> nid02392:2220, 26 -> nid02393:2220, 27 -> nid02394:2220, 28 -> nid02395:2220, 29 -> nid03577:2220, 30 -> nid03578:2220, 31 -> nid03579:2220}
2017-10-17 14:05:47.683150: I tensorflow/core/distributed_runtime/rpc/grpc_server_lib.cc:316] Started server with target: grpc://localhost:2220
2017-10-17 14:06:27.501933: I tensorflow/core/distributed_runtime/master_session.cc:999] Start master session 90f7c95d28ace6cd with config: 
intra_op_parallelism_threads: 1
allow_soft_placement: true

2017-10-17 14:07:06.746722: I tensorflow/core/distributed_runtime/master_session.cc:999] Start master session 23e2b36a27a589e9 with config: 
intra_op_parallelism_threads: 1
allow_soft_placement: true

TensorFlow:  1.2
Model:       resnet50
Mode:        training
Batch size:  32 global
             32.0 per device
Devices:     ['/job:worker/task:19/gpu:0']
Data format: NCHW
Optimizer:   sgd
Variables:   distributed_replicated
Sync:        True
==========
Generating model
Running warm up
Done warm up
Step	Img/sec	loss
Starting real work at step 320 at time Tue Oct 17 14:07:22 2017
1	on average processed 32 images in 0.520835 seconds	8.038
2	on average processed 32 images in 0.531444 seconds	7.890
3	on average processed 32 images in 0.529550 seconds	7.950
4	on average processed 32 images in 0.529016 seconds	7.990
5	on average processed 32 images in 0.532309 seconds	7.904
6	on average processed 32 images in 0.529922 seconds	7.872
7	on average processed 32 images in 0.526649 seconds	8.548
8	on average processed 32 images in 0.525006 seconds	8.012
9	on average processed 32 images in 0.522154 seconds	7.763
10	on average processed 32 images in 0.519683 seconds	7.889
11	on average processed 32 images in 0.519635 seconds	7.715
12	on average processed 32 images in 0.516888 seconds	7.830
13	on average processed 32 images in 0.517304 seconds	7.923
14	on average processed 32 images in 0.518076 seconds	7.756
15	on average processed 32 images in 0.517631 seconds	8.043
16	on average processed 32 images in 0.516748 seconds	7.998
17	on average processed 32 images in 0.515903 seconds	7.966
18	on average processed 32 images in 0.514965 seconds	8.012
19	on average processed 32 images in 0.514080 seconds	8.120
20	on average processed 32 images in 0.513390 seconds	7.779
21	on average processed 32 images in 0.514724 seconds	7.865
22	on average processed 32 images in 0.515620 seconds	7.743
23	on average processed 32 images in 0.516567 seconds	7.818
24	on average processed 32 images in 0.516291 seconds	7.953
25	on average processed 32 images in 0.516113 seconds	7.602
26	on average processed 32 images in 0.517290 seconds	7.910
27	on average processed 32 images in 0.516828 seconds	7.893
28	on average processed 32 images in 0.517927 seconds	7.868
29	on average processed 32 images in 0.518503 seconds	7.977
30	on average processed 32 images in 0.518373 seconds	8.044
31	on average processed 32 images in 0.517789 seconds	7.973
32	on average processed 32 images in 0.518063 seconds	7.854
33	on average processed 32 images in 0.517402 seconds	7.955
34	on average processed 32 images in 0.516714 seconds	8.019
35	on average processed 32 images in 0.516268 seconds	8.010
36	on average processed 32 images in 0.516762 seconds	7.707
37	on average processed 32 images in 0.516905 seconds	7.841
38	on average processed 32 images in 0.516742 seconds	7.887
39	on average processed 32 images in 0.517106 seconds	7.821
40	on average processed 32 images in 0.516786 seconds	7.906
41	on average processed 32 images in 0.517333 seconds	7.855
42	on average processed 32 images in 0.517533 seconds	7.936
43	on average processed 32 images in 0.516920 seconds	7.830
44	on average processed 32 images in 0.516972 seconds	7.813
45	on average processed 32 images in 0.517116 seconds	7.925
46	on average processed 32 images in 0.517523 seconds	7.894
47	on average processed 32 images in 0.517495 seconds	7.811
48	on average processed 32 images in 0.517411 seconds	7.739
49	on average processed 32 images in 0.517337 seconds	7.687
50	on average processed 32 images in 0.517117 seconds	7.618
51	on average processed 32 images in 0.516999 seconds	7.879
52	on average processed 32 images in 0.516935 seconds	7.843
53	on average processed 32 images in 0.516953 seconds	7.877
54	on average processed 32 images in 0.516896 seconds	8.043
55	on average processed 32 images in 0.516780 seconds	7.868
56	on average processed 32 images in 0.516470 seconds	7.941
57	on average processed 32 images in 0.516558 seconds	7.900
58	on average processed 32 images in 0.516447 seconds	7.667
59	on average processed 32 images in 0.516687 seconds	7.611
60	on average processed 32 images in 0.516606 seconds	7.980
61	on average processed 32 images in 0.516812 seconds	7.744
62	on average processed 32 images in 0.516758 seconds	7.816
63	on average processed 32 images in 0.516998 seconds	7.761
64	on average processed 32 images in 0.516693 seconds	8.219
65	on average processed 32 images in 0.517052 seconds	7.846
66	on average processed 32 images in 0.516711 seconds	7.844
67	on average processed 32 images in 0.516957 seconds	7.817
68	on average processed 32 images in 0.517324 seconds	8.021
69	on average processed 32 images in 0.517450 seconds	7.890
70	on average processed 32 images in 0.517338 seconds	7.911
71	on average processed 32 images in 0.517456 seconds	7.894
72	on average processed 32 images in 0.517643 seconds	7.785
73	on average processed 32 images in 0.517529 seconds	7.925
74	on average processed 32 images in 0.517602 seconds	7.685
75	on average processed 32 images in 0.517596 seconds	7.875
76	on average processed 32 images in 0.517346 seconds	7.939
77	on average processed 32 images in 0.517530 seconds	7.829
78	on average processed 32 images in 0.517584 seconds	7.742
79	on average processed 32 images in 0.517598 seconds	7.498
80	on average processed 32 images in 0.517502 seconds	7.861
81	on average processed 32 images in 0.517719 seconds	7.727
82	on average processed 32 images in 0.517834 seconds	7.923
83	on average processed 32 images in 0.517923 seconds	7.602
84	on average processed 32 images in 0.518088 seconds	7.739
85	on average processed 32 images in 0.518250 seconds	7.441
86	on average processed 32 images in 0.518452 seconds	7.644
87	on average processed 32 images in 0.518308 seconds	7.702
88	on average processed 32 images in 0.517958 seconds	7.881
89	on average processed 32 images in 0.518116 seconds	7.709
90	on average processed 32 images in 0.518393 seconds	7.706
91	on average processed 32 images in 0.518626 seconds	7.400
92	on average processed 32 images in 0.518526 seconds	7.662
93	on average processed 32 images in 0.518554 seconds	7.983
94	on average processed 32 images in 0.518626 seconds	7.675
95	on average processed 32 images in 0.518539 seconds	7.311
96	on average processed 32 images in 0.518693 seconds	7.609
97	on average processed 32 images in 0.519048 seconds	7.718
98	on average processed 32 images in 0.518964 seconds	7.734
99	on average processed 32 images in 0.518780 seconds	7.735
100	on average processed 32 images in 0.518970 seconds	7.647
Finishing real work at step 3520 at time Tue Oct 17 14:08:14 2017
----------------------------------------------------------------
total images/sec: 1970.77
----------------------------------------------------------------
