2017-11-20 15:48:25.715325: I tensorflow/core/common_runtime/gpu/gpu_device.cc:940] Found device 0 with properties: 
name: Tesla P100-PCIE-16GB
major: 6 minor: 0 memoryClockRate (GHz) 1.3285
pciBusID 0000:02:00.0
Total memory: 15.89GiB
Free memory: 15.61GiB
2017-11-20 15:48:25.716092: I tensorflow/core/common_runtime/gpu/gpu_device.cc:961] DMA: 0 
2017-11-20 15:48:25.716110: I tensorflow/core/common_runtime/gpu/gpu_device.cc:971] 0:   Y 
2017-11-20 15:48:25.716436: I tensorflow/core/common_runtime/gpu/gpu_device.cc:1030] Creating TensorFlow device (/gpu:0) -> (device: 0, name: Tesla P100-PCIE-16GB, pci bus id: 0000:02:00.0)
2017-11-20 15:48:25.865877: I tensorflow/core/distributed_runtime/rpc/grpc_channel.cc:215] Initialize GrpcChannelCache for job ps -> {0 -> nid03957:2230, 1 -> nid03958:2230, 2 -> nid03959:2230, 3 -> nid03960:2230, 4 -> nid03961:2230, 5 -> nid03962:2230, 6 -> nid03963:2230, 7 -> nid03964:2230, 8 -> nid03965:2230, 9 -> nid03966:2230, 10 -> nid03967:2230, 11 -> nid03968:2230}
2017-11-20 15:48:25.865936: I tensorflow/core/distributed_runtime/rpc/grpc_channel.cc:215] Initialize GrpcChannelCache for job worker -> {0 -> nid03957:2220, 1 -> localhost:2220, 2 -> nid03959:2220, 3 -> nid03960:2220, 4 -> nid03961:2220, 5 -> nid03962:2220, 6 -> nid03963:2220, 7 -> nid03964:2220, 8 -> nid03965:2220, 9 -> nid03966:2220, 10 -> nid03967:2220, 11 -> nid03968:2220, 12 -> nid03969:2220, 13 -> nid03970:2220, 14 -> nid03971:2220, 15 -> nid03972:2220}
2017-11-20 15:48:25.866671: I tensorflow/core/distributed_runtime/rpc/grpc_server_lib.cc:316] Started server with target: grpc://localhost:2220
2017-11-20 15:48:48.937669: I tensorflow/core/distributed_runtime/master_session.cc:999] Start master session ef5810cffdb55e3e with config: 
intra_op_parallelism_threads: 1
allow_soft_placement: true

2017-11-20 15:49:25.331677: I tensorflow/core/distributed_runtime/master_session.cc:999] Start master session 2903b38f94c91725 with config: 
intra_op_parallelism_threads: 1
allow_soft_placement: true

TensorFlow:  1.2
Model:       inception3
Mode:        training
Batch size:  32 global
             32.0 per device
Devices:     ['/job:worker/task:1/gpu:0']
Data format: NCHW
Optimizer:   sgd
Variables:   parameter_server
Sync:        True
==========
Generating model
Running warm up
Done warm up
Step	Img/sec	loss
Starting real work at step 160 at time Mon Nov 20 15:49:55 2017
1	on average processed 32 images in 0.411880 seconds	7.376
2	on average processed 32 images in 0.415478 seconds	7.315
3	on average processed 32 images in 0.421694 seconds	7.407
4	on average processed 32 images in 0.425744 seconds	7.382
5	on average processed 32 images in 0.422353 seconds	7.328
6	on average processed 32 images in 0.424276 seconds	7.456
7	on average processed 32 images in 0.421688 seconds	7.325
8	on average processed 32 images in 0.423364 seconds	7.294
9	on average processed 32 images in 0.423873 seconds	7.427
10	on average processed 32 images in 0.423243 seconds	7.367
11	on average processed 32 images in 0.422813 seconds	7.302
12	on average processed 32 images in 0.422416 seconds	7.436
13	on average processed 32 images in 0.421235 seconds	7.373
14	on average processed 32 images in 0.420356 seconds	7.402
15	on average processed 32 images in 0.420588 seconds	7.216
16	on average processed 32 images in 0.419986 seconds	7.413
17	on average processed 32 images in 0.419258 seconds	7.408
18	on average processed 32 images in 0.418682 seconds	7.255
19	on average processed 32 images in 0.419003 seconds	7.406
20	on average processed 32 images in 0.418524 seconds	7.221
21	on average processed 32 images in 0.418788 seconds	7.276
22	on average processed 32 images in 0.418425 seconds	7.367
23	on average processed 32 images in 0.418175 seconds	7.341
24	on average processed 32 images in 0.417930 seconds	7.357
25	on average processed 32 images in 0.418094 seconds	7.318
26	on average processed 32 images in 0.417623 seconds	7.317
27	on average processed 32 images in 0.417062 seconds	7.388
28	on average processed 32 images in 0.417344 seconds	7.264
29	on average processed 32 images in 0.417174 seconds	7.478
30	on average processed 32 images in 0.416781 seconds	7.329
31	on average processed 32 images in 0.417678 seconds	7.401
32	on average processed 32 images in 0.418131 seconds	7.350
33	on average processed 32 images in 0.417968 seconds	7.330
34	on average processed 32 images in 0.417924 seconds	7.381
35	on average processed 32 images in 0.417286 seconds	7.376
36	on average processed 32 images in 0.417701 seconds	7.268
37	on average processed 32 images in 0.417527 seconds	7.511
38	on average processed 32 images in 0.417343 seconds	7.332
39	on average processed 32 images in 0.417791 seconds	7.357
40	on average processed 32 images in 0.418022 seconds	7.388
41	on average processed 32 images in 0.418041 seconds	7.416
42	on average processed 32 images in 0.417550 seconds	7.349
43	on average processed 32 images in 0.417819 seconds	7.318
44	on average processed 32 images in 0.418049 seconds	7.306
45	on average processed 32 images in 0.418314 seconds	7.334
46	on average processed 32 images in 0.418074 seconds	7.413
47	on average processed 32 images in 0.417854 seconds	7.342
48	on average processed 32 images in 0.417790 seconds	7.287
49	on average processed 32 images in 0.417722 seconds	7.257
50	on average processed 32 images in 0.417706 seconds	7.281
51	on average processed 32 images in 0.418071 seconds	7.299
52	on average processed 32 images in 0.417892 seconds	7.295
53	on average processed 32 images in 0.417707 seconds	7.358
54	on average processed 32 images in 0.418042 seconds	7.323
55	on average processed 32 images in 0.417798 seconds	7.356
56	on average processed 32 images in 0.417662 seconds	7.325
57	on average processed 32 images in 0.417655 seconds	7.376
58	on average processed 32 images in 0.417844 seconds	7.466
59	on average processed 32 images in 0.417527 seconds	7.396
60	on average processed 32 images in 0.417470 seconds	7.439
61	on average processed 32 images in 0.417478 seconds	7.301
62	on average processed 32 images in 0.417713 seconds	7.209
63	on average processed 32 images in 0.417600 seconds	7.233
64	on average processed 32 images in 0.417642 seconds	7.374
65	on average processed 32 images in 0.417599 seconds	7.283
66	on average processed 32 images in 0.417487 seconds	7.331
67	on average processed 32 images in 0.417336 seconds	7.336
68	on average processed 32 images in 0.417216 seconds	7.242
69	on average processed 32 images in 0.417160 seconds	7.352
70	on average processed 32 images in 0.417277 seconds	7.309
71	on average processed 32 images in 0.417164 seconds	7.283
72	on average processed 32 images in 0.417108 seconds	7.245
73	on average processed 32 images in 0.416980 seconds	7.250
74	on average processed 32 images in 0.416959 seconds	7.309
75	on average processed 32 images in 0.417105 seconds	7.326
76	on average processed 32 images in 0.417005 seconds	7.348
77	on average processed 32 images in 0.416887 seconds	7.320
78	on average processed 32 images in 0.416744 seconds	7.271
79	on average processed 32 images in 0.416591 seconds	7.205
80	on average processed 32 images in 0.416922 seconds	7.401
81	on average processed 32 images in 0.416708 seconds	7.324
82	on average processed 32 images in 0.416616 seconds	7.346
83	on average processed 32 images in 0.416845 seconds	7.302
84	on average processed 32 images in 0.416808 seconds	7.423
85	on average processed 32 images in 0.416720 seconds	7.377
86	on average processed 32 images in 0.416512 seconds	7.332
87	on average processed 32 images in 0.416595 seconds	7.232
88	on average processed 32 images in 0.416640 seconds	7.350
89	on average processed 32 images in 0.416649 seconds	7.251
90	on average processed 32 images in 0.416665 seconds	7.309
91	on average processed 32 images in 0.416705 seconds	7.389
92	on average processed 32 images in 0.416659 seconds	7.290
93	on average processed 32 images in 0.416884 seconds	7.290
94	on average processed 32 images in 0.416812 seconds	7.415
95	on average processed 32 images in 0.416685 seconds	7.375
96	on average processed 32 images in 0.416655 seconds	7.226
97	on average processed 32 images in 0.416753 seconds	7.217
98	on average processed 32 images in 0.416707 seconds	7.360
99	on average processed 32 images in 0.416567 seconds	7.231
100	on average processed 32 images in 0.416539 seconds	7.217
Finishing real work at step 1760 at time Mon Nov 20 15:50:37 2017
----------------------------------------------------------------
total images/sec: 1228.43
----------------------------------------------------------------
