2017-10-09 00:17:56.600270: I tensorflow/core/common_runtime/gpu/gpu_device.cc:940] Found device 0 with properties: 
name: Tesla P100-PCIE-16GB
major: 6 minor: 0 memoryClockRate (GHz) 1.3285
pciBusID 0000:02:00.0
Total memory: 15.89GiB
Free memory: 15.61GiB
2017-10-09 00:17:56.600918: I tensorflow/core/common_runtime/gpu/gpu_device.cc:961] DMA: 0 
2017-10-09 00:17:56.600935: I tensorflow/core/common_runtime/gpu/gpu_device.cc:971] 0:   Y 
2017-10-09 00:17:56.603157: I tensorflow/core/common_runtime/gpu/gpu_device.cc:1030] Creating TensorFlow device (/gpu:0) -> (device: 0, name: Tesla P100-PCIE-16GB, pci bus id: 0000:02:00.0)
2017-10-09 00:17:56.893115: I tensorflow/core/distributed_runtime/rpc/grpc_channel.cc:215] Initialize GrpcChannelCache for job ps -> {0 -> nid02555:2230, 1 -> nid02556:2230, 2 -> nid02557:2230, 3 -> nid02558:2230, 4 -> nid02559:2230, 5 -> nid02560:2230, 6 -> nid02561:2230, 7 -> nid02562:2230, 8 -> nid02563:2230, 9 -> nid02564:2230, 10 -> nid02565:2230, 11 -> nid02566:2230, 12 -> nid02567:2230, 13 -> nid02568:2230, 14 -> nid02569:2230, 15 -> nid02570:2230, 16 -> nid02571:2230, 17 -> nid02572:2230, 18 -> nid02573:2230, 19 -> nid02574:2230, 20 -> nid02575:2230, 21 -> nid02576:2230, 22 -> nid02577:2230, 23 -> nid02578:2230, 24 -> nid02579:2230, 25 -> nid02580:2230, 26 -> nid02581:2230, 27 -> nid02582:2230, 28 -> nid02583:2230, 29 -> nid02584:2230, 30 -> nid02585:2230, 31 -> nid02586:2230}
2017-10-09 00:17:56.893159: I tensorflow/core/distributed_runtime/rpc/grpc_channel.cc:215] Initialize GrpcChannelCache for job worker -> {0 -> nid02555:2220, 1 -> nid02556:2220, 2 -> nid02557:2220, 3 -> nid02558:2220, 4 -> nid02559:2220, 5 -> nid02560:2220, 6 -> nid02561:2220, 7 -> nid02562:2220, 8 -> nid02563:2220, 9 -> nid02564:2220, 10 -> nid02565:2220, 11 -> nid02566:2220, 12 -> nid02567:2220, 13 -> nid02568:2220, 14 -> nid02569:2220, 15 -> nid02570:2220, 16 -> nid02571:2220, 17 -> nid02572:2220, 18 -> nid02573:2220, 19 -> nid02574:2220, 20 -> nid02575:2220, 21 -> nid02576:2220, 22 -> nid02577:2220, 23 -> nid02578:2220, 24 -> nid02579:2220, 25 -> nid02580:2220, 26 -> nid02581:2220, 27 -> nid02582:2220, 28 -> localhost:2220, 29 -> nid02584:2220, 30 -> nid02585:2220, 31 -> nid02586:2220}
2017-10-09 00:17:56.893872: I tensorflow/core/distributed_runtime/rpc/grpc_server_lib.cc:316] Started server with target: grpc://localhost:2220
2017-10-09 00:18:45.153620: I tensorflow/core/distributed_runtime/master_session.cc:999] Start master session ed9e51c40d09b18f with config: 
intra_op_parallelism_threads: 1
allow_soft_placement: true

TensorFlow:  1.2
Model:       inception3
Mode:        training
Batch size:  32 global
             32.0 per device
Devices:     ['/job:worker/task:28/gpu:0']
Data format: NCHW
Optimizer:   sgd
Variables:   distributed_replicated
Sync:        True
==========
Generating model
Running warm up
Done warm up
Step	Img/sec	loss
Starting real work at step 320 at time Mon Oct  9 00:19:05 2017
1	on average processed 32 images in 0.586122 seconds	7.369
2	on average processed 32 images in 0.577742 seconds	7.407
3	on average processed 32 images in 0.595631 seconds	7.340
4	on average processed 32 images in 0.595947 seconds	7.261
5	on average processed 32 images in 0.596038 seconds	7.354
6	on average processed 32 images in 0.594003 seconds	7.395
7	on average processed 32 images in 0.595930 seconds	7.456
8	on average processed 32 images in 0.595518 seconds	7.333
9	on average processed 32 images in 0.593103 seconds	7.357
10	on average processed 32 images in 0.593137 seconds	7.341
11	on average processed 32 images in 0.593400 seconds	7.312
12	on average processed 32 images in 0.594893 seconds	7.445
13	on average processed 32 images in 0.594291 seconds	7.404
14	on average processed 32 images in 0.592134 seconds	7.325
15	on average processed 32 images in 0.592487 seconds	7.243
16	on average processed 32 images in 0.592764 seconds	7.320
17	on average processed 32 images in 0.592641 seconds	7.413
18	on average processed 32 images in 0.592897 seconds	7.422
19	on average processed 32 images in 0.594797 seconds	7.325
20	on average processed 32 images in 0.593587 seconds	7.229
21	on average processed 32 images in 0.594262 seconds	7.354
22	on average processed 32 images in 0.595714 seconds	7.346
23	on average processed 32 images in 0.594691 seconds	7.227
24	on average processed 32 images in 0.595112 seconds	7.428
25	on average processed 32 images in 0.594281 seconds	7.314
26	on average processed 32 images in 0.594741 seconds	7.310
27	on average processed 32 images in 0.593661 seconds	7.202
28	on average processed 32 images in 0.593912 seconds	7.280
29	on average processed 32 images in 0.595533 seconds	7.352
30	on average processed 32 images in 0.596855 seconds	7.273
31	on average processed 32 images in 0.596867 seconds	7.433
32	on average processed 32 images in 0.597325 seconds	7.355
33	on average processed 32 images in 0.597207 seconds	7.282
34	on average processed 32 images in 0.597138 seconds	7.345
35	on average processed 32 images in 0.597737 seconds	7.346
36	on average processed 32 images in 0.598000 seconds	7.270
37	on average processed 32 images in 0.598394 seconds	7.223
38	on average processed 32 images in 0.598268 seconds	7.337
39	on average processed 32 images in 0.598264 seconds	7.263
40	on average processed 32 images in 0.598419 seconds	7.323
41	on average processed 32 images in 0.598905 seconds	7.463
42	on average processed 32 images in 0.598939 seconds	7.262
43	on average processed 32 images in 0.599062 seconds	7.467
44	on average processed 32 images in 0.598391 seconds	7.220
45	on average processed 32 images in 0.598571 seconds	7.306
46	on average processed 32 images in 0.597985 seconds	7.245
47	on average processed 32 images in 0.598347 seconds	7.308
48	on average processed 32 images in 0.598389 seconds	7.309
49	on average processed 32 images in 0.597526 seconds	7.285
50	on average processed 32 images in 0.597219 seconds	7.415
51	on average processed 32 images in 0.596785 seconds	7.319
52	on average processed 32 images in 0.596928 seconds	7.271
53	on average processed 32 images in 0.596997 seconds	7.268
54	on average processed 32 images in 0.596213 seconds	7.259
55	on average processed 32 images in 0.596602 seconds	7.384
56	on average processed 32 images in 0.596376 seconds	7.306
57	on average processed 32 images in 0.595617 seconds	7.216
58	on average processed 32 images in 0.594823 seconds	7.313
59	on average processed 32 images in 0.594713 seconds	7.050
60	on average processed 32 images in 0.594822 seconds	7.313
61	on average processed 32 images in 0.594789 seconds	7.161
62	on average processed 32 images in 0.594884 seconds	7.266
63	on average processed 32 images in 0.594673 seconds	7.289
64	on average processed 32 images in 0.594705 seconds	7.076
65	on average processed 32 images in 0.594868 seconds	7.290
66	on average processed 32 images in 0.594382 seconds	7.273
67	on average processed 32 images in 0.594754 seconds	7.252
68	on average processed 32 images in 0.594311 seconds	7.297
69	on average processed 32 images in 0.594709 seconds	7.262
70	on average processed 32 images in 0.594761 seconds	7.393
71	on average processed 32 images in 0.594170 seconds	7.213
72	on average processed 32 images in 0.594251 seconds	7.277
73	on average processed 32 images in 0.594402 seconds	7.351
74	on average processed 32 images in 0.593932 seconds	7.199
75	on average processed 32 images in 0.594378 seconds	7.091
76	on average processed 32 images in 0.594427 seconds	7.163
77	on average processed 32 images in 0.594427 seconds	7.149
78	on average processed 32 images in 0.594497 seconds	7.232
79	on average processed 32 images in 0.594548 seconds	7.180
80	on average processed 32 images in 0.594246 seconds	7.202
81	on average processed 32 images in 0.594331 seconds	7.271
82	on average processed 32 images in 0.594467 seconds	7.367
83	on average processed 32 images in 0.594451 seconds	7.256
84	on average processed 32 images in 0.594629 seconds	7.248
85	on average processed 32 images in 0.594691 seconds	7.028
86	on average processed 32 images in 0.594711 seconds	7.226
87	on average processed 32 images in 0.594782 seconds	7.322
88	on average processed 32 images in 0.594413 seconds	7.185
89	on average processed 32 images in 0.594495 seconds	7.207
90	on average processed 32 images in 0.594452 seconds	7.158
91	on average processed 32 images in 0.594611 seconds	7.303
92	on average processed 32 images in 0.594799 seconds	7.154
93	on average processed 32 images in 0.594493 seconds	7.242
94	on average processed 32 images in 0.594784 seconds	7.202
95	on average processed 32 images in 0.594684 seconds	7.212
96	on average processed 32 images in 0.594399 seconds	7.229
97	on average processed 32 images in 0.594134 seconds	7.314
98	on average processed 32 images in 0.594172 seconds	7.269
99	on average processed 32 images in 0.594475 seconds	7.160
100	on average processed 32 images in 0.594098 seconds	6.979
Finishing real work at step 3520 at time Mon Oct  9 00:20:04 2017
----------------------------------------------------------------
total images/sec: 1722.04
----------------------------------------------------------------
