2017-10-15 23:31:19.229341: I tensorflow/core/common_runtime/gpu/gpu_device.cc:940] Found device 0 with properties: 
name: Tesla P100-PCIE-16GB
major: 6 minor: 0 memoryClockRate (GHz) 1.3285
pciBusID 0000:02:00.0
Total memory: 15.89GiB
Free memory: 15.61GiB
2017-10-15 23:31:19.230222: I tensorflow/core/common_runtime/gpu/gpu_device.cc:961] DMA: 0 
2017-10-15 23:31:19.230240: I tensorflow/core/common_runtime/gpu/gpu_device.cc:971] 0:   Y 
2017-10-15 23:31:19.230260: I tensorflow/core/common_runtime/gpu/gpu_device.cc:1030] Creating TensorFlow device (/gpu:0) -> (device: 0, name: Tesla P100-PCIE-16GB, pci bus id: 0000:02:00.0)
2017-10-15 23:31:19.421680: I tensorflow/core/distributed_runtime/rpc/grpc_channel.cc:215] Initialize GrpcChannelCache for job ps -> {0 -> nid07116:2230, 1 -> nid07117:2230, 2 -> nid07118:2230, 3 -> nid07119:2230, 4 -> nid07120:2230, 5 -> nid07121:2230, 6 -> nid07122:2230, 7 -> nid07123:2230}
2017-10-15 23:31:19.421719: I tensorflow/core/distributed_runtime/rpc/grpc_channel.cc:215] Initialize GrpcChannelCache for job worker -> {0 -> nid07116:2220, 1 -> nid07117:2220, 2 -> nid07118:2220, 3 -> nid07119:2220, 4 -> localhost:2220, 5 -> nid07121:2220, 6 -> nid07122:2220, 7 -> nid07123:2220}
2017-10-15 23:31:19.422433: I tensorflow/core/distributed_runtime/rpc/grpc_server_lib.cc:316] Started server with target: grpc://localhost:2220
2017-10-15 23:31:44.617130: I tensorflow/core/distributed_runtime/master_session.cc:999] Start master session a25b225d044f1b2f with config: 
intra_op_parallelism_threads: 1
allow_soft_placement: true

2017-10-15 23:32:20.027604: I tensorflow/core/distributed_runtime/master_session.cc:999] Start master session 9f61d2b49ccc216c with config: 
intra_op_parallelism_threads: 1
allow_soft_placement: true

TensorFlow:  1.2
Model:       resnet50
Mode:        training
Batch size:  32 global
             32.0 per device
Devices:     ['/job:worker/task:4/gpu:0']
Data format: NCHW
Optimizer:   sgd
Variables:   distributed_replicated
Sync:        True
==========
Generating model
Running warm up
Done warm up
Step	Img/sec	loss
Starting real work at step 80 at time Sun Oct 15 23:32:31 2017
1	on average processed 32 images in 0.301882 seconds	8.079
2	on average processed 32 images in 0.309932 seconds	7.807
3	on average processed 32 images in 0.310960 seconds	8.143
4	on average processed 32 images in 0.307197 seconds	7.996
5	on average processed 32 images in 0.308648 seconds	7.996
6	on average processed 32 images in 0.308357 seconds	7.921
7	on average processed 32 images in 0.307409 seconds	8.044
8	on average processed 32 images in 0.306798 seconds	7.904
9	on average processed 32 images in 0.305620 seconds	7.903
10	on average processed 32 images in 0.304743 seconds	7.981
11	on average processed 32 images in 0.303890 seconds	7.961
12	on average processed 32 images in 0.303144 seconds	7.892
13	on average processed 32 images in 0.302288 seconds	7.846
14	on average processed 32 images in 0.302690 seconds	7.901
15	on average processed 32 images in 0.302450 seconds	7.840
16	on average processed 32 images in 0.302549 seconds	7.867
17	on average processed 32 images in 0.302499 seconds	7.915
18	on average processed 32 images in 0.303221 seconds	8.021
19	on average processed 32 images in 0.303529 seconds	7.861
20	on average processed 32 images in 0.303786 seconds	7.980
21	on average processed 32 images in 0.304281 seconds	7.779
22	on average processed 32 images in 0.303737 seconds	7.995
23	on average processed 32 images in 0.303020 seconds	8.002
24	on average processed 32 images in 0.303027 seconds	7.993
25	on average processed 32 images in 0.303140 seconds	8.058
26	on average processed 32 images in 0.303244 seconds	7.865
27	on average processed 32 images in 0.302874 seconds	7.906
28	on average processed 32 images in 0.302664 seconds	7.963
29	on average processed 32 images in 0.302269 seconds	7.967
30	on average processed 32 images in 0.302253 seconds	7.877
31	on average processed 32 images in 0.301792 seconds	7.937
32	on average processed 32 images in 0.301989 seconds	7.892
33	on average processed 32 images in 0.302009 seconds	8.032
34	on average processed 32 images in 0.301727 seconds	7.901
35	on average processed 32 images in 0.301576 seconds	8.002
36	on average processed 32 images in 0.301996 seconds	7.889
37	on average processed 32 images in 0.301848 seconds	7.936
38	on average processed 32 images in 0.302298 seconds	7.911
39	on average processed 32 images in 0.302255 seconds	7.948
40	on average processed 32 images in 0.302665 seconds	7.921
41	on average processed 32 images in 0.302584 seconds	7.933
42	on average processed 32 images in 0.302870 seconds	7.881
43	on average processed 32 images in 0.303005 seconds	8.030
44	on average processed 32 images in 0.303026 seconds	8.001
45	on average processed 32 images in 0.302891 seconds	7.839
46	on average processed 32 images in 0.302986 seconds	7.966
47	on average processed 32 images in 0.303290 seconds	7.692
48	on average processed 32 images in 0.303105 seconds	7.885
49	on average processed 32 images in 0.303063 seconds	7.775
50	on average processed 32 images in 0.303030 seconds	7.711
51	on average processed 32 images in 0.303037 seconds	7.933
52	on average processed 32 images in 0.303333 seconds	7.915
53	on average processed 32 images in 0.303195 seconds	7.700
54	on average processed 32 images in 0.303143 seconds	7.939
55	on average processed 32 images in 0.303301 seconds	7.826
56	on average processed 32 images in 0.303050 seconds	7.713
57	on average processed 32 images in 0.302967 seconds	7.903
58	on average processed 32 images in 0.302959 seconds	8.041
59	on average processed 32 images in 0.302793 seconds	7.876
60	on average processed 32 images in 0.303071 seconds	8.008
61	on average processed 32 images in 0.303032 seconds	7.925
62	on average processed 32 images in 0.303097 seconds	7.879
63	on average processed 32 images in 0.303052 seconds	7.937
64	on average processed 32 images in 0.303153 seconds	7.896
65	on average processed 32 images in 0.303121 seconds	7.788
66	on average processed 32 images in 0.303279 seconds	7.931
67	on average processed 32 images in 0.303106 seconds	7.972
68	on average processed 32 images in 0.303179 seconds	7.876
69	on average processed 32 images in 0.303135 seconds	7.861
70	on average processed 32 images in 0.303230 seconds	7.906
71	on average processed 32 images in 0.303220 seconds	8.078
72	on average processed 32 images in 0.303302 seconds	7.872
73	on average processed 32 images in 0.303192 seconds	7.850
74	on average processed 32 images in 0.303395 seconds	7.787
75	on average processed 32 images in 0.303304 seconds	7.983
76	on average processed 32 images in 0.303345 seconds	7.812
77	on average processed 32 images in 0.303418 seconds	7.920
78	on average processed 32 images in 0.303335 seconds	7.815
79	on average processed 32 images in 0.303401 seconds	7.846
80	on average processed 32 images in 0.303671 seconds	8.064
81	on average processed 32 images in 0.303688 seconds	7.938
82	on average processed 32 images in 0.303632 seconds	8.111
83	on average processed 32 images in 0.303649 seconds	7.840
84	on average processed 32 images in 0.303665 seconds	7.867
85	on average processed 32 images in 0.303699 seconds	7.804
86	on average processed 32 images in 0.303703 seconds	7.629
87	on average processed 32 images in 0.303611 seconds	7.948
88	on average processed 32 images in 0.303511 seconds	7.903
89	on average processed 32 images in 0.303533 seconds	7.885
90	on average processed 32 images in 0.303493 seconds	7.859
91	on average processed 32 images in 0.303701 seconds	8.201
92	on average processed 32 images in 0.303948 seconds	7.961
93	on average processed 32 images in 0.304012 seconds	7.880
94	on average processed 32 images in 0.303877 seconds	7.763
95	on average processed 32 images in 0.303780 seconds	7.950
96	on average processed 32 images in 0.303901 seconds	7.799
97	on average processed 32 images in 0.303797 seconds	7.971
98	on average processed 32 images in 0.303874 seconds	7.634
99	on average processed 32 images in 0.303858 seconds	8.062
100	on average processed 32 images in 0.303796 seconds	7.785
Finishing real work at step 880 at time Sun Oct 15 23:33:02 2017
----------------------------------------------------------------
total images/sec: 841.51
----------------------------------------------------------------
