2017-10-06 18:46:31.767209: I tensorflow/core/common_runtime/gpu/gpu_device.cc:940] Found device 0 with properties: 
name: Tesla P100-PCIE-16GB
major: 6 minor: 0 memoryClockRate (GHz) 1.3285
pciBusID 0000:02:00.0
Total memory: 15.89GiB
Free memory: 15.61GiB
2017-10-06 18:46:31.767810: I tensorflow/core/common_runtime/gpu/gpu_device.cc:961] DMA: 0 
2017-10-06 18:46:31.767827: I tensorflow/core/common_runtime/gpu/gpu_device.cc:971] 0:   Y 
2017-10-06 18:46:31.788019: I tensorflow/core/common_runtime/gpu/gpu_device.cc:1030] Creating TensorFlow device (/gpu:0) -> (device: 0, name: Tesla P100-PCIE-16GB, pci bus id: 0000:02:00.0)
2017-10-06 18:46:32.076747: I tensorflow/core/distributed_runtime/rpc/grpc_channel.cc:215] Initialize GrpcChannelCache for job ps -> {0 -> nid03704:2230, 1 -> nid03705:2230, 2 -> nid03706:2230, 3 -> nid03707:2230, 4 -> nid03708:2230, 5 -> nid03709:2230, 6 -> nid03710:2230, 7 -> nid03711:2230, 8 -> nid03712:2230, 9 -> nid03713:2230, 10 -> nid03714:2230, 11 -> nid03715:2230, 12 -> nid03716:2230, 13 -> nid03717:2230, 14 -> nid03718:2230, 15 -> nid03719:2230}
2017-10-06 18:46:32.076788: I tensorflow/core/distributed_runtime/rpc/grpc_channel.cc:215] Initialize GrpcChannelCache for job worker -> {0 -> nid03704:2220, 1 -> nid03705:2220, 2 -> localhost:2220, 3 -> nid03707:2220, 4 -> nid03708:2220, 5 -> nid03709:2220, 6 -> nid03710:2220, 7 -> nid03711:2220, 8 -> nid03712:2220, 9 -> nid03713:2220, 10 -> nid03714:2220, 11 -> nid03715:2220, 12 -> nid03716:2220, 13 -> nid03717:2220, 14 -> nid03718:2220, 15 -> nid03719:2220}
2017-10-06 18:46:32.077509: I tensorflow/core/distributed_runtime/rpc/grpc_server_lib.cc:316] Started server with target: grpc://localhost:2220
2017-10-06 18:46:43.892892: I tensorflow/core/distributed_runtime/master_session.cc:999] Start master session b6eaa11f101f5bef with config: 
intra_op_parallelism_threads: 1
allow_soft_placement: true

2017-10-06 18:47:17.145391: I tensorflow/core/distributed_runtime/master_session.cc:999] Start master session 50bc620ef40f501f with config: 
intra_op_parallelism_threads: 1
allow_soft_placement: true

TensorFlow:  1.2
Model:       alexnet
Mode:        training
Batch size:  32 global
             32.0 per device
Devices:     ['/job:worker/task:2/gpu:0']
Data format: NCHW
Optimizer:   sgd
Variables:   distributed_replicated
Sync:        True
==========
Generating model
Running warm up
Done warm up
Step	Img/sec	loss
Starting real work at step 160 at time Fri Oct  6 18:48:32 2017
1	on average processed 32 images in 6.669058 seconds	7.280
2	on average processed 32 images in 6.513606 seconds	7.281
3	on average processed 32 images in 6.534150 seconds	7.277
4	on average processed 32 images in 6.555048 seconds	7.262
5	on average processed 32 images in 6.570544 seconds	7.281
6	on average processed 32 images in 6.597504 seconds	7.278
7	on average processed 32 images in 6.597720 seconds	7.277
8	on average processed 32 images in 6.587361 seconds	7.271
9	on average processed 32 images in 6.587877 seconds	7.262
10	on average processed 32 images in 6.582203 seconds	7.270
11	on average processed 32 images in 6.594080 seconds	7.271
12	on average processed 32 images in 6.581068 seconds	7.269
13	on average processed 32 images in 6.581758 seconds	7.275
14	on average processed 32 images in 6.577045 seconds	7.260
15	on average processed 32 images in 6.569652 seconds	7.258
16	on average processed 32 images in 6.567475 seconds	7.267
17	on average processed 32 images in 6.563592 seconds	7.256
18	on average processed 32 images in 6.559324 seconds	7.267
19	on average processed 32 images in 6.555358 seconds	7.287
20	on average processed 32 images in 6.554142 seconds	7.275
21	on average processed 32 images in 6.553921 seconds	7.302
22	on average processed 32 images in 6.549894 seconds	7.263
23	on average processed 32 images in 6.566048 seconds	7.273
24	on average processed 32 images in 6.565694 seconds	7.259
25	on average processed 32 images in 6.563654 seconds	7.280
26	on average processed 32 images in 6.565151 seconds	7.271
27	on average processed 32 images in 6.563852 seconds	7.276
28	on average processed 32 images in 6.562897 seconds	7.301
29	on average processed 32 images in 6.567975 seconds	7.255
30	on average processed 32 images in 6.575045 seconds	7.309
31	on average processed 32 images in 6.576429 seconds	7.292
32	on average processed 32 images in 6.578069 seconds	7.247
33	on average processed 32 images in 6.571451 seconds	7.285
34	on average processed 32 images in 6.573505 seconds	7.292
35	on average processed 32 images in 6.573392 seconds	7.270
36	on average processed 32 images in 6.576311 seconds	7.261
37	on average processed 32 images in 6.568156 seconds	7.258
38	on average processed 32 images in 6.569066 seconds	7.276
39	on average processed 32 images in 6.568374 seconds	7.269
40	on average processed 32 images in 6.567427 seconds	7.292
41	on average processed 32 images in 6.567588 seconds	7.271
42	on average processed 32 images in 6.569154 seconds	7.296
43	on average processed 32 images in 6.566087 seconds	7.261
44	on average processed 32 images in 6.567650 seconds	7.267
45	on average processed 32 images in 6.566717 seconds	7.272
46	on average processed 32 images in 6.566626 seconds	7.235
47	on average processed 32 images in 6.566508 seconds	7.249
48	on average processed 32 images in 6.565199 seconds	7.274
49	on average processed 32 images in 6.567850 seconds	7.258
50	on average processed 32 images in 6.567922 seconds	7.274
51	on average processed 32 images in 6.570753 seconds	7.280
52	on average processed 32 images in 6.569986 seconds	7.320
53	on average processed 32 images in 6.570874 seconds	7.283
54	on average processed 32 images in 6.568623 seconds	7.270
55	on average processed 32 images in 6.570434 seconds	7.233
56	on average processed 32 images in 6.571539 seconds	7.231
57	on average processed 32 images in 6.569340 seconds	7.269
58	on average processed 32 images in 6.568912 seconds	7.258
59	on average processed 32 images in 6.569275 seconds	7.281
60	on average processed 32 images in 6.569163 seconds	7.249
61	on average processed 32 images in 6.568678 seconds	7.265
62	on average processed 32 images in 6.568752 seconds	7.277
63	on average processed 32 images in 6.566188 seconds	7.313
64	on average processed 32 images in 6.566062 seconds	7.246
65	on average processed 32 images in 6.566982 seconds	7.269
66	on average processed 32 images in 6.568126 seconds	7.247
67	on average processed 32 images in 6.569033 seconds	7.289
68	on average processed 32 images in 6.568681 seconds	7.257
69	on average processed 32 images in 6.568308 seconds	7.254
70	on average processed 32 images in 6.570993 seconds	7.270
71	on average processed 32 images in 6.571853 seconds	7.221
72	on average processed 32 images in 6.572075 seconds	7.307
73	on average processed 32 images in 6.571250 seconds	7.228
74	on average processed 32 images in 6.566753 seconds	7.241
75	on average processed 32 images in 6.564572 seconds	7.248
76	on average processed 32 images in 6.565502 seconds	7.211
77	on average processed 32 images in 6.565300 seconds	7.264
78	on average processed 32 images in 6.565372 seconds	7.292
79	on average processed 32 images in 6.566341 seconds	7.220
80	on average processed 32 images in 6.567098 seconds	7.213
81	on average processed 32 images in 6.565225 seconds	7.215
82	on average processed 32 images in 6.564808 seconds	7.215
83	on average processed 32 images in 6.565455 seconds	7.242
84	on average processed 32 images in 6.566481 seconds	7.288
85	on average processed 32 images in 6.564521 seconds	7.242
86	on average processed 32 images in 6.565019 seconds	7.252
87	on average processed 32 images in 6.565092 seconds	7.306
88	on average processed 32 images in 6.565794 seconds	7.294
89	on average processed 32 images in 6.566586 seconds	7.232
90	on average processed 32 images in 6.566054 seconds	7.168
91	on average processed 32 images in 6.563604 seconds	7.265
92	on average processed 32 images in 6.563833 seconds	7.272
93	on average processed 32 images in 6.563781 seconds	7.284
94	on average processed 32 images in 6.563889 seconds	7.293
95	on average processed 32 images in 6.563101 seconds	7.241
96	on average processed 32 images in 6.564112 seconds	7.202
97	on average processed 32 images in 6.562876 seconds	7.187
98	on average processed 32 images in 6.562075 seconds	7.241
99	on average processed 32 images in 6.562277 seconds	7.265
100	on average processed 32 images in 6.562243 seconds	7.267
Finishing real work at step 1759 at time Fri Oct  6 18:59:29 2017
----------------------------------------------------------------
total images/sec: 77.95
----------------------------------------------------------------
