2017-10-06 18:46:31.863573: I tensorflow/core/common_runtime/gpu/gpu_device.cc:940] Found device 0 with properties: 
name: Tesla P100-PCIE-16GB
major: 6 minor: 0 memoryClockRate (GHz) 1.3285
pciBusID 0000:02:00.0
Total memory: 15.89GiB
Free memory: 15.61GiB
2017-10-06 18:46:31.864058: I tensorflow/core/common_runtime/gpu/gpu_device.cc:961] DMA: 0 
2017-10-06 18:46:31.864098: I tensorflow/core/common_runtime/gpu/gpu_device.cc:971] 0:   Y 
2017-10-06 18:46:31.864691: I tensorflow/core/common_runtime/gpu/gpu_device.cc:1030] Creating TensorFlow device (/gpu:0) -> (device: 0, name: Tesla P100-PCIE-16GB, pci bus id: 0000:02:00.0)
2017-10-06 18:46:32.094184: I tensorflow/core/distributed_runtime/rpc/grpc_channel.cc:215] Initialize GrpcChannelCache for job ps -> {0 -> nid03704:2230, 1 -> nid03705:2230, 2 -> nid03706:2230, 3 -> nid03707:2230, 4 -> nid03708:2230, 5 -> nid03709:2230, 6 -> nid03710:2230, 7 -> nid03711:2230, 8 -> nid03712:2230, 9 -> nid03713:2230, 10 -> nid03714:2230, 11 -> nid03715:2230, 12 -> nid03716:2230, 13 -> nid03717:2230, 14 -> nid03718:2230, 15 -> nid03719:2230}
2017-10-06 18:46:32.094226: I tensorflow/core/distributed_runtime/rpc/grpc_channel.cc:215] Initialize GrpcChannelCache for job worker -> {0 -> nid03704:2220, 1 -> nid03705:2220, 2 -> nid03706:2220, 3 -> nid03707:2220, 4 -> nid03708:2220, 5 -> nid03709:2220, 6 -> nid03710:2220, 7 -> nid03711:2220, 8 -> nid03712:2220, 9 -> nid03713:2220, 10 -> nid03714:2220, 11 -> localhost:2220, 12 -> nid03716:2220, 13 -> nid03717:2220, 14 -> nid03718:2220, 15 -> nid03719:2220}
2017-10-06 18:46:32.094943: I tensorflow/core/distributed_runtime/rpc/grpc_server_lib.cc:316] Started server with target: grpc://localhost:2220
2017-10-06 18:46:43.797190: I tensorflow/core/distributed_runtime/master_session.cc:999] Start master session 4b8c94b77d93e73c with config: 
intra_op_parallelism_threads: 1
allow_soft_placement: true

2017-10-06 18:47:17.108907: I tensorflow/core/distributed_runtime/master_session.cc:999] Start master session ddf7e2badbd0f3a0 with config: 
intra_op_parallelism_threads: 1
allow_soft_placement: true

TensorFlow:  1.2
Model:       alexnet
Mode:        training
Batch size:  32 global
             32.0 per device
Devices:     ['/job:worker/task:11/gpu:0']
Data format: NCHW
Optimizer:   sgd
Variables:   distributed_replicated
Sync:        True
==========
Generating model
Running warm up
Done warm up
Step	Img/sec	loss
Starting real work at step 160 at time Fri Oct  6 18:48:32 2017
1	on average processed 32 images in 6.668669 seconds	7.264
2	on average processed 32 images in 6.513664 seconds	7.279
3	on average processed 32 images in 6.534216 seconds	7.277
4	on average processed 32 images in 6.555067 seconds	7.281
5	on average processed 32 images in 6.570582 seconds	7.272
6	on average processed 32 images in 6.597514 seconds	7.270
7	on average processed 32 images in 6.597716 seconds	7.282
8	on average processed 32 images in 6.587392 seconds	7.283
9	on average processed 32 images in 6.587899 seconds	7.285
10	on average processed 32 images in 6.582221 seconds	7.275
11	on average processed 32 images in 6.594107 seconds	7.286
12	on average processed 32 images in 6.581084 seconds	7.276
13	on average processed 32 images in 6.581757 seconds	7.260
14	on average processed 32 images in 6.577052 seconds	7.279
15	on average processed 32 images in 6.569648 seconds	7.266
16	on average processed 32 images in 6.567475 seconds	7.273
17	on average processed 32 images in 6.563591 seconds	7.279
18	on average processed 32 images in 6.559334 seconds	7.291
19	on average processed 32 images in 6.555370 seconds	7.283
20	on average processed 32 images in 6.554147 seconds	7.258
21	on average processed 32 images in 6.553922 seconds	7.282
22	on average processed 32 images in 6.549901 seconds	7.290
23	on average processed 32 images in 6.566049 seconds	7.251
24	on average processed 32 images in 6.565696 seconds	7.271
25	on average processed 32 images in 6.563652 seconds	7.289
26	on average processed 32 images in 6.565156 seconds	7.250
27	on average processed 32 images in 6.563852 seconds	7.270
28	on average processed 32 images in 6.562902 seconds	7.280
29	on average processed 32 images in 6.567973 seconds	7.247
30	on average processed 32 images in 6.575046 seconds	7.281
31	on average processed 32 images in 6.576432 seconds	7.275
32	on average processed 32 images in 6.578067 seconds	7.256
33	on average processed 32 images in 6.571446 seconds	7.243
34	on average processed 32 images in 6.573499 seconds	7.276
35	on average processed 32 images in 6.573394 seconds	7.248
36	on average processed 32 images in 6.576309 seconds	7.297
37	on average processed 32 images in 6.568151 seconds	7.252
38	on average processed 32 images in 6.569070 seconds	7.265
39	on average processed 32 images in 6.568366 seconds	7.253
40	on average processed 32 images in 6.567421 seconds	7.284
41	on average processed 32 images in 6.567579 seconds	7.245
42	on average processed 32 images in 6.569148 seconds	7.253
43	on average processed 32 images in 6.566084 seconds	7.299
44	on average processed 32 images in 6.567647 seconds	7.254
45	on average processed 32 images in 6.566711 seconds	7.246
46	on average processed 32 images in 6.566618 seconds	7.224
47	on average processed 32 images in 6.566502 seconds	7.229
48	on average processed 32 images in 6.565194 seconds	7.259
49	on average processed 32 images in 6.567846 seconds	7.238
50	on average processed 32 images in 6.567915 seconds	7.244
51	on average processed 32 images in 6.570748 seconds	7.259
52	on average processed 32 images in 6.569982 seconds	7.232
53	on average processed 32 images in 6.570871 seconds	7.261
54	on average processed 32 images in 6.568620 seconds	7.281
55	on average processed 32 images in 6.570433 seconds	7.295
56	on average processed 32 images in 6.571536 seconds	7.327
57	on average processed 32 images in 6.569341 seconds	7.194
58	on average processed 32 images in 6.568909 seconds	7.306
59	on average processed 32 images in 6.569270 seconds	7.226
60	on average processed 32 images in 6.569160 seconds	7.293
61	on average processed 32 images in 6.568674 seconds	7.312
62	on average processed 32 images in 6.568745 seconds	7.270
63	on average processed 32 images in 6.566186 seconds	7.318
64	on average processed 32 images in 6.566059 seconds	7.212
65	on average processed 32 images in 6.566975 seconds	7.279
66	on average processed 32 images in 6.568122 seconds	7.310
67	on average processed 32 images in 6.569026 seconds	7.274
68	on average processed 32 images in 6.568677 seconds	7.249
69	on average processed 32 images in 6.568302 seconds	7.300
70	on average processed 32 images in 6.570991 seconds	7.289
71	on average processed 32 images in 6.571846 seconds	7.234
72	on average processed 32 images in 6.572069 seconds	7.228
73	on average processed 32 images in 6.571246 seconds	7.240
74	on average processed 32 images in 6.566748 seconds	7.268
75	on average processed 32 images in 6.564566 seconds	7.261
76	on average processed 32 images in 6.565496 seconds	7.278
77	on average processed 32 images in 6.565295 seconds	7.302
78	on average processed 32 images in 6.565370 seconds	7.262
79	on average processed 32 images in 6.566334 seconds	7.249
80	on average processed 32 images in 6.567093 seconds	7.241
81	on average processed 32 images in 6.565220 seconds	7.200
82	on average processed 32 images in 6.564804 seconds	7.234
83	on average processed 32 images in 6.565451 seconds	7.242
84	on average processed 32 images in 6.566475 seconds	7.253
85	on average processed 32 images in 6.564516 seconds	7.250
86	on average processed 32 images in 6.565018 seconds	7.256
87	on average processed 32 images in 6.565088 seconds	7.319
88	on average processed 32 images in 6.565789 seconds	7.245
89	on average processed 32 images in 6.566582 seconds	7.280
90	on average processed 32 images in 6.566050 seconds	7.275
91	on average processed 32 images in 6.563601 seconds	7.271
92	on average processed 32 images in 6.563826 seconds	7.264
93	on average processed 32 images in 6.563776 seconds	7.271
94	on average processed 32 images in 6.563884 seconds	7.291
95	on average processed 32 images in 6.563097 seconds	7.282
96	on average processed 32 images in 6.564107 seconds	7.244
97	on average processed 32 images in 6.562871 seconds	7.208
98	on average processed 32 images in 6.562070 seconds	7.270
99	on average processed 32 images in 6.562271 seconds	7.274
100	on average processed 32 images in 6.562238 seconds	7.307
Finishing real work at step 1759 at time Fri Oct  6 18:59:29 2017
----------------------------------------------------------------
total images/sec: 77.98
----------------------------------------------------------------
