2017-11-20 15:19:11.915246: I tensorflow/core/common_runtime/gpu/gpu_device.cc:940] Found device 0 with properties: 
name: Tesla P100-PCIE-16GB
major: 6 minor: 0 memoryClockRate (GHz) 1.3285
pciBusID 0000:02:00.0
Total memory: 15.89GiB
Free memory: 15.61GiB
2017-11-20 15:19:11.915808: I tensorflow/core/common_runtime/gpu/gpu_device.cc:961] DMA: 0 
2017-11-20 15:19:11.915825: I tensorflow/core/common_runtime/gpu/gpu_device.cc:971] 0:   Y 
2017-11-20 15:19:11.916052: I tensorflow/core/common_runtime/gpu/gpu_device.cc:1030] Creating TensorFlow device (/gpu:0) -> (device: 0, name: Tesla P100-PCIE-16GB, pci bus id: 0000:02:00.0)
2017-11-20 15:19:12.071885: I tensorflow/core/distributed_runtime/rpc/grpc_channel.cc:215] Initialize GrpcChannelCache for job ps -> {0 -> nid02316:2230, 1 -> nid02317:2230}
2017-11-20 15:19:12.071942: I tensorflow/core/distributed_runtime/rpc/grpc_channel.cc:215] Initialize GrpcChannelCache for job worker -> {0 -> nid02316:2220, 1 -> nid02317:2220, 2 -> localhost:2220, 3 -> nid02319:2220}
2017-11-20 15:19:12.074445: I tensorflow/core/distributed_runtime/rpc/grpc_server_lib.cc:316] Started server with target: grpc://localhost:2220
2017-11-20 15:19:22.595031: I tensorflow/core/distributed_runtime/master_session.cc:999] Start master session 55a0b2e9ec373891 with config: 
intra_op_parallelism_threads: 1
allow_soft_placement: true

