2017-10-10 20:01:35.702555: I tensorflow/core/common_runtime/gpu/gpu_device.cc:940] Found device 0 with properties: 
name: Tesla P100-PCIE-16GB
major: 6 minor: 0 memoryClockRate (GHz) 1.3285
pciBusID 0000:02:00.0
Total memory: 15.89GiB
Free memory: 15.61GiB
2017-10-10 20:01:35.703236: I tensorflow/core/common_runtime/gpu/gpu_device.cc:961] DMA: 0 
2017-10-10 20:01:35.703253: I tensorflow/core/common_runtime/gpu/gpu_device.cc:971] 0:   Y 
2017-10-10 20:01:35.703270: I tensorflow/core/common_runtime/gpu/gpu_device.cc:1030] Creating TensorFlow device (/gpu:0) -> (device: 0, name: Tesla P100-PCIE-16GB, pci bus id: 0000:02:00.0)
2017-10-10 20:01:35.868277: I tensorflow/core/distributed_runtime/rpc/grpc_channel.cc:215] Initialize GrpcChannelCache for job ps -> {0 -> nid02027:2230, 1 -> nid02028:2230, 2 -> nid02245:2230, 3 -> nid02246:2230, 4 -> nid02247:2230, 5 -> nid02248:2230, 6 -> nid02249:2230, 7 -> nid02250:2230, 8 -> nid02251:2230, 9 -> nid02252:2230, 10 -> nid05290:2230, 11 -> nid05291:2230, 12 -> nid05292:2230, 13 -> nid05293:2230, 14 -> nid05294:2230, 15 -> nid05295:2230, 16 -> nid05296:2230, 17 -> nid05297:2230, 18 -> nid05298:2230, 19 -> nid05299:2230, 20 -> nid05300:2230, 21 -> nid05301:2230, 22 -> nid05302:2230, 23 -> nid05303:2230, 24 -> nid05304:2230, 25 -> nid05305:2230, 26 -> nid05332:2230, 27 -> nid05333:2230, 28 -> nid05334:2230, 29 -> nid05335:2230, 30 -> nid05336:2230, 31 -> nid05337:2230}
2017-10-10 20:01:35.868320: I tensorflow/core/distributed_runtime/rpc/grpc_channel.cc:215] Initialize GrpcChannelCache for job worker -> {0 -> nid02027:2220, 1 -> nid02028:2220, 2 -> nid02245:2220, 3 -> nid02246:2220, 4 -> nid02247:2220, 5 -> nid02248:2220, 6 -> nid02249:2220, 7 -> nid02250:2220, 8 -> nid02251:2220, 9 -> nid02252:2220, 10 -> nid05290:2220, 11 -> nid05291:2220, 12 -> nid05292:2220, 13 -> nid05293:2220, 14 -> nid05294:2220, 15 -> nid05295:2220, 16 -> localhost:2220, 17 -> nid05297:2220, 18 -> nid05298:2220, 19 -> nid05299:2220, 20 -> nid05300:2220, 21 -> nid05301:2220, 22 -> nid05302:2220, 23 -> nid05303:2220, 24 -> nid05304:2220, 25 -> nid05305:2220, 26 -> nid05332:2220, 27 -> nid05333:2220, 28 -> nid05334:2220, 29 -> nid05335:2220, 30 -> nid05336:2220, 31 -> nid05337:2220}
2017-10-10 20:01:35.868998: I tensorflow/core/distributed_runtime/rpc/grpc_server_lib.cc:316] Started server with target: grpc://localhost:2220
2017-10-10 20:02:11.644933: I tensorflow/core/distributed_runtime/master_session.cc:999] Start master session 5b7890ee697a8380 with config: 
intra_op_parallelism_threads: 1
allow_soft_placement: true

2017-10-10 20:02:49.056920: I tensorflow/core/distributed_runtime/master_session.cc:999] Start master session 87080c061a7a4a4c with config: 
intra_op_parallelism_threads: 1
allow_soft_placement: true

TensorFlow:  1.2
Model:       resnet152
Mode:        training
Batch size:  32 global
             32.0 per device
Devices:     ['/job:worker/task:16/gpu:0']
Data format: NCHW
Optimizer:   sgd
Variables:   parameter_server
Sync:        True
==========
Generating model
Running warm up
Done warm up
Step	Img/sec	loss
Starting real work at step 320 at time Tue Oct 10 20:03:06 2017
1	on average processed 32 images in 0.890685 seconds	9.659
2	on average processed 32 images in 0.885089 seconds	10.174
3	on average processed 32 images in 0.880855 seconds	9.827
4	on average processed 32 images in 0.882415 seconds	10.046
5	on average processed 32 images in 0.884172 seconds	9.810
6	on average processed 32 images in 0.887063 seconds	9.812
7	on average processed 32 images in 0.889339 seconds	9.607
8	on average processed 32 images in 0.886902 seconds	13.685
9	on average processed 32 images in 0.887473 seconds	10.451
10	on average processed 32 images in 0.888429 seconds	9.482
11	on average processed 32 images in 0.889284 seconds	10.128
12	on average processed 32 images in 0.889330 seconds	10.314
13	on average processed 32 images in 0.889511 seconds	9.695
14	on average processed 32 images in 0.888561 seconds	10.477
15	on average processed 32 images in 0.890832 seconds	9.458
16	on average processed 32 images in 0.889378 seconds	9.651
17	on average processed 32 images in 0.886033 seconds	10.056
18	on average processed 32 images in 0.886521 seconds	10.007
19	on average processed 32 images in 0.885956 seconds	9.763
20	on average processed 32 images in 0.885142 seconds	9.697
21	on average processed 32 images in 0.883892 seconds	9.828
22	on average processed 32 images in 0.883033 seconds	9.594
23	on average processed 32 images in 0.882927 seconds	10.726
24	on average processed 32 images in 0.883380 seconds	12.598
25	on average processed 32 images in 0.883224 seconds	9.746
26	on average processed 32 images in 0.883842 seconds	9.556
27	on average processed 32 images in 0.883441 seconds	9.622
28	on average processed 32 images in 0.883587 seconds	9.725
29	on average processed 32 images in 0.883596 seconds	9.616
30	on average processed 32 images in 0.883471 seconds	9.470
31	on average processed 32 images in 0.882437 seconds	9.624
32	on average processed 32 images in 0.881857 seconds	9.504
33	on average processed 32 images in 0.882383 seconds	9.835
34	on average processed 32 images in 0.882333 seconds	9.543
35	on average processed 32 images in 0.883557 seconds	9.654
36	on average processed 32 images in 0.883139 seconds	9.506
37	on average processed 32 images in 0.882824 seconds	9.912
38	on average processed 32 images in 0.883947 seconds	9.604
39	on average processed 32 images in 0.883852 seconds	9.473
40	on average processed 32 images in 0.884023 seconds	9.353
41	on average processed 32 images in 0.883868 seconds	9.739
42	on average processed 32 images in 0.883616 seconds	9.533
43	on average processed 32 images in 0.883929 seconds	9.716
44	on average processed 32 images in 0.883630 seconds	9.475
45	on average processed 32 images in 0.883505 seconds	9.471
46	on average processed 32 images in 0.883563 seconds	12.270
47	on average processed 32 images in 0.884098 seconds	9.594
48	on average processed 32 images in 0.884351 seconds	9.494
49	on average processed 32 images in 0.884346 seconds	9.494
50	on average processed 32 images in 0.883984 seconds	9.413
51	on average processed 32 images in 0.884223 seconds	9.912
52	on average processed 32 images in 0.884505 seconds	9.426
53	on average processed 32 images in 0.884138 seconds	9.586
54	on average processed 32 images in 0.883352 seconds	9.539
55	on average processed 32 images in 0.883378 seconds	9.555
56	on average processed 32 images in 0.883005 seconds	9.493
57	on average processed 32 images in 0.882814 seconds	9.591
58	on average processed 32 images in 0.882949 seconds	9.424
59	on average processed 32 images in 0.883179 seconds	9.582
60	on average processed 32 images in 0.883041 seconds	9.435
61	on average processed 32 images in 0.883166 seconds	9.814
62	on average processed 32 images in 0.883331 seconds	9.386
63	on average processed 32 images in 0.883337 seconds	9.497
64	on average processed 32 images in 0.883277 seconds	9.525
65	on average processed 32 images in 0.883268 seconds	9.969
66	on average processed 32 images in 0.883296 seconds	9.615
67	on average processed 32 images in 0.883234 seconds	9.480
68	on average processed 32 images in 0.882928 seconds	9.454
69	on average processed 32 images in 0.882458 seconds	9.625
70	on average processed 32 images in 0.882766 seconds	9.456
71	on average processed 32 images in 0.882656 seconds	9.730
72	on average processed 32 images in 0.882196 seconds	10.082
73	on average processed 32 images in 0.882316 seconds	9.525
74	on average processed 32 images in 0.882099 seconds	9.425
75	on average processed 32 images in 0.882135 seconds	9.428
76	on average processed 32 images in 0.882153 seconds	9.507
77	on average processed 32 images in 0.882695 seconds	9.575
78	on average processed 32 images in 0.882871 seconds	9.496
79	on average processed 32 images in 0.883049 seconds	9.472
80	on average processed 32 images in 0.883366 seconds	9.616
81	on average processed 32 images in 0.883147 seconds	9.518
82	on average processed 32 images in 0.883028 seconds	9.458
83	on average processed 32 images in 0.883147 seconds	9.427
84	on average processed 32 images in 0.882879 seconds	9.557
85	on average processed 32 images in 0.882755 seconds	9.457
86	on average processed 32 images in 0.882809 seconds	10.143
87	on average processed 32 images in 0.883273 seconds	9.615
88	on average processed 32 images in 0.883036 seconds	9.553
89	on average processed 32 images in 0.882715 seconds	9.419
90	on average processed 32 images in 0.882911 seconds	9.491
91	on average processed 32 images in 0.883086 seconds	9.671
92	on average processed 32 images in 0.883166 seconds	9.628
93	on average processed 32 images in 0.883263 seconds	9.490
94	on average processed 32 images in 0.883464 seconds	9.559
95	on average processed 32 images in 0.883561 seconds	9.428
96	on average processed 32 images in 0.883648 seconds	9.414
97	on average processed 32 images in 0.883593 seconds	9.480
98	on average processed 32 images in 0.883714 seconds	9.483
99	on average processed 32 images in 0.883678 seconds	9.712
100	on average processed 32 images in 0.883399 seconds	9.621
Finishing real work at step 3520 at time Tue Oct 10 20:04:34 2017
----------------------------------------------------------------
total images/sec: 1159.95
----------------------------------------------------------------
