2017-11-20 16:50:59.150774: I tensorflow/core/common_runtime/gpu/gpu_device.cc:940] Found device 0 with properties: 
name: Tesla P100-PCIE-16GB
major: 6 minor: 0 memoryClockRate (GHz) 1.3285
pciBusID 0000:02:00.0
Total memory: 15.89GiB
Free memory: 15.61GiB
2017-11-20 16:50:59.151631: I tensorflow/core/common_runtime/gpu/gpu_device.cc:961] DMA: 0 
2017-11-20 16:50:59.151649: I tensorflow/core/common_runtime/gpu/gpu_device.cc:971] 0:   Y 
2017-11-20 16:50:59.151912: I tensorflow/core/common_runtime/gpu/gpu_device.cc:1030] Creating TensorFlow device (/gpu:0) -> (device: 0, name: Tesla P100-PCIE-16GB, pci bus id: 0000:02:00.0)
2017-11-20 16:50:59.312012: I tensorflow/core/distributed_runtime/rpc/grpc_channel.cc:215] Initialize GrpcChannelCache for job ps -> {0 -> nid02351:2230, 1 -> nid02356:2230, 2 -> nid02357:2230, 3 -> nid02358:2230, 4 -> nid04331:2230, 5 -> nid04332:2230, 6 -> nid04333:2230, 7 -> nid04334:2230, 8 -> nid04335:2230, 9 -> nid04336:2230, 10 -> nid04337:2230, 11 -> nid04338:2230}
2017-11-20 16:50:59.312080: I tensorflow/core/distributed_runtime/rpc/grpc_channel.cc:215] Initialize GrpcChannelCache for job worker -> {0 -> nid02351:2220, 1 -> nid02356:2220, 2 -> nid02357:2220, 3 -> nid02358:2220, 4 -> nid04331:2220, 5 -> nid04332:2220, 6 -> nid04333:2220, 7 -> nid04334:2220, 8 -> nid04335:2220, 9 -> nid04336:2220, 10 -> nid04337:2220, 11 -> nid04338:2220, 12 -> nid04339:2220, 13 -> localhost:2220, 14 -> nid04341:2220, 15 -> nid04342:2220}
2017-11-20 16:50:59.315197: I tensorflow/core/distributed_runtime/rpc/grpc_server_lib.cc:316] Started server with target: grpc://localhost:2220
2017-11-20 16:51:08.922512: I tensorflow/core/distributed_runtime/master_session.cc:999] Start master session 123d0778dc3e0819 with config: 
intra_op_parallelism_threads: 1
allow_soft_placement: true

