2017-12-05 11:46:05.326285: I tensorflow/core/common_runtime/gpu/gpu_device.cc:940] Found device 0 with properties: 
name: Tesla P100-PCIE-16GB
major: 6 minor: 0 memoryClockRate (GHz) 1.3285
pciBusID 0000:02:00.0
Total memory: 15.89GiB
Free memory: 15.61GiB
2017-12-05 11:46:05.327006: I tensorflow/core/common_runtime/gpu/gpu_device.cc:961] DMA: 0 
2017-12-05 11:46:05.327044: I tensorflow/core/common_runtime/gpu/gpu_device.cc:971] 0:   Y 
2017-12-05 11:46:05.327333: I tensorflow/core/common_runtime/gpu/gpu_device.cc:1030] Creating TensorFlow device (/gpu:0) -> (device: 0, name: Tesla P100-PCIE-16GB, pci bus id: 0000:02:00.0)
2017-12-05 11:46:05.472969: I tensorflow/core/distributed_runtime/rpc/grpc_channel.cc:215] Initialize GrpcChannelCache for job ps -> {0 -> nid06220:2230, 1 -> nid06221:2230, 2 -> nid06222:2230, 3 -> nid06223:2230, 4 -> nid06224:2230, 5 -> nid06225:2230}
2017-12-05 11:46:05.473025: I tensorflow/core/distributed_runtime/rpc/grpc_channel.cc:215] Initialize GrpcChannelCache for job worker -> {0 -> nid06220:2220, 1 -> localhost:2220, 2 -> nid06222:2220, 3 -> nid06223:2220, 4 -> nid06224:2220, 5 -> nid06225:2220, 6 -> nid06226:2220, 7 -> nid06227:2220}
2017-12-05 11:46:05.473726: I tensorflow/core/distributed_runtime/rpc/grpc_server_lib.cc:316] Started server with target: grpc://localhost:2220
2017-12-05 11:46:38.792225: I tensorflow/core/distributed_runtime/master_session.cc:999] Start master session 0be5e69914b415ba with config: 
intra_op_parallelism_threads: 1
allow_soft_placement: true

2017-12-05 11:47:16.994513: I tensorflow/core/distributed_runtime/master_session.cc:999] Start master session bc1f7c5b98d19b04 with config: 
intra_op_parallelism_threads: 1
allow_soft_placement: true

TensorFlow:  1.2
Model:       resnet152
Mode:        training
Batch size:  32 global
             32.0 per device
Devices:     ['/job:worker/task:1/gpu:0']
Data format: NCHW
Optimizer:   sgd
Variables:   parameter_server
Sync:        True
==========
Generating model
Running warm up
Done warm up
Step	Img/sec	loss
Starting real work at step 80 at time Tue Dec  5 11:47:32 2017
1	on average processed 32 images in 0.726220 seconds	9.616
2	on average processed 32 images in 0.724549 seconds	9.681
3	on average processed 32 images in 0.743832 seconds	9.939
4	on average processed 32 images in 0.738994 seconds	9.919
5	on average processed 32 images in 0.734013 seconds	9.567
6	on average processed 32 images in 0.734867 seconds	9.879
7	on average processed 32 images in 0.734261 seconds	9.736
8	on average processed 32 images in 0.737018 seconds	9.711
9	on average processed 32 images in 0.732080 seconds	9.721
10	on average processed 32 images in 0.733172 seconds	9.918
11	on average processed 32 images in 0.736512 seconds	9.668
12	on average processed 32 images in 0.738058 seconds	9.591
13	on average processed 32 images in 0.736357 seconds	9.591
14	on average processed 32 images in 0.736168 seconds	9.720
15	on average processed 32 images in 0.735395 seconds	9.689
16	on average processed 32 images in 0.734655 seconds	9.803
17	on average processed 32 images in 0.732610 seconds	9.646
18	on average processed 32 images in 0.730760 seconds	9.651
19	on average processed 32 images in 0.731360 seconds	9.867
20	on average processed 32 images in 0.731735 seconds	9.572
21	on average processed 32 images in 0.731689 seconds	9.530
22	on average processed 32 images in 0.731833 seconds	9.618
23	on average processed 32 images in 0.732177 seconds	9.505
24	on average processed 32 images in 0.732354 seconds	10.114
25	on average processed 32 images in 0.731199 seconds	9.964
26	on average processed 32 images in 0.731517 seconds	9.599
27	on average processed 32 images in 0.732209 seconds	9.722
28	on average processed 32 images in 0.731627 seconds	9.516
29	on average processed 32 images in 0.731943 seconds	9.534
30	on average processed 32 images in 0.731382 seconds	9.543
31	on average processed 32 images in 0.731492 seconds	9.847
32	on average processed 32 images in 0.731301 seconds	9.653
33	on average processed 32 images in 0.731252 seconds	9.517
34	on average processed 32 images in 0.730918 seconds	9.716
35	on average processed 32 images in 0.731578 seconds	9.770
36	on average processed 32 images in 0.731553 seconds	9.676
37	on average processed 32 images in 0.730953 seconds	9.719
38	on average processed 32 images in 0.731018 seconds	9.534
39	on average processed 32 images in 0.731428 seconds	9.563
40	on average processed 32 images in 0.731621 seconds	9.656
41	on average processed 32 images in 0.731848 seconds	9.751
42	on average processed 32 images in 0.732221 seconds	9.585
43	on average processed 32 images in 0.731662 seconds	9.642
44	on average processed 32 images in 0.731824 seconds	9.555
45	on average processed 32 images in 0.731681 seconds	9.674
46	on average processed 32 images in 0.731344 seconds	9.462
47	on average processed 32 images in 0.731179 seconds	9.535
48	on average processed 32 images in 0.731116 seconds	9.651
49	on average processed 32 images in 0.731350 seconds	9.554
50	on average processed 32 images in 0.731165 seconds	9.590
51	on average processed 32 images in 0.731137 seconds	9.525
52	on average processed 32 images in 0.731173 seconds	9.469
53	on average processed 32 images in 0.731120 seconds	9.556
54	on average processed 32 images in 0.731118 seconds	9.612
55	on average processed 32 images in 0.730690 seconds	9.713
56	on average processed 32 images in 0.730507 seconds	9.631
57	on average processed 32 images in 0.730467 seconds	9.491
58	on average processed 32 images in 0.730745 seconds	9.636
59	on average processed 32 images in 0.730758 seconds	9.976
60	on average processed 32 images in 0.730954 seconds	9.625
61	on average processed 32 images in 0.730779 seconds	9.726
62	on average processed 32 images in 0.731027 seconds	9.592
63	on average processed 32 images in 0.731046 seconds	9.744
64	on average processed 32 images in 0.730861 seconds	9.579
65	on average processed 32 images in 0.730561 seconds	9.447
66	on average processed 32 images in 0.730358 seconds	9.682
67	on average processed 32 images in 0.730234 seconds	9.545
68	on average processed 32 images in 0.730557 seconds	9.547
69	on average processed 32 images in 0.730327 seconds	9.707
70	on average processed 32 images in 0.730382 seconds	9.433
71	on average processed 32 images in 0.730501 seconds	9.468
72	on average processed 32 images in 0.730391 seconds	9.475
73	on average processed 32 images in 0.730523 seconds	9.549
74	on average processed 32 images in 0.730364 seconds	9.537
75	on average processed 32 images in 0.730218 seconds	9.384
76	on average processed 32 images in 0.730386 seconds	9.598
77	on average processed 32 images in 0.730204 seconds	9.445
78	on average processed 32 images in 0.730138 seconds	9.609
79	on average processed 32 images in 0.730043 seconds	9.528
80	on average processed 32 images in 0.729780 seconds	9.475
81	on average processed 32 images in 0.729648 seconds	9.472
82	on average processed 32 images in 0.729692 seconds	9.619
83	on average processed 32 images in 0.729897 seconds	9.739
84	on average processed 32 images in 0.730002 seconds	9.639
85	on average processed 32 images in 0.730067 seconds	9.517
86	on average processed 32 images in 0.730153 seconds	9.500
87	on average processed 32 images in 0.729785 seconds	10.244
88	on average processed 32 images in 0.729961 seconds	9.714
89	on average processed 32 images in 0.730055 seconds	9.544
90	on average processed 32 images in 0.729980 seconds	9.535
91	on average processed 32 images in 0.730186 seconds	9.395
92	on average processed 32 images in 0.730344 seconds	9.946
93	on average processed 32 images in 0.730299 seconds	9.469
94	on average processed 32 images in 0.730497 seconds	9.523
95	on average processed 32 images in 0.730523 seconds	9.478
96	on average processed 32 images in 0.730616 seconds	9.528
97	on average processed 32 images in 0.730525 seconds	10.142
98	on average processed 32 images in 0.730605 seconds	9.534
99	on average processed 32 images in 0.730521 seconds	9.435
100	on average processed 32 images in 0.730687 seconds	9.521
Finishing real work at step 880 at time Tue Dec  5 11:48:45 2017
----------------------------------------------------------------
total images/sec: 350.17
----------------------------------------------------------------
