2017-10-11 22:17:54.388944: I tensorflow/core/common_runtime/gpu/gpu_device.cc:940] Found device 0 with properties: 
name: Tesla P100-PCIE-16GB
major: 6 minor: 0 memoryClockRate (GHz) 1.3285
pciBusID 0000:02:00.0
Total memory: 15.89GiB
Free memory: 15.61GiB
2017-10-11 22:17:54.389566: I tensorflow/core/common_runtime/gpu/gpu_device.cc:961] DMA: 0 
2017-10-11 22:17:54.389587: I tensorflow/core/common_runtime/gpu/gpu_device.cc:971] 0:   Y 
2017-10-11 22:17:54.389606: I tensorflow/core/common_runtime/gpu/gpu_device.cc:1030] Creating TensorFlow device (/gpu:0) -> (device: 0, name: Tesla P100-PCIE-16GB, pci bus id: 0000:02:00.0)
2017-10-11 22:17:54.581337: I tensorflow/core/distributed_runtime/rpc/grpc_channel.cc:215] Initialize GrpcChannelCache for job ps -> {0 -> nid02465:2230}
2017-10-11 22:17:54.581374: I tensorflow/core/distributed_runtime/rpc/grpc_channel.cc:215] Initialize GrpcChannelCache for job worker -> {0 -> localhost:2220}
2017-10-11 22:17:54.582083: I tensorflow/core/distributed_runtime/rpc/grpc_server_lib.cc:316] Started server with target: grpc://localhost:2220
2017-10-11 22:18:31.279371: I tensorflow/core/distributed_runtime/master_session.cc:999] Start master session 6aafd2425c60dd54 with config: 
intra_op_parallelism_threads: 1
allow_soft_placement: true

TensorFlow:  1.2
Model:       resnet152
Mode:        training
Batch size:  32 global
             32.0 per device
Devices:     ['/job:worker/task:0/gpu:0']
Data format: NCHW
Optimizer:   sgd
Variables:   parameter_server
Sync:        True
==========
Generating model
Running warm up
Done warm up
Step	Img/sec	loss
Starting real work at step 10 at time Wed Oct 11 22:18:46 2017
1	on average processed 32 images in 0.553947 seconds	9.823
2	on average processed 32 images in 0.577142 seconds	9.713
3	on average processed 32 images in 0.581319 seconds	10.205
4	on average processed 32 images in 0.576921 seconds	10.127
5	on average processed 32 images in 0.576747 seconds	10.057
6	on average processed 32 images in 0.574972 seconds	9.796
7	on average processed 32 images in 0.575788 seconds	10.046
8	on average processed 32 images in 0.577070 seconds	10.159
9	on average processed 32 images in 0.577181 seconds	9.781
10	on average processed 32 images in 0.575577 seconds	9.838
11	on average processed 32 images in 0.573599 seconds	9.555
12	on average processed 32 images in 0.573931 seconds	10.055
13	on average processed 32 images in 0.573668 seconds	9.797
14	on average processed 32 images in 0.573829 seconds	9.924
15	on average processed 32 images in 0.573681 seconds	9.771
16	on average processed 32 images in 0.574262 seconds	9.907
17	on average processed 32 images in 0.573334 seconds	9.926
18	on average processed 32 images in 0.572304 seconds	9.873
19	on average processed 32 images in 0.571884 seconds	9.870
20	on average processed 32 images in 0.571227 seconds	9.587
21	on average processed 32 images in 0.571005 seconds	9.830
22	on average processed 32 images in 0.572119 seconds	9.684
23	on average processed 32 images in 0.572388 seconds	9.876
24	on average processed 32 images in 0.572104 seconds	9.636
25	on average processed 32 images in 0.572437 seconds	9.766
26	on average processed 32 images in 0.572077 seconds	9.787
27	on average processed 32 images in 0.572015 seconds	9.580
28	on average processed 32 images in 0.571540 seconds	10.001
29	on average processed 32 images in 0.571014 seconds	9.635
30	on average processed 32 images in 0.570801 seconds	10.089
31	on average processed 32 images in 0.570777 seconds	9.729
32	on average processed 32 images in 0.570439 seconds	9.817
33	on average processed 32 images in 0.570562 seconds	9.527
34	on average processed 32 images in 0.571099 seconds	9.768
35	on average processed 32 images in 0.570880 seconds	9.638
36	on average processed 32 images in 0.570898 seconds	10.050
37	on average processed 32 images in 0.570723 seconds	9.715
38	on average processed 32 images in 0.571193 seconds	9.611
39	on average processed 32 images in 0.571428 seconds	9.701
40	on average processed 32 images in 0.571422 seconds	9.893
41	on average processed 32 images in 0.571193 seconds	9.643
42	on average processed 32 images in 0.571177 seconds	10.052
43	on average processed 32 images in 0.571363 seconds	9.591
44	on average processed 32 images in 0.571129 seconds	9.772
45	on average processed 32 images in 0.570769 seconds	10.001
46	on average processed 32 images in 0.570702 seconds	9.928
47	on average processed 32 images in 0.570448 seconds	9.733
48	on average processed 32 images in 0.570869 seconds	9.775
49	on average processed 32 images in 0.570567 seconds	9.618
50	on average processed 32 images in 0.570721 seconds	9.836
51	on average processed 32 images in 0.570456 seconds	9.872
52	on average processed 32 images in 0.570612 seconds	9.662
53	on average processed 32 images in 0.570649 seconds	9.733
54	on average processed 32 images in 0.570655 seconds	9.672
55	on average processed 32 images in 0.570623 seconds	10.042
56	on average processed 32 images in 0.570346 seconds	9.671
57	on average processed 32 images in 0.570110 seconds	10.033
58	on average processed 32 images in 0.570249 seconds	9.671
59	on average processed 32 images in 0.569939 seconds	9.823
60	on average processed 32 images in 0.570126 seconds	9.435
61	on average processed 32 images in 0.570271 seconds	9.644
62	on average processed 32 images in 0.570404 seconds	9.803
63	on average processed 32 images in 0.570883 seconds	9.748
64	on average processed 32 images in 0.570832 seconds	9.880
65	on average processed 32 images in 0.570663 seconds	9.792
66	on average processed 32 images in 0.570489 seconds	9.507
67	on average processed 32 images in 0.570314 seconds	9.614
68	on average processed 32 images in 0.570528 seconds	9.952
69	on average processed 32 images in 0.570297 seconds	9.987
70	on average processed 32 images in 0.570140 seconds	9.729
71	on average processed 32 images in 0.570099 seconds	9.618
72	on average processed 32 images in 0.570104 seconds	9.536
73	on average processed 32 images in 0.570136 seconds	9.563
74	on average processed 32 images in 0.569865 seconds	9.706
75	on average processed 32 images in 0.569805 seconds	9.834
76	on average processed 32 images in 0.570050 seconds	9.525
77	on average processed 32 images in 0.569912 seconds	9.807
78	on average processed 32 images in 0.569927 seconds	9.582
79	on average processed 32 images in 0.569910 seconds	9.588
80	on average processed 32 images in 0.569734 seconds	9.626
81	on average processed 32 images in 0.569554 seconds	9.927
82	on average processed 32 images in 0.569463 seconds	9.748
83	on average processed 32 images in 0.569270 seconds	9.796
84	on average processed 32 images in 0.569146 seconds	9.561
85	on average processed 32 images in 0.568991 seconds	9.708
86	on average processed 32 images in 0.568804 seconds	9.749
87	on average processed 32 images in 0.569122 seconds	9.662
88	on average processed 32 images in 0.569234 seconds	9.688
89	on average processed 32 images in 0.569049 seconds	9.825
90	on average processed 32 images in 0.568912 seconds	9.436
91	on average processed 32 images in 0.568805 seconds	9.648
92	on average processed 32 images in 0.568809 seconds	9.815
93	on average processed 32 images in 0.569182 seconds	9.575
94	on average processed 32 images in 0.569148 seconds	9.710
95	on average processed 32 images in 0.569039 seconds	9.744
96	on average processed 32 images in 0.569186 seconds	9.521
97	on average processed 32 images in 0.569147 seconds	9.477
98	on average processed 32 images in 0.569033 seconds	9.983
99	on average processed 32 images in 0.569101 seconds	9.738
Finishing real work at step 109 at time Wed Oct 11 22:19:42 2017
100	on average processed 32 images in 0.569150 seconds	9.635
----------------------------------------------------------------
total images/sec: 56.21
----------------------------------------------------------------
