2017-10-09 21:44:04.633329: I tensorflow/core/common_runtime/gpu/gpu_device.cc:940] Found device 0 with properties: 
name: Tesla P100-PCIE-16GB
major: 6 minor: 0 memoryClockRate (GHz) 1.3285
pciBusID 0000:02:00.0
Total memory: 15.89GiB
Free memory: 15.61GiB
2017-10-09 21:44:04.633739: I tensorflow/core/common_runtime/gpu/gpu_device.cc:961] DMA: 0 
2017-10-09 21:44:04.633757: I tensorflow/core/common_runtime/gpu/gpu_device.cc:971] 0:   Y 
2017-10-09 21:44:04.635045: I tensorflow/core/common_runtime/gpu/gpu_device.cc:1030] Creating TensorFlow device (/gpu:0) -> (device: 0, name: Tesla P100-PCIE-16GB, pci bus id: 0000:02:00.0)
2017-10-09 21:44:04.872855: I tensorflow/core/distributed_runtime/rpc/grpc_channel.cc:215] Initialize GrpcChannelCache for job ps -> {0 -> nid02413:2230, 1 -> nid02414:2230, 2 -> nid02415:2230, 3 -> nid02416:2230, 4 -> nid02417:2230, 5 -> nid02418:2230, 6 -> nid02419:2230, 7 -> nid02420:2230, 8 -> nid02421:2230, 9 -> nid02422:2230, 10 -> nid02423:2230, 11 -> nid02424:2230, 12 -> nid02425:2230, 13 -> nid02426:2230, 14 -> nid02427:2230, 15 -> nid02428:2230}
2017-10-09 21:44:04.872896: I tensorflow/core/distributed_runtime/rpc/grpc_channel.cc:215] Initialize GrpcChannelCache for job worker -> {0 -> nid02413:2220, 1 -> nid02414:2220, 2 -> nid02415:2220, 3 -> localhost:2220, 4 -> nid02417:2220, 5 -> nid02418:2220, 6 -> nid02419:2220, 7 -> nid02420:2220, 8 -> nid02421:2220, 9 -> nid02422:2220, 10 -> nid02423:2220, 11 -> nid02424:2220, 12 -> nid02425:2220, 13 -> nid02426:2220, 14 -> nid02427:2220, 15 -> nid02428:2220}
2017-10-09 21:44:04.873629: I tensorflow/core/distributed_runtime/rpc/grpc_server_lib.cc:316] Started server with target: grpc://localhost:2220
2017-10-09 21:44:42.991809: I tensorflow/core/distributed_runtime/master_session.cc:999] Start master session d72cdc9585af8261 with config: 
intra_op_parallelism_threads: 1
allow_soft_placement: true

TensorFlow:  1.2
Model:       inception3
Mode:        training
Batch size:  32 global
             32.0 per device
Devices:     ['/job:worker/task:3/gpu:0']
Data format: NCHW
Optimizer:   sgd
Variables:   distributed_replicated
Sync:        True
==========
Generating model
Running warm up
Done warm up
Step	Img/sec	loss
Starting real work at step 160 at time Mon Oct  9 21:45:04 2017
1	on average processed 32 images in 0.436835 seconds	7.466
2	on average processed 32 images in 0.441414 seconds	7.302
3	on average processed 32 images in 0.438339 seconds	7.369
4	on average processed 32 images in 0.439554 seconds	7.439
5	on average processed 32 images in 0.438936 seconds	7.399
6	on average processed 32 images in 0.437587 seconds	7.444
7	on average processed 32 images in 0.440793 seconds	7.297
8	on average processed 32 images in 0.440379 seconds	7.369
9	on average processed 32 images in 0.441203 seconds	7.406
10	on average processed 32 images in 0.439850 seconds	7.348
11	on average processed 32 images in 0.437850 seconds	7.337
12	on average processed 32 images in 0.438484 seconds	7.328
13	on average processed 32 images in 0.438299 seconds	7.393
14	on average processed 32 images in 0.437968 seconds	7.452
15	on average processed 32 images in 0.438265 seconds	7.517
16	on average processed 32 images in 0.438429 seconds	7.445
17	on average processed 32 images in 0.437330 seconds	7.367
18	on average processed 32 images in 0.436595 seconds	7.388
19	on average processed 32 images in 0.437057 seconds	7.417
20	on average processed 32 images in 0.436928 seconds	7.396
21	on average processed 32 images in 0.436068 seconds	7.336
22	on average processed 32 images in 0.436265 seconds	7.454
23	on average processed 32 images in 0.435251 seconds	7.347
24	on average processed 32 images in 0.435777 seconds	7.346
25	on average processed 32 images in 0.435718 seconds	7.365
26	on average processed 32 images in 0.434787 seconds	7.344
27	on average processed 32 images in 0.434259 seconds	7.474
28	on average processed 32 images in 0.433669 seconds	7.355
29	on average processed 32 images in 0.433683 seconds	7.419
30	on average processed 32 images in 0.434169 seconds	7.270
31	on average processed 32 images in 0.433977 seconds	7.321
32	on average processed 32 images in 0.433583 seconds	7.249
33	on average processed 32 images in 0.433689 seconds	7.435
34	on average processed 32 images in 0.432971 seconds	7.393
35	on average processed 32 images in 0.433330 seconds	7.312
36	on average processed 32 images in 0.433736 seconds	7.343
37	on average processed 32 images in 0.434052 seconds	7.296
38	on average processed 32 images in 0.434342 seconds	7.203
39	on average processed 32 images in 0.434652 seconds	7.239
40	on average processed 32 images in 0.435065 seconds	7.353
41	on average processed 32 images in 0.434952 seconds	7.217
42	on average processed 32 images in 0.434829 seconds	7.430
43	on average processed 32 images in 0.434650 seconds	7.272
44	on average processed 32 images in 0.435244 seconds	7.447
45	on average processed 32 images in 0.435166 seconds	7.265
46	on average processed 32 images in 0.435635 seconds	7.349
47	on average processed 32 images in 0.435515 seconds	7.260
48	on average processed 32 images in 0.435873 seconds	7.352
49	on average processed 32 images in 0.436080 seconds	7.143
50	on average processed 32 images in 0.435918 seconds	7.358
51	on average processed 32 images in 0.435700 seconds	7.381
52	on average processed 32 images in 0.435356 seconds	7.194
53	on average processed 32 images in 0.435464 seconds	7.353
54	on average processed 32 images in 0.435536 seconds	7.459
55	on average processed 32 images in 0.435521 seconds	7.310
56	on average processed 32 images in 0.435289 seconds	7.376
57	on average processed 32 images in 0.435448 seconds	7.339
58	on average processed 32 images in 0.435615 seconds	7.182
59	on average processed 32 images in 0.435867 seconds	7.336
60	on average processed 32 images in 0.435996 seconds	7.289
61	on average processed 32 images in 0.435887 seconds	7.364
62	on average processed 32 images in 0.436019 seconds	7.322
63	on average processed 32 images in 0.435815 seconds	7.456
64	on average processed 32 images in 0.435594 seconds	7.296
65	on average processed 32 images in 0.435524 seconds	7.315
66	on average processed 32 images in 0.435918 seconds	7.331
67	on average processed 32 images in 0.435619 seconds	7.333
68	on average processed 32 images in 0.435868 seconds	7.410
69	on average processed 32 images in 0.435629 seconds	7.337
70	on average processed 32 images in 0.435337 seconds	7.395
71	on average processed 32 images in 0.435330 seconds	7.241
72	on average processed 32 images in 0.435433 seconds	7.280
73	on average processed 32 images in 0.435319 seconds	7.311
74	on average processed 32 images in 0.435459 seconds	7.202
75	on average processed 32 images in 0.435334 seconds	7.318
76	on average processed 32 images in 0.434962 seconds	7.318
77	on average processed 32 images in 0.434690 seconds	7.271
78	on average processed 32 images in 0.435024 seconds	7.333
79	on average processed 32 images in 0.435130 seconds	7.361
80	on average processed 32 images in 0.435301 seconds	7.235
81	on average processed 32 images in 0.435172 seconds	7.396
82	on average processed 32 images in 0.435131 seconds	7.350
83	on average processed 32 images in 0.434908 seconds	7.259
84	on average processed 32 images in 0.435071 seconds	7.281
85	on average processed 32 images in 0.435073 seconds	7.411
86	on average processed 32 images in 0.434974 seconds	7.241
87	on average processed 32 images in 0.435087 seconds	7.196
88	on average processed 32 images in 0.435213 seconds	7.348
89	on average processed 32 images in 0.435079 seconds	7.177
90	on average processed 32 images in 0.435157 seconds	7.357
91	on average processed 32 images in 0.435350 seconds	7.387
92	on average processed 32 images in 0.435447 seconds	7.417
93	on average processed 32 images in 0.435528 seconds	7.301
94	on average processed 32 images in 0.435296 seconds	7.400
95	on average processed 32 images in 0.435197 seconds	7.256
96	on average processed 32 images in 0.435349 seconds	7.377
97	on average processed 32 images in 0.435456 seconds	7.202
98	on average processed 32 images in 0.435428 seconds	7.275
99	on average processed 32 images in 0.435691 seconds	7.400
100	on average processed 32 images in 0.435631 seconds	7.285
Finishing real work at step 1760 at time Mon Oct  9 21:45:48 2017
----------------------------------------------------------------
total images/sec: 1171.37
----------------------------------------------------------------
