2017-10-09 21:44:02.888842: I tensorflow/core/common_runtime/gpu/gpu_device.cc:940] Found device 0 with properties: 
name: Tesla P100-PCIE-16GB
major: 6 minor: 0 memoryClockRate (GHz) 1.3285
pciBusID 0000:02:00.0
Total memory: 15.89GiB
Free memory: 15.61GiB
2017-10-09 21:44:02.889275: I tensorflow/core/common_runtime/gpu/gpu_device.cc:961] DMA: 0 
2017-10-09 21:44:02.889302: I tensorflow/core/common_runtime/gpu/gpu_device.cc:971] 0:   Y 
2017-10-09 21:44:02.896193: I tensorflow/core/common_runtime/gpu/gpu_device.cc:1030] Creating TensorFlow device (/gpu:0) -> (device: 0, name: Tesla P100-PCIE-16GB, pci bus id: 0000:02:00.0)
2017-10-09 21:44:03.101688: I tensorflow/core/distributed_runtime/rpc/grpc_channel.cc:215] Initialize GrpcChannelCache for job ps -> {0 -> nid02413:2230, 1 -> nid02414:2230, 2 -> nid02415:2230, 3 -> nid02416:2230, 4 -> nid02417:2230, 5 -> nid02418:2230, 6 -> nid02419:2230, 7 -> nid02420:2230, 8 -> nid02421:2230, 9 -> nid02422:2230, 10 -> nid02423:2230, 11 -> nid02424:2230, 12 -> nid02425:2230, 13 -> nid02426:2230, 14 -> nid02427:2230, 15 -> nid02428:2230}
2017-10-09 21:44:03.101730: I tensorflow/core/distributed_runtime/rpc/grpc_channel.cc:215] Initialize GrpcChannelCache for job worker -> {0 -> nid02413:2220, 1 -> nid02414:2220, 2 -> nid02415:2220, 3 -> nid02416:2220, 4 -> nid02417:2220, 5 -> nid02418:2220, 6 -> nid02419:2220, 7 -> nid02420:2220, 8 -> nid02421:2220, 9 -> nid02422:2220, 10 -> nid02423:2220, 11 -> nid02424:2220, 12 -> nid02425:2220, 13 -> localhost:2220, 14 -> nid02427:2220, 15 -> nid02428:2220}
2017-10-09 21:44:03.102481: I tensorflow/core/distributed_runtime/rpc/grpc_server_lib.cc:316] Started server with target: grpc://localhost:2220
2017-10-09 21:44:41.075917: I tensorflow/core/distributed_runtime/master_session.cc:999] Start master session 22930da66221ebb7 with config: 
intra_op_parallelism_threads: 1
allow_soft_placement: true

TensorFlow:  1.2
Model:       inception3
Mode:        training
Batch size:  32 global
             32.0 per device
Devices:     ['/job:worker/task:13/gpu:0']
Data format: NCHW
Optimizer:   sgd
Variables:   distributed_replicated
Sync:        True
==========
Generating model
Running warm up
Done warm up
Step	Img/sec	loss
Starting real work at step 160 at time Mon Oct  9 21:45:02 2017
1	on average processed 32 images in 0.436769 seconds	7.384
2	on average processed 32 images in 0.441352 seconds	7.449
3	on average processed 32 images in 0.438280 seconds	7.456
4	on average processed 32 images in 0.439485 seconds	7.323
5	on average processed 32 images in 0.438846 seconds	7.453
6	on average processed 32 images in 0.437485 seconds	7.331
7	on average processed 32 images in 0.440719 seconds	7.493
8	on average processed 32 images in 0.440296 seconds	7.360
9	on average processed 32 images in 0.441130 seconds	7.277
10	on average processed 32 images in 0.439760 seconds	7.409
11	on average processed 32 images in 0.437767 seconds	7.485
12	on average processed 32 images in 0.438405 seconds	7.394
13	on average processed 32 images in 0.438236 seconds	7.283
14	on average processed 32 images in 0.437881 seconds	7.359
15	on average processed 32 images in 0.438185 seconds	7.539
16	on average processed 32 images in 0.438349 seconds	7.322
17	on average processed 32 images in 0.437242 seconds	7.275
18	on average processed 32 images in 0.436512 seconds	7.380
19	on average processed 32 images in 0.436971 seconds	7.326
20	on average processed 32 images in 0.436854 seconds	7.386
21	on average processed 32 images in 0.435991 seconds	7.258
22	on average processed 32 images in 0.436183 seconds	7.311
23	on average processed 32 images in 0.435173 seconds	7.404
24	on average processed 32 images in 0.435697 seconds	7.419
25	on average processed 32 images in 0.435639 seconds	7.400
26	on average processed 32 images in 0.434700 seconds	7.450
27	on average processed 32 images in 0.434171 seconds	7.409
28	on average processed 32 images in 0.433580 seconds	7.344
29	on average processed 32 images in 0.433601 seconds	7.291
30	on average processed 32 images in 0.434083 seconds	7.273
31	on average processed 32 images in 0.433895 seconds	7.214
32	on average processed 32 images in 0.433496 seconds	7.297
33	on average processed 32 images in 0.433611 seconds	7.200
34	on average processed 32 images in 0.432887 seconds	7.314
35	on average processed 32 images in 0.433249 seconds	7.176
36	on average processed 32 images in 0.433653 seconds	7.249
37	on average processed 32 images in 0.433967 seconds	7.259
38	on average processed 32 images in 0.434257 seconds	7.396
39	on average processed 32 images in 0.434569 seconds	7.332
40	on average processed 32 images in 0.434975 seconds	7.394
41	on average processed 32 images in 0.434868 seconds	7.292
42	on average processed 32 images in 0.434741 seconds	7.349
43	on average processed 32 images in 0.434561 seconds	7.327
44	on average processed 32 images in 0.435158 seconds	7.440
45	on average processed 32 images in 0.435082 seconds	7.428
46	on average processed 32 images in 0.435551 seconds	7.376
47	on average processed 32 images in 0.435431 seconds	7.272
48	on average processed 32 images in 0.435785 seconds	7.415
49	on average processed 32 images in 0.435995 seconds	7.362
50	on average processed 32 images in 0.435832 seconds	7.280
51	on average processed 32 images in 0.435613 seconds	7.420
52	on average processed 32 images in 0.435270 seconds	7.393
53	on average processed 32 images in 0.435374 seconds	7.263
54	on average processed 32 images in 0.435449 seconds	7.229
55	on average processed 32 images in 0.435433 seconds	7.365
56	on average processed 32 images in 0.435199 seconds	7.402
57	on average processed 32 images in 0.435362 seconds	7.440
58	on average processed 32 images in 0.435527 seconds	7.347
59	on average processed 32 images in 0.435782 seconds	7.315
60	on average processed 32 images in 0.435909 seconds	7.343
61	on average processed 32 images in 0.435799 seconds	7.324
62	on average processed 32 images in 0.435936 seconds	7.307
63	on average processed 32 images in 0.435728 seconds	7.318
64	on average processed 32 images in 0.435509 seconds	7.260
65	on average processed 32 images in 0.435434 seconds	7.453
66	on average processed 32 images in 0.435830 seconds	7.392
67	on average processed 32 images in 0.435531 seconds	7.256
68	on average processed 32 images in 0.435782 seconds	7.271
69	on average processed 32 images in 0.435543 seconds	7.307
70	on average processed 32 images in 0.435248 seconds	7.447
71	on average processed 32 images in 0.435242 seconds	7.232
72	on average processed 32 images in 0.435348 seconds	7.387
73	on average processed 32 images in 0.435233 seconds	7.395
74	on average processed 32 images in 0.435371 seconds	7.211
75	on average processed 32 images in 0.435246 seconds	7.281
76	on average processed 32 images in 0.434876 seconds	7.204
77	on average processed 32 images in 0.434603 seconds	7.310
78	on average processed 32 images in 0.434936 seconds	7.288
79	on average processed 32 images in 0.435044 seconds	7.305
80	on average processed 32 images in 0.435213 seconds	7.313
81	on average processed 32 images in 0.435086 seconds	7.432
82	on average processed 32 images in 0.435042 seconds	7.275
83	on average processed 32 images in 0.434822 seconds	7.322
84	on average processed 32 images in 0.434981 seconds	7.287
85	on average processed 32 images in 0.434986 seconds	7.376
86	on average processed 32 images in 0.434886 seconds	7.117
87	on average processed 32 images in 0.434999 seconds	7.292
88	on average processed 32 images in 0.435127 seconds	7.370
89	on average processed 32 images in 0.434992 seconds	7.324
90	on average processed 32 images in 0.435070 seconds	7.201
91	on average processed 32 images in 0.435264 seconds	7.133
92	on average processed 32 images in 0.435360 seconds	7.324
93	on average processed 32 images in 0.435440 seconds	7.276
94	on average processed 32 images in 0.435209 seconds	7.328
95	on average processed 32 images in 0.435110 seconds	7.354
96	on average processed 32 images in 0.435263 seconds	7.272
97	on average processed 32 images in 0.435369 seconds	7.272
98	on average processed 32 images in 0.435343 seconds	7.406
99	on average processed 32 images in 0.435603 seconds	7.182
100	on average processed 32 images in 0.435544 seconds	7.341
Finishing real work at step 1760 at time Mon Oct  9 21:45:46 2017
----------------------------------------------------------------
total images/sec: 1171.02
----------------------------------------------------------------
