2017-10-09 21:44:03.934140: I tensorflow/core/common_runtime/gpu/gpu_device.cc:940] Found device 0 with properties: 
name: Tesla P100-PCIE-16GB
major: 6 minor: 0 memoryClockRate (GHz) 1.3285
pciBusID 0000:02:00.0
Total memory: 15.89GiB
Free memory: 15.61GiB
2017-10-09 21:44:03.934591: I tensorflow/core/common_runtime/gpu/gpu_device.cc:961] DMA: 0 
2017-10-09 21:44:03.934608: I tensorflow/core/common_runtime/gpu/gpu_device.cc:971] 0:   Y 
2017-10-09 21:44:03.935727: I tensorflow/core/common_runtime/gpu/gpu_device.cc:1030] Creating TensorFlow device (/gpu:0) -> (device: 0, name: Tesla P100-PCIE-16GB, pci bus id: 0000:02:00.0)
2017-10-09 21:44:04.161078: I tensorflow/core/distributed_runtime/rpc/grpc_channel.cc:215] Initialize GrpcChannelCache for job ps -> {0 -> nid02413:2230, 1 -> nid02414:2230, 2 -> nid02415:2230, 3 -> nid02416:2230, 4 -> nid02417:2230, 5 -> nid02418:2230, 6 -> nid02419:2230, 7 -> nid02420:2230, 8 -> nid02421:2230, 9 -> nid02422:2230, 10 -> nid02423:2230, 11 -> nid02424:2230, 12 -> nid02425:2230, 13 -> nid02426:2230, 14 -> nid02427:2230, 15 -> nid02428:2230}
2017-10-09 21:44:04.161119: I tensorflow/core/distributed_runtime/rpc/grpc_channel.cc:215] Initialize GrpcChannelCache for job worker -> {0 -> nid02413:2220, 1 -> nid02414:2220, 2 -> nid02415:2220, 3 -> nid02416:2220, 4 -> localhost:2220, 5 -> nid02418:2220, 6 -> nid02419:2220, 7 -> nid02420:2220, 8 -> nid02421:2220, 9 -> nid02422:2220, 10 -> nid02423:2220, 11 -> nid02424:2220, 12 -> nid02425:2220, 13 -> nid02426:2220, 14 -> nid02427:2220, 15 -> nid02428:2220}
2017-10-09 21:44:04.161832: I tensorflow/core/distributed_runtime/rpc/grpc_server_lib.cc:316] Started server with target: grpc://localhost:2220
2017-10-09 21:44:42.282429: I tensorflow/core/distributed_runtime/master_session.cc:999] Start master session dc36bfcbfa462473 with config: 
intra_op_parallelism_threads: 1
allow_soft_placement: true

TensorFlow:  1.2
Model:       inception3
Mode:        training
Batch size:  32 global
             32.0 per device
Devices:     ['/job:worker/task:4/gpu:0']
Data format: NCHW
Optimizer:   sgd
Variables:   distributed_replicated
Sync:        True
==========
Generating model
Running warm up
Done warm up
Step	Img/sec	loss
Starting real work at step 160 at time Mon Oct  9 21:45:03 2017
1	on average processed 32 images in 0.436781 seconds	7.402
2	on average processed 32 images in 0.441516 seconds	7.530
3	on average processed 32 images in 0.438388 seconds	7.467
4	on average processed 32 images in 0.439509 seconds	7.338
5	on average processed 32 images in 0.438889 seconds	7.372
6	on average processed 32 images in 0.437520 seconds	7.432
7	on average processed 32 images in 0.440712 seconds	7.384
8	on average processed 32 images in 0.440292 seconds	7.405
9	on average processed 32 images in 0.441123 seconds	7.493
10	on average processed 32 images in 0.439767 seconds	7.437
11	on average processed 32 images in 0.437770 seconds	7.404
12	on average processed 32 images in 0.438394 seconds	7.313
13	on average processed 32 images in 0.438208 seconds	7.432
14	on average processed 32 images in 0.437885 seconds	7.215
15	on average processed 32 images in 0.438182 seconds	7.496
16	on average processed 32 images in 0.438348 seconds	7.263
17	on average processed 32 images in 0.437240 seconds	7.472
18	on average processed 32 images in 0.436492 seconds	7.477
19	on average processed 32 images in 0.436955 seconds	7.454
20	on average processed 32 images in 0.436838 seconds	7.300
21	on average processed 32 images in 0.435970 seconds	7.354
22	on average processed 32 images in 0.436169 seconds	7.310
23	on average processed 32 images in 0.435154 seconds	7.365
24	on average processed 32 images in 0.435677 seconds	7.281
25	on average processed 32 images in 0.435621 seconds	7.402
26	on average processed 32 images in 0.434689 seconds	7.467
27	on average processed 32 images in 0.434159 seconds	7.310
28	on average processed 32 images in 0.433568 seconds	7.383
29	on average processed 32 images in 0.433583 seconds	7.465
30	on average processed 32 images in 0.434075 seconds	7.343
31	on average processed 32 images in 0.433877 seconds	7.225
32	on average processed 32 images in 0.433481 seconds	7.359
33	on average processed 32 images in 0.433593 seconds	7.236
34	on average processed 32 images in 0.432871 seconds	7.376
35	on average processed 32 images in 0.433228 seconds	7.246
36	on average processed 32 images in 0.433640 seconds	7.433
37	on average processed 32 images in 0.433948 seconds	7.315
38	on average processed 32 images in 0.434239 seconds	7.472
39	on average processed 32 images in 0.434549 seconds	7.360
40	on average processed 32 images in 0.434956 seconds	7.381
41	on average processed 32 images in 0.434848 seconds	7.252
42	on average processed 32 images in 0.434721 seconds	7.411
43	on average processed 32 images in 0.434547 seconds	7.405
44	on average processed 32 images in 0.435142 seconds	7.261
45	on average processed 32 images in 0.435063 seconds	7.268
46	on average processed 32 images in 0.435530 seconds	7.365
47	on average processed 32 images in 0.435410 seconds	7.451
48	on average processed 32 images in 0.435764 seconds	7.417
49	on average processed 32 images in 0.435975 seconds	7.290
50	on average processed 32 images in 0.435813 seconds	7.330
51	on average processed 32 images in 0.435594 seconds	7.316
52	on average processed 32 images in 0.435253 seconds	7.271
53	on average processed 32 images in 0.435356 seconds	7.429
54	on average processed 32 images in 0.435429 seconds	7.328
55	on average processed 32 images in 0.435415 seconds	7.180
56	on average processed 32 images in 0.435181 seconds	7.251
57	on average processed 32 images in 0.435340 seconds	7.192
58	on average processed 32 images in 0.435507 seconds	7.262
59	on average processed 32 images in 0.435762 seconds	7.306
60	on average processed 32 images in 0.435891 seconds	7.242
61	on average processed 32 images in 0.435778 seconds	7.243
62	on average processed 32 images in 0.435912 seconds	7.381
63	on average processed 32 images in 0.435707 seconds	7.355
64	on average processed 32 images in 0.435488 seconds	7.370
65	on average processed 32 images in 0.435415 seconds	7.345
66	on average processed 32 images in 0.435812 seconds	7.341
67	on average processed 32 images in 0.435513 seconds	7.263
68	on average processed 32 images in 0.435761 seconds	7.355
69	on average processed 32 images in 0.435522 seconds	7.273
70	on average processed 32 images in 0.435228 seconds	7.307
71	on average processed 32 images in 0.435224 seconds	7.244
72	on average processed 32 images in 0.435328 seconds	7.426
73	on average processed 32 images in 0.435212 seconds	7.397
74	on average processed 32 images in 0.435350 seconds	7.325
75	on average processed 32 images in 0.435225 seconds	7.261
76	on average processed 32 images in 0.434856 seconds	7.323
77	on average processed 32 images in 0.434583 seconds	7.212
78	on average processed 32 images in 0.434914 seconds	7.334
79	on average processed 32 images in 0.435024 seconds	7.243
80	on average processed 32 images in 0.435193 seconds	7.307
81	on average processed 32 images in 0.435065 seconds	7.275
82	on average processed 32 images in 0.435022 seconds	7.318
83	on average processed 32 images in 0.434801 seconds	7.203
84	on average processed 32 images in 0.434962 seconds	7.244
85	on average processed 32 images in 0.434964 seconds	7.396
86	on average processed 32 images in 0.434866 seconds	7.213
87	on average processed 32 images in 0.434980 seconds	7.177
88	on average processed 32 images in 0.435106 seconds	7.370
89	on average processed 32 images in 0.434971 seconds	7.277
90	on average processed 32 images in 0.435049 seconds	7.193
91	on average processed 32 images in 0.435241 seconds	7.289
92	on average processed 32 images in 0.435339 seconds	7.379
93	on average processed 32 images in 0.435419 seconds	7.276
94	on average processed 32 images in 0.435188 seconds	7.339
95	on average processed 32 images in 0.435088 seconds	7.272
96	on average processed 32 images in 0.435241 seconds	7.294
97	on average processed 32 images in 0.435348 seconds	7.300
98	on average processed 32 images in 0.435319 seconds	7.343
99	on average processed 32 images in 0.435582 seconds	7.238
100	on average processed 32 images in 0.435523 seconds	7.219
Finishing real work at step 1760 at time Mon Oct  9 21:45:47 2017
----------------------------------------------------------------
total images/sec: 1172.88
----------------------------------------------------------------
