2017-10-06 17:43:36.640558: I tensorflow/core/common_runtime/gpu/gpu_device.cc:940] Found device 0 with properties: 
name: Tesla P100-PCIE-16GB
major: 6 minor: 0 memoryClockRate (GHz) 1.3285
pciBusID 0000:02:00.0
Total memory: 15.89GiB
Free memory: 15.61GiB
2017-10-06 17:43:36.641148: I tensorflow/core/common_runtime/gpu/gpu_device.cc:961] DMA: 0 
2017-10-06 17:43:36.641168: I tensorflow/core/common_runtime/gpu/gpu_device.cc:971] 0:   Y 
2017-10-06 17:43:36.651154: I tensorflow/core/common_runtime/gpu/gpu_device.cc:1030] Creating TensorFlow device (/gpu:0) -> (device: 0, name: Tesla P100-PCIE-16GB, pci bus id: 0000:02:00.0)
2017-10-06 17:43:36.855294: I tensorflow/core/distributed_runtime/rpc/grpc_channel.cc:215] Initialize GrpcChannelCache for job ps -> {0 -> nid03680:2230, 1 -> nid03681:2230, 2 -> nid03682:2230, 3 -> nid03683:2230, 4 -> nid03684:2230, 5 -> nid03685:2230, 6 -> nid05060:2230, 7 -> nid05061:2230}
2017-10-06 17:43:36.855345: I tensorflow/core/distributed_runtime/rpc/grpc_channel.cc:215] Initialize GrpcChannelCache for job worker -> {0 -> nid03680:2220, 1 -> nid03681:2220, 2 -> localhost:2220, 3 -> nid03683:2220, 4 -> nid03684:2220, 5 -> nid03685:2220, 6 -> nid05060:2220, 7 -> nid05061:2220}
2017-10-06 17:43:36.856025: I tensorflow/core/distributed_runtime/rpc/grpc_server_lib.cc:316] Started server with target: grpc://localhost:2220
2017-10-06 17:44:08.694157: I tensorflow/core/distributed_runtime/master_session.cc:999] Start master session 3c0bec0e61bdaa8c with config: 
intra_op_parallelism_threads: 1
allow_soft_placement: true

2017-10-06 17:44:47.492536: I tensorflow/core/distributed_runtime/master_session.cc:999] Start master session 86c3700fece6b6e3 with config: 
intra_op_parallelism_threads: 1
allow_soft_placement: true

TensorFlow:  1.2
Model:       inception3
Mode:        training
Batch size:  32 global
             32.0 per device
Devices:     ['/job:worker/task:2/gpu:0']
Data format: NCHW
Optimizer:   sgd
Variables:   distributed_replicated
Sync:        True
==========
Generating model
Running warm up
Done warm up
Step	Img/sec	loss
Starting real work at step 80 at time Fri Oct  6 17:45:02 2017
1	on average processed 32 images in 0.414700 seconds	7.413
2	on average processed 32 images in 0.420580 seconds	7.353
3	on average processed 32 images in 0.422168 seconds	7.520
4	on average processed 32 images in 0.417415 seconds	7.482
5	on average processed 32 images in 0.411867 seconds	7.487
6	on average processed 32 images in 0.412407 seconds	7.549
7	on average processed 32 images in 0.412196 seconds	7.395
8	on average processed 32 images in 0.409471 seconds	7.412
9	on average processed 32 images in 0.410327 seconds	7.521
10	on average processed 32 images in 0.410201 seconds	7.491
11	on average processed 32 images in 0.413475 seconds	7.473
12	on average processed 32 images in 0.411801 seconds	7.428
13	on average processed 32 images in 0.413511 seconds	7.384
14	on average processed 32 images in 0.413350 seconds	7.383
15	on average processed 32 images in 0.411997 seconds	7.412
16	on average processed 32 images in 0.413063 seconds	7.437
17	on average processed 32 images in 0.411718 seconds	7.399
18	on average processed 32 images in 0.410467 seconds	7.425
19	on average processed 32 images in 0.411033 seconds	7.421
20	on average processed 32 images in 0.410426 seconds	7.554
21	on average processed 32 images in 0.409648 seconds	7.440
22	on average processed 32 images in 0.410387 seconds	7.343
23	on average processed 32 images in 0.409414 seconds	7.509
24	on average processed 32 images in 0.408550 seconds	7.354
25	on average processed 32 images in 0.409448 seconds	7.227
26	on average processed 32 images in 0.409701 seconds	7.336
27	on average processed 32 images in 0.410228 seconds	7.451
28	on average processed 32 images in 0.413945 seconds	7.350
29	on average processed 32 images in 0.413373 seconds	7.425
30	on average processed 32 images in 0.422286 seconds	7.329
31	on average processed 32 images in 0.425595 seconds	7.272
32	on average processed 32 images in 0.425782 seconds	7.429
33	on average processed 32 images in 0.424745 seconds	7.442
34	on average processed 32 images in 0.423648 seconds	7.382
35	on average processed 32 images in 0.424079 seconds	7.422
36	on average processed 32 images in 0.423536 seconds	7.410
37	on average processed 32 images in 0.422650 seconds	7.230
38	on average processed 32 images in 0.421991 seconds	7.420
39	on average processed 32 images in 0.421134 seconds	7.393
40	on average processed 32 images in 0.420418 seconds	7.270
41	on average processed 32 images in 0.420184 seconds	7.364
42	on average processed 32 images in 0.420266 seconds	7.513
43	on average processed 32 images in 0.419567 seconds	7.338
44	on average processed 32 images in 0.418968 seconds	7.444
45	on average processed 32 images in 0.418687 seconds	7.442
46	on average processed 32 images in 0.418620 seconds	7.483
47	on average processed 32 images in 0.418124 seconds	7.321
48	on average processed 32 images in 0.417928 seconds	7.312
49	on average processed 32 images in 0.417402 seconds	7.411
50	on average processed 32 images in 0.416789 seconds	7.325
51	on average processed 32 images in 0.416842 seconds	7.439
52	on average processed 32 images in 0.416612 seconds	7.434
53	on average processed 32 images in 0.416895 seconds	7.346
54	on average processed 32 images in 0.418869 seconds	7.331
55	on average processed 32 images in 0.418570 seconds	7.334
56	on average processed 32 images in 0.418067 seconds	7.382
57	on average processed 32 images in 0.417618 seconds	7.459
58	on average processed 32 images in 0.417832 seconds	7.314
59	on average processed 32 images in 0.417356 seconds	7.432
60	on average processed 32 images in 0.418099 seconds	7.368
61	on average processed 32 images in 0.417523 seconds	7.327
62	on average processed 32 images in 0.417131 seconds	7.335
63	on average processed 32 images in 0.416557 seconds	7.313
64	on average processed 32 images in 0.416184 seconds	7.449
65	on average processed 32 images in 0.415873 seconds	7.357
66	on average processed 32 images in 0.415866 seconds	7.244
67	on average processed 32 images in 0.415733 seconds	7.337
68	on average processed 32 images in 0.415458 seconds	7.252
69	on average processed 32 images in 0.415762 seconds	7.268
70	on average processed 32 images in 0.415491 seconds	7.321
71	on average processed 32 images in 0.414971 seconds	7.564
72	on average processed 32 images in 0.415048 seconds	7.300
73	on average processed 32 images in 0.415794 seconds	7.434
74	on average processed 32 images in 0.416900 seconds	7.527
75	on average processed 32 images in 0.416765 seconds	7.446
76	on average processed 32 images in 0.416375 seconds	7.321
77	on average processed 32 images in 0.416301 seconds	7.417
78	on average processed 32 images in 0.415938 seconds	7.417
79	on average processed 32 images in 0.415928 seconds	7.324
80	on average processed 32 images in 0.415601 seconds	7.422
81	on average processed 32 images in 0.415409 seconds	7.337
82	on average processed 32 images in 0.415256 seconds	7.446
83	on average processed 32 images in 0.415133 seconds	7.278
84	on average processed 32 images in 0.415100 seconds	7.296
85	on average processed 32 images in 0.414894 seconds	7.398
86	on average processed 32 images in 0.416035 seconds	7.355
87	on average processed 32 images in 0.415875 seconds	7.346
88	on average processed 32 images in 0.415661 seconds	7.334
89	on average processed 32 images in 0.415352 seconds	7.382
90	on average processed 32 images in 0.415167 seconds	7.456
91	on average processed 32 images in 0.415268 seconds	7.380
92	on average processed 32 images in 0.414949 seconds	7.368
93	on average processed 32 images in 0.415100 seconds	7.313
94	on average processed 32 images in 0.414901 seconds	7.382
95	on average processed 32 images in 0.415804 seconds	7.336
96	on average processed 32 images in 0.415720 seconds	7.387
97	on average processed 32 images in 0.415540 seconds	7.367
98	on average processed 32 images in 0.415428 seconds	7.371
99	on average processed 32 images in 0.415151 seconds	7.290
100	on average processed 32 images in 0.415049 seconds	7.327
Finishing real work at step 879 at time Fri Oct  6 17:45:44 2017
----------------------------------------------------------------
total images/sec: 613.33
----------------------------------------------------------------
