2017-10-15 23:31:14.324330: I tensorflow/core/common_runtime/gpu/gpu_device.cc:940] Found device 0 with properties: 
name: Tesla P100-PCIE-16GB
major: 6 minor: 0 memoryClockRate (GHz) 1.3285
pciBusID 0000:02:00.0
Total memory: 15.89GiB
Free memory: 15.61GiB
2017-10-15 23:31:14.324798: I tensorflow/core/common_runtime/gpu/gpu_device.cc:961] DMA: 0 
2017-10-15 23:31:14.324819: I tensorflow/core/common_runtime/gpu/gpu_device.cc:971] 0:   Y 
2017-10-15 23:31:14.324840: I tensorflow/core/common_runtime/gpu/gpu_device.cc:1030] Creating TensorFlow device (/gpu:0) -> (device: 0, name: Tesla P100-PCIE-16GB, pci bus id: 0000:02:00.0)
2017-10-15 23:31:14.520700: I tensorflow/core/distributed_runtime/rpc/grpc_channel.cc:215] Initialize GrpcChannelCache for job ps -> {0 -> nid02247:2230, 1 -> nid02248:2230, 2 -> nid02249:2230, 3 -> nid02250:2230}
2017-10-15 23:31:14.520738: I tensorflow/core/distributed_runtime/rpc/grpc_channel.cc:215] Initialize GrpcChannelCache for job worker -> {0 -> localhost:2220, 1 -> nid02248:2220, 2 -> nid02249:2220, 3 -> nid02250:2220}
2017-10-15 23:31:14.521425: I tensorflow/core/distributed_runtime/rpc/grpc_server_lib.cc:316] Started server with target: grpc://localhost:2220
2017-10-15 23:31:37.911881: I tensorflow/core/distributed_runtime/master_session.cc:999] Start master session 30f2129c76c62487 with config: 
intra_op_parallelism_threads: 1
allow_soft_placement: true

TensorFlow:  1.2
Model:       resnet50
Mode:        training
Batch size:  32 global
             32.0 per device
Devices:     ['/job:worker/task:0/gpu:0']
Data format: NCHW
Optimizer:   sgd
Variables:   distributed_replicated
Sync:        True
==========
Generating model
Running warm up
Done warm up
Step	Img/sec	loss
Starting real work at step 40 at time Sun Oct 15 23:32:14 2017
1	on average processed 32 images in 0.260483 seconds	8.136
2	on average processed 32 images in 0.266428 seconds	8.160
3	on average processed 32 images in 0.261562 seconds	8.189
4	on average processed 32 images in 0.263189 seconds	7.982
5	on average processed 32 images in 0.263843 seconds	7.941
6	on average processed 32 images in 0.262454 seconds	8.247
7	on average processed 32 images in 0.263641 seconds	8.107
8	on average processed 32 images in 0.264377 seconds	8.068
9	on average processed 32 images in 0.264648 seconds	7.884
10	on average processed 32 images in 0.265839 seconds	7.858
11	on average processed 32 images in 0.266355 seconds	8.055
12	on average processed 32 images in 0.266838 seconds	7.862
13	on average processed 32 images in 0.267211 seconds	7.913
14	on average processed 32 images in 0.267576 seconds	7.956
15	on average processed 32 images in 0.267000 seconds	7.915
16	on average processed 32 images in 0.266943 seconds	8.028
17	on average processed 32 images in 0.267577 seconds	8.170
18	on average processed 32 images in 0.267899 seconds	8.038
19	on average processed 32 images in 0.268230 seconds	8.036
20	on average processed 32 images in 0.268390 seconds	7.961
21	on average processed 32 images in 0.269046 seconds	7.989
22	on average processed 32 images in 0.268363 seconds	7.959
23	on average processed 32 images in 0.268458 seconds	7.946
24	on average processed 32 images in 0.268713 seconds	7.880
25	on average processed 32 images in 0.269576 seconds	7.927
26	on average processed 32 images in 0.269768 seconds	7.849
27	on average processed 32 images in 0.270014 seconds	8.044
28	on average processed 32 images in 0.270418 seconds	7.755
29	on average processed 32 images in 0.270399 seconds	8.164
30	on average processed 32 images in 0.270466 seconds	8.108
31	on average processed 32 images in 0.270324 seconds	7.943
32	on average processed 32 images in 0.270395 seconds	7.794
33	on average processed 32 images in 0.270738 seconds	7.989
34	on average processed 32 images in 0.270957 seconds	7.880
35	on average processed 32 images in 0.270318 seconds	8.030
36	on average processed 32 images in 0.270063 seconds	8.069
37	on average processed 32 images in 0.269946 seconds	7.834
38	on average processed 32 images in 0.270078 seconds	7.965
39	on average processed 32 images in 0.269977 seconds	7.974
40	on average processed 32 images in 0.270301 seconds	8.126
41	on average processed 32 images in 0.270263 seconds	7.977
42	on average processed 32 images in 0.270280 seconds	7.990
43	on average processed 32 images in 0.270231 seconds	7.987
44	on average processed 32 images in 0.270260 seconds	7.943
45	on average processed 32 images in 0.270370 seconds	7.829
46	on average processed 32 images in 0.270669 seconds	7.915
47	on average processed 32 images in 0.270686 seconds	7.877
48	on average processed 32 images in 0.270345 seconds	7.925
49	on average processed 32 images in 0.270509 seconds	7.885
50	on average processed 32 images in 0.270806 seconds	7.804
51	on average processed 32 images in 0.270858 seconds	7.817
52	on average processed 32 images in 0.270654 seconds	7.793
53	on average processed 32 images in 0.270746 seconds	8.114
54	on average processed 32 images in 0.270771 seconds	7.877
55	on average processed 32 images in 0.270787 seconds	7.918
56	on average processed 32 images in 0.270852 seconds	7.938
57	on average processed 32 images in 0.271038 seconds	7.971
58	on average processed 32 images in 0.271036 seconds	7.874
59	on average processed 32 images in 0.271153 seconds	7.738
60	on average processed 32 images in 0.271125 seconds	7.922
61	on average processed 32 images in 0.271258 seconds	7.936
62	on average processed 32 images in 0.271132 seconds	7.929
63	on average processed 32 images in 0.271330 seconds	7.817
64	on average processed 32 images in 0.271367 seconds	7.884
65	on average processed 32 images in 0.271266 seconds	8.123
66	on average processed 32 images in 0.271235 seconds	8.031
67	on average processed 32 images in 0.271307 seconds	8.083
68	on average processed 32 images in 0.271319 seconds	7.959
69	on average processed 32 images in 0.271541 seconds	7.871
70	on average processed 32 images in 0.271854 seconds	7.750
71	on average processed 32 images in 0.271871 seconds	7.808
72	on average processed 32 images in 0.271896 seconds	8.036
73	on average processed 32 images in 0.272000 seconds	7.948
74	on average processed 32 images in 0.271963 seconds	8.044
75	on average processed 32 images in 0.272008 seconds	7.925
76	on average processed 32 images in 0.271988 seconds	8.042
77	on average processed 32 images in 0.272002 seconds	8.063
78	on average processed 32 images in 0.271997 seconds	7.756
79	on average processed 32 images in 0.272183 seconds	7.795
80	on average processed 32 images in 0.272252 seconds	7.932
81	on average processed 32 images in 0.272306 seconds	8.016
82	on average processed 32 images in 0.272270 seconds	8.001
83	on average processed 32 images in 0.272194 seconds	7.868
84	on average processed 32 images in 0.272195 seconds	8.055
85	on average processed 32 images in 0.272208 seconds	7.823
86	on average processed 32 images in 0.272300 seconds	7.987
87	on average processed 32 images in 0.272277 seconds	7.861
88	on average processed 32 images in 0.272275 seconds	7.787
89	on average processed 32 images in 0.272274 seconds	7.963
90	on average processed 32 images in 0.272189 seconds	7.849
91	on average processed 32 images in 0.272059 seconds	7.766
92	on average processed 32 images in 0.272094 seconds	8.174
93	on average processed 32 images in 0.272108 seconds	7.746
94	on average processed 32 images in 0.272111 seconds	7.859
95	on average processed 32 images in 0.272115 seconds	7.864
96	on average processed 32 images in 0.272017 seconds	8.022
97	on average processed 32 images in 0.272121 seconds	7.898
98	on average processed 32 images in 0.272096 seconds	7.797
99	on average processed 32 images in 0.272102 seconds	7.840
100	on average processed 32 images in 0.272150 seconds	7.650
Finishing real work at step 440 at time Sun Oct 15 23:32:41 2017
----------------------------------------------------------------
total images/sec: 469.78
----------------------------------------------------------------
