2017-11-22 11:01:53.100162: I tensorflow/core/common_runtime/gpu/gpu_device.cc:940] Found device 0 with properties: 
name: Tesla P100-PCIE-16GB
major: 6 minor: 0 memoryClockRate (GHz) 1.3285
pciBusID 0000:02:00.0
Total memory: 15.89GiB
Free memory: 15.61GiB
2017-11-22 11:01:53.100965: I tensorflow/core/common_runtime/gpu/gpu_device.cc:961] DMA: 0 
2017-11-22 11:01:53.100982: I tensorflow/core/common_runtime/gpu/gpu_device.cc:971] 0:   Y 
2017-11-22 11:01:53.101382: I tensorflow/core/common_runtime/gpu/gpu_device.cc:1030] Creating TensorFlow device (/gpu:0) -> (device: 0, name: Tesla P100-PCIE-16GB, pci bus id: 0000:02:00.0)
2017-11-22 11:01:53.252486: I tensorflow/core/distributed_runtime/rpc/grpc_channel.cc:215] Initialize GrpcChannelCache for job ps -> {0 -> nid03839:2230, 1 -> nid03840:2230, 2 -> nid03841:2230, 3 -> nid03842:2230, 4 -> nid03843:2230, 5 -> nid03844:2230}
2017-11-22 11:01:53.252546: I tensorflow/core/distributed_runtime/rpc/grpc_channel.cc:215] Initialize GrpcChannelCache for job worker -> {0 -> localhost:2220, 1 -> nid03840:2220, 2 -> nid03841:2220, 3 -> nid03842:2220, 4 -> nid03843:2220, 5 -> nid03844:2220, 6 -> nid03845:2220, 7 -> nid03846:2220}
2017-11-22 11:01:53.253295: I tensorflow/core/distributed_runtime/rpc/grpc_server_lib.cc:316] Started server with target: grpc://localhost:2220
2017-11-22 11:02:10.887061: I tensorflow/core/distributed_runtime/master_session.cc:999] Start master session fdc5313ed34248c0 with config: 
intra_op_parallelism_threads: 1
allow_soft_placement: true

TensorFlow:  1.2
Model:       resnet50
Mode:        training
Batch size:  32 global
             32.0 per device
Devices:     ['/job:worker/task:0/gpu:0']
Data format: NCHW
Optimizer:   sgd
Variables:   parameter_server
Sync:        True
==========
Generating model
Running warm up
Done warm up
Step	Img/sec	loss
Starting real work at step 80 at time Wed Nov 22 11:02:56 2017
1	on average processed 32 images in 0.360745 seconds	8.099
2	on average processed 32 images in 0.353685 seconds	8.140
3	on average processed 32 images in 0.355450 seconds	8.012
4	on average processed 32 images in 0.352119 seconds	8.136
5	on average processed 32 images in 0.348847 seconds	7.990
6	on average processed 32 images in 0.348157 seconds	7.866
7	on average processed 32 images in 0.345269 seconds	7.994
8	on average processed 32 images in 0.344786 seconds	7.872
9	on average processed 32 images in 0.343583 seconds	8.012
10	on average processed 32 images in 0.344181 seconds	8.030
11	on average processed 32 images in 0.344974 seconds	7.904
12	on average processed 32 images in 0.345199 seconds	7.955
13	on average processed 32 images in 0.345723 seconds	7.908
14	on average processed 32 images in 0.344857 seconds	7.934
15	on average processed 32 images in 0.344541 seconds	7.988
16	on average processed 32 images in 0.345087 seconds	7.969
17	on average processed 32 images in 0.345614 seconds	7.974
18	on average processed 32 images in 0.345423 seconds	7.864
19	on average processed 32 images in 0.344925 seconds	7.933
20	on average processed 32 images in 0.345216 seconds	8.127
21	on average processed 32 images in 0.345241 seconds	7.902
22	on average processed 32 images in 0.345685 seconds	7.786
23	on average processed 32 images in 0.345405 seconds	8.032
24	on average processed 32 images in 0.345481 seconds	7.812
25	on average processed 32 images in 0.345730 seconds	8.069
26	on average processed 32 images in 0.345338 seconds	8.009
27	on average processed 32 images in 0.345022 seconds	8.013
28	on average processed 32 images in 0.345777 seconds	7.910
29	on average processed 32 images in 0.345709 seconds	7.870
30	on average processed 32 images in 0.345133 seconds	7.843
31	on average processed 32 images in 0.345502 seconds	7.927
32	on average processed 32 images in 0.344931 seconds	7.752
33	on average processed 32 images in 0.344739 seconds	7.700
34	on average processed 32 images in 0.344563 seconds	7.769
35	on average processed 32 images in 0.344571 seconds	7.933
36	on average processed 32 images in 0.344481 seconds	7.975
37	on average processed 32 images in 0.344695 seconds	7.861
38	on average processed 32 images in 0.344791 seconds	7.864
39	on average processed 32 images in 0.344229 seconds	7.948
40	on average processed 32 images in 0.344182 seconds	8.035
41	on average processed 32 images in 0.343737 seconds	7.913
42	on average processed 32 images in 0.343772 seconds	7.861
43	on average processed 32 images in 0.343739 seconds	7.876
44	on average processed 32 images in 0.343767 seconds	7.861
45	on average processed 32 images in 0.343551 seconds	7.802
46	on average processed 32 images in 0.343525 seconds	7.913
47	on average processed 32 images in 0.343391 seconds	7.836
48	on average processed 32 images in 0.343506 seconds	7.916
49	on average processed 32 images in 0.343724 seconds	7.830
50	on average processed 32 images in 0.343611 seconds	7.857
51	on average processed 32 images in 0.343835 seconds	7.934
52	on average processed 32 images in 0.343656 seconds	7.911
53	on average processed 32 images in 0.343624 seconds	7.981
54	on average processed 32 images in 0.343288 seconds	7.915
55	on average processed 32 images in 0.343325 seconds	7.739
56	on average processed 32 images in 0.343534 seconds	7.738
57	on average processed 32 images in 0.343403 seconds	7.783
58	on average processed 32 images in 0.343674 seconds	7.797
59	on average processed 32 images in 0.343651 seconds	7.876
60	on average processed 32 images in 0.343834 seconds	7.847
61	on average processed 32 images in 0.343698 seconds	7.872
62	on average processed 32 images in 0.343774 seconds	8.062
63	on average processed 32 images in 0.343673 seconds	8.024
64	on average processed 32 images in 0.343890 seconds	7.977
65	on average processed 32 images in 0.344042 seconds	7.782
66	on average processed 32 images in 0.344050 seconds	8.010
67	on average processed 32 images in 0.343971 seconds	7.974
68	on average processed 32 images in 0.344167 seconds	7.792
69	on average processed 32 images in 0.344188 seconds	7.822
70	on average processed 32 images in 0.344488 seconds	7.962
71	on average processed 32 images in 0.344472 seconds	7.822
72	on average processed 32 images in 0.344474 seconds	7.832
73	on average processed 32 images in 0.344690 seconds	7.922
74	on average processed 32 images in 0.344730 seconds	7.938
75	on average processed 32 images in 0.344673 seconds	7.870
76	on average processed 32 images in 0.344631 seconds	8.045
77	on average processed 32 images in 0.344508 seconds	7.770
78	on average processed 32 images in 0.344526 seconds	7.854
79	on average processed 32 images in 0.344515 seconds	8.042
80	on average processed 32 images in 0.344550 seconds	7.904
81	on average processed 32 images in 0.344452 seconds	7.784
82	on average processed 32 images in 0.344423 seconds	7.859
83	on average processed 32 images in 0.344425 seconds	7.801
84	on average processed 32 images in 0.344870 seconds	7.848
85	on average processed 32 images in 0.345104 seconds	7.904
86	on average processed 32 images in 0.344979 seconds	8.040
87	on average processed 32 images in 0.344914 seconds	7.898
88	on average processed 32 images in 0.344861 seconds	7.929
89	on average processed 32 images in 0.344856 seconds	7.862
90	on average processed 32 images in 0.344940 seconds	8.060
91	on average processed 32 images in 0.345099 seconds	7.755
92	on average processed 32 images in 0.345030 seconds	7.821
93	on average processed 32 images in 0.345107 seconds	7.805
94	on average processed 32 images in 0.345087 seconds	7.688
95	on average processed 32 images in 0.345188 seconds	7.799
96	on average processed 32 images in 0.345149 seconds	7.823
97	on average processed 32 images in 0.345367 seconds	7.873
98	on average processed 32 images in 0.345399 seconds	7.912
99	on average processed 32 images in 0.345329 seconds	8.004
100	on average processed 32 images in 0.345365 seconds	7.866
Finishing real work at step 879 at time Wed Nov 22 11:03:31 2017
----------------------------------------------------------------
total images/sec: 741.12
----------------------------------------------------------------
