2017-11-20 15:48:24.697994: I tensorflow/core/common_runtime/gpu/gpu_device.cc:940] Found device 0 with properties: 
name: Tesla P100-PCIE-16GB
major: 6 minor: 0 memoryClockRate (GHz) 1.3285
pciBusID 0000:02:00.0
Total memory: 15.89GiB
Free memory: 15.61GiB
2017-11-20 15:48:24.698637: I tensorflow/core/common_runtime/gpu/gpu_device.cc:961] DMA: 0 
2017-11-20 15:48:24.698662: I tensorflow/core/common_runtime/gpu/gpu_device.cc:971] 0:   Y 
2017-11-20 15:48:24.699051: I tensorflow/core/common_runtime/gpu/gpu_device.cc:1030] Creating TensorFlow device (/gpu:0) -> (device: 0, name: Tesla P100-PCIE-16GB, pci bus id: 0000:02:00.0)
2017-11-20 15:48:24.848805: I tensorflow/core/distributed_runtime/rpc/grpc_channel.cc:215] Initialize GrpcChannelCache for job ps -> {0 -> nid04822:2230, 1 -> nid04823:2230, 2 -> nid04824:2230, 3 -> nid04825:2230, 4 -> nid04826:2230, 5 -> nid04827:2230}
2017-11-20 15:48:24.848865: I tensorflow/core/distributed_runtime/rpc/grpc_channel.cc:215] Initialize GrpcChannelCache for job worker -> {0 -> nid04822:2220, 1 -> nid04823:2220, 2 -> localhost:2220, 3 -> nid04825:2220, 4 -> nid04826:2220, 5 -> nid04827:2220, 6 -> nid04828:2220, 7 -> nid04829:2220}
2017-11-20 15:48:24.849564: I tensorflow/core/distributed_runtime/rpc/grpc_server_lib.cc:316] Started server with target: grpc://localhost:2220
2017-11-20 15:48:58.694213: I tensorflow/core/distributed_runtime/master_session.cc:999] Start master session 42eb3c695850e32c with config: 
intra_op_parallelism_threads: 1
allow_soft_placement: true

2017-11-20 15:49:35.744720: I tensorflow/core/distributed_runtime/master_session.cc:999] Start master session 33bffbc82d828140 with config: 
intra_op_parallelism_threads: 1
allow_soft_placement: true

TensorFlow:  1.2
Model:       resnet152
Mode:        training
Batch size:  32 global
             32.0 per device
Devices:     ['/job:worker/task:2/gpu:0']
Data format: NCHW
Optimizer:   sgd
Variables:   parameter_server
Sync:        True
==========
Generating model
Running warm up
Done warm up
Step	Img/sec	loss
Starting real work at step 80 at time Mon Nov 20 15:50:01 2017
1	on average processed 32 images in 0.746035 seconds	9.663
2	on average processed 32 images in 0.734057 seconds	9.623
3	on average processed 32 images in 0.734908 seconds	9.890
4	on average processed 32 images in 0.726862 seconds	10.074
5	on average processed 32 images in 0.724241 seconds	9.886
6	on average processed 32 images in 0.726518 seconds	10.153
7	on average processed 32 images in 0.726123 seconds	9.807
8	on average processed 32 images in 0.726037 seconds	9.564
9	on average processed 32 images in 0.724714 seconds	9.663
10	on average processed 32 images in 0.726689 seconds	9.515
11	on average processed 32 images in 0.728408 seconds	9.468
12	on average processed 32 images in 0.727013 seconds	9.595
13	on average processed 32 images in 0.727860 seconds	9.773
14	on average processed 32 images in 0.729900 seconds	9.766
15	on average processed 32 images in 0.730296 seconds	9.747
16	on average processed 32 images in 0.731170 seconds	9.705
17	on average processed 32 images in 0.732443 seconds	9.594
18	on average processed 32 images in 0.732363 seconds	9.540
19	on average processed 32 images in 0.732839 seconds	9.824
20	on average processed 32 images in 0.732497 seconds	9.615
21	on average processed 32 images in 0.732662 seconds	9.897
22	on average processed 32 images in 0.732853 seconds	9.756
23	on average processed 32 images in 0.732423 seconds	9.489
24	on average processed 32 images in 0.732787 seconds	9.533
25	on average processed 32 images in 0.731649 seconds	9.574
26	on average processed 32 images in 0.731885 seconds	9.641
27	on average processed 32 images in 0.731718 seconds	9.522
28	on average processed 32 images in 0.731928 seconds	9.733
29	on average processed 32 images in 0.732100 seconds	9.678
30	on average processed 32 images in 0.732159 seconds	9.875
31	on average processed 32 images in 0.731487 seconds	9.754
32	on average processed 32 images in 0.731142 seconds	10.236
33	on average processed 32 images in 0.730661 seconds	9.602
34	on average processed 32 images in 0.730070 seconds	9.575
35	on average processed 32 images in 0.729222 seconds	9.428
36	on average processed 32 images in 0.730115 seconds	9.785
37	on average processed 32 images in 0.730055 seconds	9.496
38	on average processed 32 images in 0.729987 seconds	9.780
39	on average processed 32 images in 0.729193 seconds	9.513
40	on average processed 32 images in 0.729818 seconds	9.789
41	on average processed 32 images in 0.729877 seconds	9.722
42	on average processed 32 images in 0.729604 seconds	9.738
43	on average processed 32 images in 0.729784 seconds	9.778
44	on average processed 32 images in 0.729785 seconds	9.935
45	on average processed 32 images in 0.729977 seconds	9.663
46	on average processed 32 images in 0.730850 seconds	9.645
47	on average processed 32 images in 0.731162 seconds	9.510
48	on average processed 32 images in 0.730731 seconds	9.616
49	on average processed 32 images in 0.730876 seconds	9.600
50	on average processed 32 images in 0.730696 seconds	9.444
51	on average processed 32 images in 0.730632 seconds	9.426
52	on average processed 32 images in 0.730482 seconds	9.628
53	on average processed 32 images in 0.730295 seconds	9.499
54	on average processed 32 images in 0.730100 seconds	9.607
55	on average processed 32 images in 0.730434 seconds	9.698
56	on average processed 32 images in 0.730446 seconds	9.880
57	on average processed 32 images in 0.729905 seconds	9.451
58	on average processed 32 images in 0.729797 seconds	9.563
59	on average processed 32 images in 0.729688 seconds	9.432
60	on average processed 32 images in 0.729609 seconds	9.605
61	on average processed 32 images in 0.729667 seconds	9.561
62	on average processed 32 images in 0.729484 seconds	9.389
63	on average processed 32 images in 0.729627 seconds	9.576
64	on average processed 32 images in 0.730126 seconds	9.668
65	on average processed 32 images in 0.730009 seconds	9.601
66	on average processed 32 images in 0.730072 seconds	9.573
67	on average processed 32 images in 0.729893 seconds	9.531
68	on average processed 32 images in 0.729980 seconds	9.595
69	on average processed 32 images in 0.729960 seconds	9.581
70	on average processed 32 images in 0.729972 seconds	9.521
71	on average processed 32 images in 0.729550 seconds	9.473
72	on average processed 32 images in 0.729859 seconds	9.663
73	on average processed 32 images in 0.729796 seconds	9.514
74	on average processed 32 images in 0.729805 seconds	9.432
75	on average processed 32 images in 0.730003 seconds	9.615
76	on average processed 32 images in 0.730149 seconds	9.645
77	on average processed 32 images in 0.730376 seconds	9.799
78	on average processed 32 images in 0.730502 seconds	9.520
79	on average processed 32 images in 0.730644 seconds	9.674
80	on average processed 32 images in 0.730643 seconds	9.610
81	on average processed 32 images in 0.730768 seconds	9.496
82	on average processed 32 images in 0.731137 seconds	9.549
83	on average processed 32 images in 0.731183 seconds	9.616
84	on average processed 32 images in 0.731159 seconds	9.541
85	on average processed 32 images in 0.730845 seconds	9.613
86	on average processed 32 images in 0.731014 seconds	9.577
87	on average processed 32 images in 0.731135 seconds	9.447
88	on average processed 32 images in 0.731239 seconds	9.481
89	on average processed 32 images in 0.731306 seconds	9.687
90	on average processed 32 images in 0.731433 seconds	9.654
91	on average processed 32 images in 0.731429 seconds	9.477
92	on average processed 32 images in 0.731388 seconds	9.423
93	on average processed 32 images in 0.731376 seconds	9.535
94	on average processed 32 images in 0.731249 seconds	9.322
95	on average processed 32 images in 0.731382 seconds	9.523
96	on average processed 32 images in 0.731264 seconds	9.636
97	on average processed 32 images in 0.731033 seconds	9.490
98	on average processed 32 images in 0.731053 seconds	9.593
99	on average processed 32 images in 0.730968 seconds	9.616
100	on average processed 32 images in 0.730838 seconds	9.519
Finishing real work at step 879 at time Mon Nov 20 15:51:14 2017
----------------------------------------------------------------
total images/sec: 350.33
----------------------------------------------------------------
