2017-11-20 15:48:25.389316: I tensorflow/core/common_runtime/gpu/gpu_device.cc:940] Found device 0 with properties: 
name: Tesla P100-PCIE-16GB
major: 6 minor: 0 memoryClockRate (GHz) 1.3285
pciBusID 0000:02:00.0
Total memory: 15.89GiB
Free memory: 15.61GiB
2017-11-20 15:48:25.389799: I tensorflow/core/common_runtime/gpu/gpu_device.cc:961] DMA: 0 
2017-11-20 15:48:25.389817: I tensorflow/core/common_runtime/gpu/gpu_device.cc:971] 0:   Y 
2017-11-20 15:48:25.390114: I tensorflow/core/common_runtime/gpu/gpu_device.cc:1030] Creating TensorFlow device (/gpu:0) -> (device: 0, name: Tesla P100-PCIE-16GB, pci bus id: 0000:02:00.0)
2017-11-20 15:48:25.535331: I tensorflow/core/distributed_runtime/rpc/grpc_channel.cc:215] Initialize GrpcChannelCache for job ps -> {0 -> nid04822:2230, 1 -> nid04823:2230, 2 -> nid04824:2230, 3 -> nid04825:2230, 4 -> nid04826:2230, 5 -> nid04827:2230}
2017-11-20 15:48:25.535388: I tensorflow/core/distributed_runtime/rpc/grpc_channel.cc:215] Initialize GrpcChannelCache for job worker -> {0 -> nid04822:2220, 1 -> localhost:2220, 2 -> nid04824:2220, 3 -> nid04825:2220, 4 -> nid04826:2220, 5 -> nid04827:2220, 6 -> nid04828:2220, 7 -> nid04829:2220}
2017-11-20 15:48:25.536114: I tensorflow/core/distributed_runtime/rpc/grpc_server_lib.cc:316] Started server with target: grpc://localhost:2220
2017-11-20 15:48:59.203523: I tensorflow/core/distributed_runtime/master_session.cc:999] Start master session 307deece04353f2c with config: 
intra_op_parallelism_threads: 1
allow_soft_placement: true

TensorFlow:  1.2
Model:       resnet152
Mode:        training
Batch size:  32 global
             32.0 per device
Devices:     ['/job:worker/task:1/gpu:0']
Data format: NCHW
Optimizer:   sgd
Variables:   parameter_server
Sync:        True
==========
Generating model
Running warm up
Done warm up
Step	Img/sec	loss
Starting real work at step 80 at time Mon Nov 20 15:50:01 2017
1	on average processed 32 images in 0.746077 seconds	10.007
2	on average processed 32 images in 0.734109 seconds	9.928
3	on average processed 32 images in 0.734959 seconds	9.720
4	on average processed 32 images in 0.726851 seconds	9.670
5	on average processed 32 images in 0.724255 seconds	9.858
6	on average processed 32 images in 0.726545 seconds	9.699
7	on average processed 32 images in 0.726122 seconds	9.731
8	on average processed 32 images in 0.726032 seconds	9.662
9	on average processed 32 images in 0.724725 seconds	9.782
10	on average processed 32 images in 0.726692 seconds	9.475
11	on average processed 32 images in 0.728404 seconds	9.807
12	on average processed 32 images in 0.727030 seconds	9.772
13	on average processed 32 images in 0.727854 seconds	9.665
14	on average processed 32 images in 0.729892 seconds	9.761
15	on average processed 32 images in 0.730302 seconds	9.651
16	on average processed 32 images in 0.731180 seconds	9.824
17	on average processed 32 images in 0.732442 seconds	9.430
18	on average processed 32 images in 0.732367 seconds	9.845
19	on average processed 32 images in 0.732842 seconds	9.742
20	on average processed 32 images in 0.732498 seconds	9.477
21	on average processed 32 images in 0.732666 seconds	9.869
22	on average processed 32 images in 0.732856 seconds	9.766
23	on average processed 32 images in 0.732432 seconds	9.702
24	on average processed 32 images in 0.732790 seconds	9.669
25	on average processed 32 images in 0.731651 seconds	9.681
26	on average processed 32 images in 0.731884 seconds	9.936
27	on average processed 32 images in 0.731717 seconds	9.589
28	on average processed 32 images in 0.731936 seconds	9.824
29	on average processed 32 images in 0.732100 seconds	9.654
30	on average processed 32 images in 0.732169 seconds	9.708
31	on average processed 32 images in 0.731483 seconds	9.744
32	on average processed 32 images in 0.731143 seconds	9.462
33	on average processed 32 images in 0.730662 seconds	9.551
34	on average processed 32 images in 0.730074 seconds	11.132
35	on average processed 32 images in 0.729228 seconds	9.351
36	on average processed 32 images in 0.730107 seconds	9.753
37	on average processed 32 images in 0.730057 seconds	9.965
38	on average processed 32 images in 0.729988 seconds	9.541
39	on average processed 32 images in 0.729196 seconds	9.464
40	on average processed 32 images in 0.729824 seconds	9.438
41	on average processed 32 images in 0.729880 seconds	9.771
42	on average processed 32 images in 0.729610 seconds	9.777
43	on average processed 32 images in 0.729790 seconds	10.221
44	on average processed 32 images in 0.729788 seconds	9.511
45	on average processed 32 images in 0.729979 seconds	9.674
46	on average processed 32 images in 0.730852 seconds	9.658
47	on average processed 32 images in 0.731160 seconds	9.404
48	on average processed 32 images in 0.730734 seconds	9.475
49	on average processed 32 images in 0.730877 seconds	9.533
50	on average processed 32 images in 0.730697 seconds	9.404
51	on average processed 32 images in 0.730634 seconds	9.656
52	on average processed 32 images in 0.730485 seconds	9.681
53	on average processed 32 images in 0.730295 seconds	9.399
54	on average processed 32 images in 0.730100 seconds	9.824
55	on average processed 32 images in 0.730439 seconds	9.607
56	on average processed 32 images in 0.730449 seconds	9.367
57	on average processed 32 images in 0.729906 seconds	9.554
58	on average processed 32 images in 0.729802 seconds	9.804
59	on average processed 32 images in 0.729690 seconds	9.640
60	on average processed 32 images in 0.729614 seconds	9.588
61	on average processed 32 images in 0.729668 seconds	9.617
62	on average processed 32 images in 0.729484 seconds	9.498
63	on average processed 32 images in 0.729629 seconds	9.496
64	on average processed 32 images in 0.730128 seconds	9.717
65	on average processed 32 images in 0.730010 seconds	9.656
66	on average processed 32 images in 0.730073 seconds	9.646
67	on average processed 32 images in 0.729896 seconds	9.913
68	on average processed 32 images in 0.729981 seconds	9.583
69	on average processed 32 images in 0.729961 seconds	9.752
70	on average processed 32 images in 0.729972 seconds	9.654
71	on average processed 32 images in 0.729551 seconds	9.479
72	on average processed 32 images in 0.729859 seconds	9.646
73	on average processed 32 images in 0.729797 seconds	9.641
74	on average processed 32 images in 0.729806 seconds	9.565
75	on average processed 32 images in 0.730004 seconds	9.597
76	on average processed 32 images in 0.730148 seconds	9.357
77	on average processed 32 images in 0.730377 seconds	9.468
78	on average processed 32 images in 0.730501 seconds	9.475
79	on average processed 32 images in 0.730644 seconds	9.517
80	on average processed 32 images in 0.730643 seconds	9.557
81	on average processed 32 images in 0.730767 seconds	9.721
82	on average processed 32 images in 0.731135 seconds	9.458
83	on average processed 32 images in 0.731182 seconds	9.519
84	on average processed 32 images in 0.731159 seconds	9.507
85	on average processed 32 images in 0.730846 seconds	9.508
86	on average processed 32 images in 0.731013 seconds	9.493
87	on average processed 32 images in 0.731135 seconds	9.212
88	on average processed 32 images in 0.731238 seconds	9.443
89	on average processed 32 images in 0.731306 seconds	9.697
90	on average processed 32 images in 0.731430 seconds	9.538
91	on average processed 32 images in 0.731429 seconds	9.602
92	on average processed 32 images in 0.731388 seconds	9.544
93	on average processed 32 images in 0.731375 seconds	9.688
94	on average processed 32 images in 0.731248 seconds	9.583
95	on average processed 32 images in 0.731383 seconds	9.680
96	on average processed 32 images in 0.731262 seconds	9.545
97	on average processed 32 images in 0.731033 seconds	9.621
98	on average processed 32 images in 0.731053 seconds	9.695
99	on average processed 32 images in 0.730967 seconds	9.551
100	on average processed 32 images in 0.730837 seconds	9.408
Finishing real work at step 879 at time Mon Nov 20 15:51:14 2017
----------------------------------------------------------------
total images/sec: 350.15
----------------------------------------------------------------
