2017-11-20 16:49:48.540679: I tensorflow/core/common_runtime/gpu/gpu_device.cc:940] Found device 0 with properties: 
name: Tesla P100-PCIE-16GB
major: 6 minor: 0 memoryClockRate (GHz) 1.3285
pciBusID 0000:02:00.0
Total memory: 15.89GiB
Free memory: 15.61GiB
2017-11-20 16:49:48.541275: I tensorflow/core/common_runtime/gpu/gpu_device.cc:961] DMA: 0 
2017-11-20 16:49:48.541293: I tensorflow/core/common_runtime/gpu/gpu_device.cc:971] 0:   Y 
2017-11-20 16:49:48.541660: I tensorflow/core/common_runtime/gpu/gpu_device.cc:1030] Creating TensorFlow device (/gpu:0) -> (device: 0, name: Tesla P100-PCIE-16GB, pci bus id: 0000:02:00.0)
2017-11-20 16:49:48.710150: I tensorflow/core/distributed_runtime/rpc/grpc_channel.cc:215] Initialize GrpcChannelCache for job ps -> {0 -> nid02016:2230, 1 -> nid02017:2230, 2 -> nid02018:2230, 3 -> nid02075:2230, 4 -> nid02076:2230, 5 -> nid02077:2230}
2017-11-20 16:49:48.710207: I tensorflow/core/distributed_runtime/rpc/grpc_channel.cc:215] Initialize GrpcChannelCache for job worker -> {0 -> nid02016:2220, 1 -> nid02017:2220, 2 -> nid02018:2220, 3 -> nid02075:2220, 4 -> localhost:2220, 5 -> nid02077:2220, 6 -> nid02078:2220, 7 -> nid02326:2220}
2017-11-20 16:49:48.710921: I tensorflow/core/distributed_runtime/rpc/grpc_server_lib.cc:316] Started server with target: grpc://localhost:2220
2017-11-20 16:50:11.991235: I tensorflow/core/distributed_runtime/master_session.cc:999] Start master session 17a707d2a0e461b2 with config: 
intra_op_parallelism_threads: 1
allow_soft_placement: true

