2017-11-20 16:49:46.642933: I tensorflow/core/common_runtime/gpu/gpu_device.cc:940] Found device 0 with properties: 
name: Tesla P100-PCIE-16GB
major: 6 minor: 0 memoryClockRate (GHz) 1.3285
pciBusID 0000:02:00.0
Total memory: 15.89GiB
Free memory: 15.61GiB
2017-11-20 16:49:46.643342: I tensorflow/core/common_runtime/gpu/gpu_device.cc:961] DMA: 0 
2017-11-20 16:49:46.643360: I tensorflow/core/common_runtime/gpu/gpu_device.cc:971] 0:   Y 
2017-11-20 16:49:46.643670: I tensorflow/core/common_runtime/gpu/gpu_device.cc:1030] Creating TensorFlow device (/gpu:0) -> (device: 0, name: Tesla P100-PCIE-16GB, pci bus id: 0000:02:00.0)
2017-11-20 16:49:46.791636: I tensorflow/core/distributed_runtime/rpc/grpc_channel.cc:215] Initialize GrpcChannelCache for job ps -> {0 -> nid02016:2230, 1 -> nid02017:2230, 2 -> nid02018:2230, 3 -> nid02075:2230, 4 -> nid02076:2230, 5 -> nid02077:2230}
2017-11-20 16:49:46.791705: I tensorflow/core/distributed_runtime/rpc/grpc_channel.cc:215] Initialize GrpcChannelCache for job worker -> {0 -> nid02016:2220, 1 -> nid02017:2220, 2 -> localhost:2220, 3 -> nid02075:2220, 4 -> nid02076:2220, 5 -> nid02077:2220, 6 -> nid02078:2220, 7 -> nid02326:2220}
2017-11-20 16:49:46.792389: I tensorflow/core/distributed_runtime/rpc/grpc_server_lib.cc:316] Started server with target: grpc://localhost:2220
2017-11-20 16:50:09.492277: I tensorflow/core/distributed_runtime/master_session.cc:999] Start master session 60a47f19a8e8ac20 with config: 
intra_op_parallelism_threads: 1
allow_soft_placement: true

2017-11-20 16:50:45.891799: I tensorflow/core/distributed_runtime/master_session.cc:999] Start master session 38bd5732442a6af0 with config: 
intra_op_parallelism_threads: 1
allow_soft_placement: true

