2017-12-05 11:46:04.761040: I tensorflow/core/common_runtime/gpu/gpu_device.cc:940] Found device 0 with properties: 
name: Tesla P100-PCIE-16GB
major: 6 minor: 0 memoryClockRate (GHz) 1.3285
pciBusID 0000:02:00.0
Total memory: 15.89GiB
Free memory: 15.61GiB
2017-12-05 11:46:04.761611: I tensorflow/core/common_runtime/gpu/gpu_device.cc:961] DMA: 0 
2017-12-05 11:46:04.761629: I tensorflow/core/common_runtime/gpu/gpu_device.cc:971] 0:   Y 
2017-12-05 11:46:04.762061: I tensorflow/core/common_runtime/gpu/gpu_device.cc:1030] Creating TensorFlow device (/gpu:0) -> (device: 0, name: Tesla P100-PCIE-16GB, pci bus id: 0000:02:00.0)
2017-12-05 11:46:04.911379: I tensorflow/core/distributed_runtime/rpc/grpc_channel.cc:215] Initialize GrpcChannelCache for job ps -> {0 -> nid05174:2230, 1 -> nid05175:2230}
2017-12-05 11:46:04.911436: I tensorflow/core/distributed_runtime/rpc/grpc_channel.cc:215] Initialize GrpcChannelCache for job worker -> {0 -> nid05174:2220, 1 -> localhost:2220, 2 -> nid05176:2220, 3 -> nid05177:2220}
2017-12-05 11:46:04.912186: I tensorflow/core/distributed_runtime/rpc/grpc_server_lib.cc:316] Started server with target: grpc://localhost:2220
2017-12-05 11:46:24.048690: I tensorflow/core/distributed_runtime/master_session.cc:999] Start master session 6b525d3ce1f99b86 with config: 
intra_op_parallelism_threads: 1
allow_soft_placement: true

