2017-10-08 23:06:28.145291: I tensorflow/core/common_runtime/gpu/gpu_device.cc:940] Found device 0 with properties: 
name: Tesla P100-PCIE-16GB
major: 6 minor: 0 memoryClockRate (GHz) 1.3285
pciBusID 0000:02:00.0
Total memory: 15.89GiB
Free memory: 15.61GiB
2017-10-08 23:06:28.145981: I tensorflow/core/common_runtime/gpu/gpu_device.cc:961] DMA: 0 
2017-10-08 23:06:28.145998: I tensorflow/core/common_runtime/gpu/gpu_device.cc:971] 0:   Y 
2017-10-08 23:06:28.159727: I tensorflow/core/common_runtime/gpu/gpu_device.cc:1030] Creating TensorFlow device (/gpu:0) -> (device: 0, name: Tesla P100-PCIE-16GB, pci bus id: 0000:02:00.0)
2017-10-08 23:06:28.403411: I tensorflow/core/distributed_runtime/rpc/grpc_channel.cc:215] Initialize GrpcChannelCache for job ps -> {0 -> nid02485:2230, 1 -> nid02486:2230, 2 -> nid02487:2230, 3 -> nid02488:2230, 4 -> nid02489:2230, 5 -> nid02490:2230, 6 -> nid02491:2230, 7 -> nid02492:2230, 8 -> nid02493:2230, 9 -> nid02494:2230, 10 -> nid02495:2230, 11 -> nid02496:2230, 12 -> nid02497:2230, 13 -> nid02498:2230, 14 -> nid02499:2230, 15 -> nid02500:2230}
2017-10-08 23:06:28.403453: I tensorflow/core/distributed_runtime/rpc/grpc_channel.cc:215] Initialize GrpcChannelCache for job worker -> {0 -> nid02485:2220, 1 -> nid02486:2220, 2 -> nid02487:2220, 3 -> nid02488:2220, 4 -> nid02489:2220, 5 -> nid02490:2220, 6 -> nid02491:2220, 7 -> nid02492:2220, 8 -> nid02493:2220, 9 -> nid02494:2220, 10 -> nid02495:2220, 11 -> nid02496:2220, 12 -> nid02497:2220, 13 -> nid02498:2220, 14 -> localhost:2220, 15 -> nid02500:2220}
2017-10-08 23:06:28.404158: I tensorflow/core/distributed_runtime/rpc/grpc_server_lib.cc:316] Started server with target: grpc://localhost:2220
2017-10-08 23:06:58.686601: I tensorflow/core/distributed_runtime/master_session.cc:999] Start master session 25010d389b0450d3 with config: 
intra_op_parallelism_threads: 1
allow_soft_placement: true

2017-10-08 23:07:36.183584: I tensorflow/core/distributed_runtime/master_session.cc:999] Start master session cf31cfca3aa1bbef with config: 
intra_op_parallelism_threads: 1
allow_soft_placement: true

TensorFlow:  1.2
Model:       resnet50
Mode:        training
Batch size:  32 global
             32.0 per device
Devices:     ['/job:worker/task:14/gpu:0']
Data format: NCHW
Optimizer:   sgd
Variables:   distributed_replicated
Sync:        True
==========
Generating model
Running warm up
Done warm up
Step	Img/sec	loss
Starting real work at step 160 at time Sun Oct  8 23:07:49 2017
1	on average processed 32 images in 0.355193 seconds	8.026
2	on average processed 32 images in 0.357645 seconds	8.064
3	on average processed 32 images in 0.356968 seconds	7.947
4	on average processed 32 images in 0.353486 seconds	8.135
5	on average processed 32 images in 0.354117 seconds	8.021
6	on average processed 32 images in 0.352830 seconds	8.037
7	on average processed 32 images in 0.354068 seconds	8.091
8	on average processed 32 images in 0.353127 seconds	7.908
9	on average processed 32 images in 0.353416 seconds	8.001
10	on average processed 32 images in 0.353676 seconds	7.929
11	on average processed 32 images in 0.353014 seconds	7.800
12	on average processed 32 images in 0.354067 seconds	7.958
13	on average processed 32 images in 0.354354 seconds	7.987
14	on average processed 32 images in 0.354401 seconds	7.864
15	on average processed 32 images in 0.354382 seconds	7.974
16	on average processed 32 images in 0.353626 seconds	8.305
17	on average processed 32 images in 0.354458 seconds	8.048
18	on average processed 32 images in 0.354181 seconds	7.908
19	on average processed 32 images in 0.353928 seconds	7.897
20	on average processed 32 images in 0.353638 seconds	7.861
21	on average processed 32 images in 0.354031 seconds	8.088
22	on average processed 32 images in 0.353801 seconds	7.986
23	on average processed 32 images in 0.353276 seconds	7.893
24	on average processed 32 images in 0.353710 seconds	7.803
25	on average processed 32 images in 0.354247 seconds	7.812
26	on average processed 32 images in 0.353980 seconds	7.829
27	on average processed 32 images in 0.353510 seconds	7.911
28	on average processed 32 images in 0.353311 seconds	7.874
29	on average processed 32 images in 0.353186 seconds	7.906
30	on average processed 32 images in 0.353329 seconds	7.757
31	on average processed 32 images in 0.353136 seconds	7.811
32	on average processed 32 images in 0.352799 seconds	7.980
33	on average processed 32 images in 0.352650 seconds	7.807
34	on average processed 32 images in 0.352086 seconds	7.915
35	on average processed 32 images in 0.351809 seconds	7.560
36	on average processed 32 images in 0.351536 seconds	7.951
37	on average processed 32 images in 0.351166 seconds	7.877
38	on average processed 32 images in 0.351428 seconds	7.922
39	on average processed 32 images in 0.351228 seconds	7.877
40	on average processed 32 images in 0.351286 seconds	7.890
41	on average processed 32 images in 0.351086 seconds	7.906
42	on average processed 32 images in 0.351044 seconds	7.829
43	on average processed 32 images in 0.350964 seconds	7.694
44	on average processed 32 images in 0.351230 seconds	7.864
45	on average processed 32 images in 0.350937 seconds	8.003
46	on average processed 32 images in 0.351077 seconds	7.867
47	on average processed 32 images in 0.351023 seconds	7.856
48	on average processed 32 images in 0.350914 seconds	7.939
49	on average processed 32 images in 0.350882 seconds	7.946
50	on average processed 32 images in 0.350748 seconds	7.920
51	on average processed 32 images in 0.350994 seconds	7.866
52	on average processed 32 images in 0.351129 seconds	7.888
53	on average processed 32 images in 0.351114 seconds	7.872
54	on average processed 32 images in 0.351150 seconds	7.827
55	on average processed 32 images in 0.350925 seconds	7.639
56	on average processed 32 images in 0.350903 seconds	7.992
57	on average processed 32 images in 0.350955 seconds	7.942
58	on average processed 32 images in 0.350955 seconds	7.648
59	on average processed 32 images in 0.350795 seconds	7.975
60	on average processed 32 images in 0.350825 seconds	7.910
61	on average processed 32 images in 0.350944 seconds	7.888
62	on average processed 32 images in 0.351035 seconds	7.837
63	on average processed 32 images in 0.350871 seconds	7.771
64	on average processed 32 images in 0.350912 seconds	8.050
65	on average processed 32 images in 0.350906 seconds	7.686
66	on average processed 32 images in 0.351112 seconds	7.804
67	on average processed 32 images in 0.351141 seconds	7.780
68	on average processed 32 images in 0.351088 seconds	7.790
69	on average processed 32 images in 0.351124 seconds	7.976
70	on average processed 32 images in 0.351366 seconds	7.845
71	on average processed 32 images in 0.351445 seconds	7.856
72	on average processed 32 images in 0.351559 seconds	8.160
73	on average processed 32 images in 0.351463 seconds	7.818
74	on average processed 32 images in 0.351505 seconds	7.663
75	on average processed 32 images in 0.351815 seconds	7.849
76	on average processed 32 images in 0.351737 seconds	7.940
77	on average processed 32 images in 0.351565 seconds	7.742
78	on average processed 32 images in 0.351833 seconds	8.001
79	on average processed 32 images in 0.352009 seconds	7.911
80	on average processed 32 images in 0.351836 seconds	7.713
81	on average processed 32 images in 0.351788 seconds	7.811
82	on average processed 32 images in 0.351725 seconds	7.551
83	on average processed 32 images in 0.351859 seconds	7.879
84	on average processed 32 images in 0.352349 seconds	7.860
85	on average processed 32 images in 0.352561 seconds	8.043
86	on average processed 32 images in 0.352664 seconds	7.932
87	on average processed 32 images in 0.352720 seconds	7.873
88	on average processed 32 images in 0.352640 seconds	7.966
89	on average processed 32 images in 0.352667 seconds	7.861
90	on average processed 32 images in 0.352791 seconds	7.784
91	on average processed 32 images in 0.352678 seconds	7.975
92	on average processed 32 images in 0.352747 seconds	7.704
93	on average processed 32 images in 0.352677 seconds	7.811
94	on average processed 32 images in 0.352538 seconds	7.891
95	on average processed 32 images in 0.352638 seconds	7.855
96	on average processed 32 images in 0.352814 seconds	7.753
97	on average processed 32 images in 0.352735 seconds	7.969
98	on average processed 32 images in 0.352610 seconds	7.739
99	on average processed 32 images in 0.352576 seconds	7.976
100	on average processed 32 images in 0.352489 seconds	7.898
Finishing real work at step 1760 at time Sun Oct  8 23:08:24 2017
----------------------------------------------------------------
total images/sec: 1455.60
----------------------------------------------------------------
