2017-10-17 13:45:12.189330: I tensorflow/core/common_runtime/gpu/gpu_device.cc:940] Found device 0 with properties: 
name: Tesla P100-PCIE-16GB
major: 6 minor: 0 memoryClockRate (GHz) 1.3285
pciBusID 0000:02:00.0
Total memory: 15.89GiB
Free memory: 15.61GiB
2017-10-17 13:45:12.189721: I tensorflow/core/common_runtime/gpu/gpu_device.cc:961] DMA: 0 
2017-10-17 13:45:12.189738: I tensorflow/core/common_runtime/gpu/gpu_device.cc:971] 0:   Y 
2017-10-17 13:45:12.189756: I tensorflow/core/common_runtime/gpu/gpu_device.cc:1030] Creating TensorFlow device (/gpu:0) -> (device: 0, name: Tesla P100-PCIE-16GB, pci bus id: 0000:02:00.0)
2017-10-17 13:45:12.381156: I tensorflow/core/distributed_runtime/rpc/grpc_channel.cc:215] Initialize GrpcChannelCache for job ps -> {0 -> nid03960:2230, 1 -> nid03961:2230, 2 -> nid03962:2230, 3 -> nid03963:2230, 4 -> nid03964:2230, 5 -> nid03965:2230, 6 -> nid03966:2230, 7 -> nid03967:2230, 8 -> nid03968:2230, 9 -> nid03969:2230, 10 -> nid03970:2230, 11 -> nid03971:2230, 12 -> nid03972:2230, 13 -> nid03973:2230, 14 -> nid03974:2230, 15 -> nid03975:2230}
2017-10-17 13:45:12.381197: I tensorflow/core/distributed_runtime/rpc/grpc_channel.cc:215] Initialize GrpcChannelCache for job worker -> {0 -> nid03960:2220, 1 -> nid03961:2220, 2 -> nid03962:2220, 3 -> nid03963:2220, 4 -> nid03964:2220, 5 -> nid03965:2220, 6 -> nid03966:2220, 7 -> nid03967:2220, 8 -> nid03968:2220, 9 -> nid03969:2220, 10 -> nid03970:2220, 11 -> localhost:2220, 12 -> nid03972:2220, 13 -> nid03973:2220, 14 -> nid03974:2220, 15 -> nid03975:2220}
2017-10-17 13:45:12.381926: I tensorflow/core/distributed_runtime/rpc/grpc_server_lib.cc:316] Started server with target: grpc://localhost:2220
2017-10-17 13:45:43.047316: I tensorflow/core/distributed_runtime/master_session.cc:999] Start master session f63b86c26da2c4e0 with config: 
intra_op_parallelism_threads: 1
allow_soft_placement: true

TensorFlow:  1.2
Model:       resnet50
Mode:        training
Batch size:  32 global
             32.0 per device
Devices:     ['/job:worker/task:11/gpu:0']
Data format: NCHW
Optimizer:   sgd
Variables:   distributed_replicated
Sync:        True
==========
Generating model
Running warm up
Done warm up
Step	Img/sec	loss
Starting real work at step 160 at time Tue Oct 17 13:46:29 2017
1	on average processed 32 images in 0.350591 seconds	8.005
2	on average processed 32 images in 0.352626 seconds	7.808
3	on average processed 32 images in 0.355002 seconds	8.027
4	on average processed 32 images in 0.351657 seconds	7.809
5	on average processed 32 images in 0.352539 seconds	8.081
6	on average processed 32 images in 0.350795 seconds	7.948
7	on average processed 32 images in 0.351191 seconds	7.744
8	on average processed 32 images in 0.351371 seconds	7.965
9	on average processed 32 images in 0.351092 seconds	7.930
10	on average processed 32 images in 0.351269 seconds	7.989
11	on average processed 32 images in 0.352275 seconds	7.927
12	on average processed 32 images in 0.352080 seconds	8.062
13	on average processed 32 images in 0.352998 seconds	7.804
14	on average processed 32 images in 0.352990 seconds	8.006
15	on average processed 32 images in 0.352751 seconds	7.865
16	on average processed 32 images in 0.352418 seconds	8.013
17	on average processed 32 images in 0.352476 seconds	8.036
18	on average processed 32 images in 0.353926 seconds	8.053
19	on average processed 32 images in 0.354518 seconds	8.107
20	on average processed 32 images in 0.355248 seconds	7.830
21	on average processed 32 images in 0.355714 seconds	8.034
22	on average processed 32 images in 0.355401 seconds	7.932
23	on average processed 32 images in 0.354750 seconds	7.863
24	on average processed 32 images in 0.354566 seconds	7.956
25	on average processed 32 images in 0.354868 seconds	7.810
26	on average processed 32 images in 0.354843 seconds	7.778
27	on average processed 32 images in 0.355910 seconds	7.608
28	on average processed 32 images in 0.356338 seconds	8.402
29	on average processed 32 images in 0.356980 seconds	7.951
30	on average processed 32 images in 0.356976 seconds	7.887
31	on average processed 32 images in 0.357261 seconds	8.088
32	on average processed 32 images in 0.357146 seconds	7.927
33	on average processed 32 images in 0.357370 seconds	7.872
34	on average processed 32 images in 0.357192 seconds	7.869
35	on average processed 32 images in 0.356878 seconds	7.891
36	on average processed 32 images in 0.357017 seconds	7.795
37	on average processed 32 images in 0.356979 seconds	7.964
38	on average processed 32 images in 0.357145 seconds	7.937
39	on average processed 32 images in 0.356599 seconds	7.945
40	on average processed 32 images in 0.356406 seconds	7.912
41	on average processed 32 images in 0.356125 seconds	7.895
42	on average processed 32 images in 0.356211 seconds	7.806
43	on average processed 32 images in 0.356092 seconds	7.950
44	on average processed 32 images in 0.356062 seconds	7.900
45	on average processed 32 images in 0.355988 seconds	7.966
46	on average processed 32 images in 0.356145 seconds	7.828
47	on average processed 32 images in 0.355908 seconds	7.978
48	on average processed 32 images in 0.355995 seconds	7.902
49	on average processed 32 images in 0.356033 seconds	7.767
50	on average processed 32 images in 0.356120 seconds	7.846
51	on average processed 32 images in 0.356118 seconds	7.794
52	on average processed 32 images in 0.355999 seconds	7.878
53	on average processed 32 images in 0.355928 seconds	8.025
54	on average processed 32 images in 0.356304 seconds	7.981
55	on average processed 32 images in 0.356116 seconds	7.857
56	on average processed 32 images in 0.356257 seconds	7.826
57	on average processed 32 images in 0.356099 seconds	7.707
58	on average processed 32 images in 0.356055 seconds	7.697
59	on average processed 32 images in 0.356032 seconds	7.854
60	on average processed 32 images in 0.355859 seconds	8.050
61	on average processed 32 images in 0.355631 seconds	7.973
62	on average processed 32 images in 0.355557 seconds	7.938
63	on average processed 32 images in 0.355318 seconds	8.001
64	on average processed 32 images in 0.355450 seconds	7.822
65	on average processed 32 images in 0.355686 seconds	7.843
66	on average processed 32 images in 0.355551 seconds	7.943
67	on average processed 32 images in 0.355761 seconds	7.950
68	on average processed 32 images in 0.355850 seconds	7.731
69	on average processed 32 images in 0.355943 seconds	7.783
70	on average processed 32 images in 0.356264 seconds	7.867
71	on average processed 32 images in 0.356315 seconds	7.833
72	on average processed 32 images in 0.356200 seconds	7.908
73	on average processed 32 images in 0.356204 seconds	7.880
74	on average processed 32 images in 0.356282 seconds	7.826
75	on average processed 32 images in 0.356057 seconds	8.006
76	on average processed 32 images in 0.355962 seconds	7.776
77	on average processed 32 images in 0.356096 seconds	7.836
78	on average processed 32 images in 0.356123 seconds	7.974
79	on average processed 32 images in 0.355932 seconds	7.704
80	on average processed 32 images in 0.355857 seconds	7.773
81	on average processed 32 images in 0.355961 seconds	7.613
82	on average processed 32 images in 0.355999 seconds	7.630
83	on average processed 32 images in 0.355961 seconds	7.995
84	on average processed 32 images in 0.356090 seconds	7.725
85	on average processed 32 images in 0.356084 seconds	7.935
86	on average processed 32 images in 0.356192 seconds	7.771
87	on average processed 32 images in 0.356202 seconds	7.629
88	on average processed 32 images in 0.356169 seconds	7.892
89	on average processed 32 images in 0.356071 seconds	7.932
90	on average processed 32 images in 0.356414 seconds	7.877
91	on average processed 32 images in 0.356286 seconds	7.817
92	on average processed 32 images in 0.356431 seconds	7.750
93	on average processed 32 images in 0.356463 seconds	7.878
94	on average processed 32 images in 0.356384 seconds	7.890
95	on average processed 32 images in 0.356357 seconds	7.800
96	on average processed 32 images in 0.356290 seconds	7.839
97	on average processed 32 images in 0.356268 seconds	7.840
98	on average processed 32 images in 0.356146 seconds	7.704
99	on average processed 32 images in 0.356347 seconds	7.830
100	on average processed 32 images in 0.356282 seconds	7.985
Finishing real work at step 1760 at time Tue Oct 17 13:47:04 2017
----------------------------------------------------------------
total images/sec: 1444.28
----------------------------------------------------------------
