2017-11-20 16:46:03.527555: I tensorflow/core/common_runtime/gpu/gpu_device.cc:940] Found device 0 with properties: 
name: Tesla P100-PCIE-16GB
major: 6 minor: 0 memoryClockRate (GHz) 1.3285
pciBusID 0000:02:00.0
Total memory: 15.89GiB
Free memory: 15.61GiB
2017-11-20 16:46:03.528033: I tensorflow/core/common_runtime/gpu/gpu_device.cc:961] DMA: 0 
2017-11-20 16:46:03.528053: I tensorflow/core/common_runtime/gpu/gpu_device.cc:971] 0:   Y 
2017-11-20 16:46:03.528477: I tensorflow/core/common_runtime/gpu/gpu_device.cc:1030] Creating TensorFlow device (/gpu:0) -> (device: 0, name: Tesla P100-PCIE-16GB, pci bus id: 0000:02:00.0)
2017-11-20 16:46:03.684417: I tensorflow/core/distributed_runtime/rpc/grpc_channel.cc:215] Initialize GrpcChannelCache for job ps -> {0 -> nid04956:2230}
2017-11-20 16:46:03.684474: I tensorflow/core/distributed_runtime/rpc/grpc_channel.cc:215] Initialize GrpcChannelCache for job worker -> {0 -> nid04956:2220, 1 -> localhost:2220}
2017-11-20 16:46:03.687354: I tensorflow/core/distributed_runtime/rpc/grpc_server_lib.cc:316] Started server with target: grpc://localhost:2220
2017-11-20 16:46:20.980961: I tensorflow/core/distributed_runtime/master_session.cc:999] Start master session e0f3f2c50ccb9ea8 with config: 
intra_op_parallelism_threads: 1
allow_soft_placement: true

TensorFlow:  1.2
Model:       resnet50
Mode:        training
Batch size:  32 global
             32.0 per device
Devices:     ['/job:worker/task:1/gpu:0']
Data format: NCHW
Optimizer:   sgd
Variables:   parameter_server
Sync:        True
==========
Generating model
Running warm up
Done warm up
Step	Img/sec	loss
Starting real work at step 20 at time Mon Nov 20 16:46:43 2017
1	on average processed 32 images in 0.355276 seconds	8.185
2	on average processed 32 images in 0.346097 seconds	8.001
3	on average processed 32 images in 0.347163 seconds	8.237
4	on average processed 32 images in 0.349638 seconds	7.770
5	on average processed 32 images in 0.351321 seconds	8.247
6	on average processed 32 images in 0.351753 seconds	8.024
7	on average processed 32 images in 0.353987 seconds	8.329
8	on average processed 32 images in 0.354395 seconds	8.051
9	on average processed 32 images in 0.353958 seconds	8.151
10	on average processed 32 images in 0.354739 seconds	8.434
11	on average processed 32 images in 0.355768 seconds	7.991
12	on average processed 32 images in 0.356176 seconds	8.284
13	on average processed 32 images in 0.356297 seconds	8.164
14	on average processed 32 images in 0.356082 seconds	7.982
15	on average processed 32 images in 0.355914 seconds	8.050
16	on average processed 32 images in 0.355492 seconds	8.084
17	on average processed 32 images in 0.356714 seconds	8.327
18	on average processed 32 images in 0.357600 seconds	8.011
19	on average processed 32 images in 0.356957 seconds	7.970
20	on average processed 32 images in 0.357153 seconds	7.892
21	on average processed 32 images in 0.356994 seconds	8.000
22	on average processed 32 images in 0.356623 seconds	7.968
23	on average processed 32 images in 0.356788 seconds	8.025
24	on average processed 32 images in 0.356474 seconds	8.010
25	on average processed 32 images in 0.356775 seconds	8.122
26	on average processed 32 images in 0.356209 seconds	8.197
27	on average processed 32 images in 0.356081 seconds	8.051
28	on average processed 32 images in 0.355522 seconds	8.097
29	on average processed 32 images in 0.355594 seconds	8.150
30	on average processed 32 images in 0.355780 seconds	8.041
31	on average processed 32 images in 0.355467 seconds	8.003
32	on average processed 32 images in 0.355121 seconds	8.088
33	on average processed 32 images in 0.355049 seconds	7.927
34	on average processed 32 images in 0.354791 seconds	8.067
35	on average processed 32 images in 0.355025 seconds	7.966
36	on average processed 32 images in 0.355124 seconds	8.199
37	on average processed 32 images in 0.355064 seconds	8.092
38	on average processed 32 images in 0.354949 seconds	8.116
39	on average processed 32 images in 0.355250 seconds	7.937
40	on average processed 32 images in 0.355903 seconds	7.959
41	on average processed 32 images in 0.355770 seconds	8.246
42	on average processed 32 images in 0.355364 seconds	7.977
43	on average processed 32 images in 0.355238 seconds	7.925
44	on average processed 32 images in 0.354975 seconds	8.033
45	on average processed 32 images in 0.355017 seconds	8.188
46	on average processed 32 images in 0.355072 seconds	7.963
47	on average processed 32 images in 0.354771 seconds	7.995
48	on average processed 32 images in 0.355039 seconds	7.928
49	on average processed 32 images in 0.354729 seconds	7.874
50	on average processed 32 images in 0.354694 seconds	8.058
51	on average processed 32 images in 0.354630 seconds	7.919
52	on average processed 32 images in 0.354535 seconds	8.165
53	on average processed 32 images in 0.354520 seconds	7.885
54	on average processed 32 images in 0.354306 seconds	7.907
55	on average processed 32 images in 0.354046 seconds	7.904
56	on average processed 32 images in 0.354015 seconds	8.093
57	on average processed 32 images in 0.354067 seconds	8.238
58	on average processed 32 images in 0.353944 seconds	7.940
59	on average processed 32 images in 0.353736 seconds	8.035
60	on average processed 32 images in 0.353975 seconds	7.944
61	on average processed 32 images in 0.353809 seconds	8.035
62	on average processed 32 images in 0.353812 seconds	8.020
63	on average processed 32 images in 0.353594 seconds	8.030
64	on average processed 32 images in 0.353737 seconds	7.913
65	on average processed 32 images in 0.353778 seconds	7.943
66	on average processed 32 images in 0.353696 seconds	8.035
67	on average processed 32 images in 0.353563 seconds	7.925
68	on average processed 32 images in 0.353531 seconds	7.780
69	on average processed 32 images in 0.353348 seconds	7.992
70	on average processed 32 images in 0.353334 seconds	7.904
71	on average processed 32 images in 0.353376 seconds	7.842
72	on average processed 32 images in 0.353325 seconds	7.711
73	on average processed 32 images in 0.353388 seconds	8.051
74	on average processed 32 images in 0.353320 seconds	8.252
75	on average processed 32 images in 0.353279 seconds	8.169
76	on average processed 32 images in 0.353199 seconds	7.946
77	on average processed 32 images in 0.353125 seconds	7.860
78	on average processed 32 images in 0.353136 seconds	7.927
79	on average processed 32 images in 0.353136 seconds	7.923
80	on average processed 32 images in 0.353216 seconds	7.997
81	on average processed 32 images in 0.353270 seconds	7.752
82	on average processed 32 images in 0.353229 seconds	8.035
83	on average processed 32 images in 0.353239 seconds	7.976
84	on average processed 32 images in 0.353175 seconds	7.962
85	on average processed 32 images in 0.353016 seconds	8.091
86	on average processed 32 images in 0.353035 seconds	7.995
87	on average processed 32 images in 0.353102 seconds	7.926
88	on average processed 32 images in 0.353147 seconds	7.822
89	on average processed 32 images in 0.353264 seconds	8.003
90	on average processed 32 images in 0.353145 seconds	7.971
91	on average processed 32 images in 0.353028 seconds	8.006
92	on average processed 32 images in 0.352994 seconds	8.097
93	on average processed 32 images in 0.352941 seconds	7.887
94	on average processed 32 images in 0.352842 seconds	7.813
95	on average processed 32 images in 0.352905 seconds	8.164
96	on average processed 32 images in 0.353012 seconds	7.859
97	on average processed 32 images in 0.353021 seconds	7.840
98	on average processed 32 images in 0.353065 seconds	7.898
99	on average processed 32 images in 0.353161 seconds	8.117
100	on average processed 32 images in 0.353220 seconds	7.900
Finishing real work at step 220 at time Mon Nov 20 16:47:18 2017
----------------------------------------------------------------
total images/sec: 182.34
----------------------------------------------------------------
