2017-11-20 15:48:29.731524: I tensorflow/core/common_runtime/gpu/gpu_device.cc:940] Found device 0 with properties: 
name: Tesla P100-PCIE-16GB
major: 6 minor: 0 memoryClockRate (GHz) 1.3285
pciBusID 0000:02:00.0
Total memory: 15.89GiB
Free memory: 15.61GiB
2017-11-20 15:48:29.731930: I tensorflow/core/common_runtime/gpu/gpu_device.cc:961] DMA: 0 
2017-11-20 15:48:29.731948: I tensorflow/core/common_runtime/gpu/gpu_device.cc:971] 0:   Y 
2017-11-20 15:48:29.732308: I tensorflow/core/common_runtime/gpu/gpu_device.cc:1030] Creating TensorFlow device (/gpu:0) -> (device: 0, name: Tesla P100-PCIE-16GB, pci bus id: 0000:02:00.0)
2017-11-20 15:48:29.888027: I tensorflow/core/distributed_runtime/rpc/grpc_channel.cc:215] Initialize GrpcChannelCache for job ps -> {0 -> nid05303:2230, 1 -> nid05304:2230}
2017-11-20 15:48:29.888083: I tensorflow/core/distributed_runtime/rpc/grpc_channel.cc:215] Initialize GrpcChannelCache for job worker -> {0 -> nid05303:2220, 1 -> nid05304:2220, 2 -> localhost:2220, 3 -> nid05306:2220}
2017-11-20 15:48:29.890661: I tensorflow/core/distributed_runtime/rpc/grpc_server_lib.cc:316] Started server with target: grpc://localhost:2220
2017-11-20 15:48:55.236299: I tensorflow/core/distributed_runtime/master_session.cc:999] Start master session a8517ee409f097d8 with config: 
intra_op_parallelism_threads: 1
allow_soft_placement: true

TensorFlow:  1.2
Model:       inception3
Mode:        training
Batch size:  32 global
             32.0 per device
Devices:     ['/job:worker/task:2/gpu:0']
Data format: NCHW
Optimizer:   sgd
Variables:   parameter_server
Sync:        True
==========
Generating model
Running warm up
Done warm up
Step	Img/sec	loss
Starting real work at step 40 at time Mon Nov 20 15:49:08 2017
1	on average processed 32 images in 0.386887 seconds	7.403
2	on average processed 32 images in 0.388225 seconds	7.491
3	on average processed 32 images in 0.386248 seconds	7.396
4	on average processed 32 images in 0.384692 seconds	7.382
5	on average processed 32 images in 0.385999 seconds	7.395
6	on average processed 32 images in 0.385752 seconds	7.486
7	on average processed 32 images in 0.383103 seconds	7.343
8	on average processed 32 images in 0.382992 seconds	7.365
9	on average processed 32 images in 0.384529 seconds	7.320
10	on average processed 32 images in 0.385221 seconds	7.501
11	on average processed 32 images in 0.383750 seconds	7.452
12	on average processed 32 images in 0.384046 seconds	7.443
13	on average processed 32 images in 0.384166 seconds	7.397
14	on average processed 32 images in 0.382977 seconds	7.391
15	on average processed 32 images in 0.382210 seconds	7.467
16	on average processed 32 images in 0.382023 seconds	7.333
17	on average processed 32 images in 0.382107 seconds	7.420
18	on average processed 32 images in 0.382244 seconds	7.562
19	on average processed 32 images in 0.381690 seconds	7.324
20	on average processed 32 images in 0.381571 seconds	7.434
21	on average processed 32 images in 0.380944 seconds	7.399
22	on average processed 32 images in 0.380993 seconds	7.382
23	on average processed 32 images in 0.381184 seconds	7.474
24	on average processed 32 images in 0.381434 seconds	7.343
25	on average processed 32 images in 0.381226 seconds	7.387
26	on average processed 32 images in 0.380671 seconds	7.320
27	on average processed 32 images in 0.380271 seconds	7.523
28	on average processed 32 images in 0.380109 seconds	7.458
29	on average processed 32 images in 0.380171 seconds	7.284
30	on average processed 32 images in 0.380329 seconds	7.529
31	on average processed 32 images in 0.380207 seconds	7.374
32	on average processed 32 images in 0.380138 seconds	7.354
33	on average processed 32 images in 0.380282 seconds	7.477
34	on average processed 32 images in 0.380669 seconds	7.483
35	on average processed 32 images in 0.380883 seconds	7.309
36	on average processed 32 images in 0.381438 seconds	7.365
37	on average processed 32 images in 0.381190 seconds	7.467
38	on average processed 32 images in 0.380789 seconds	7.341
39	on average processed 32 images in 0.380712 seconds	7.466
40	on average processed 32 images in 0.381232 seconds	7.487
41	on average processed 32 images in 0.381265 seconds	7.378
42	on average processed 32 images in 0.380910 seconds	7.323
43	on average processed 32 images in 0.380402 seconds	7.401
44	on average processed 32 images in 0.380682 seconds	7.289
45	on average processed 32 images in 0.380326 seconds	7.489
46	on average processed 32 images in 0.379798 seconds	7.384
47	on average processed 32 images in 0.379835 seconds	7.397
48	on average processed 32 images in 0.379750 seconds	7.401
49	on average processed 32 images in 0.379734 seconds	7.335
50	on average processed 32 images in 0.379734 seconds	7.454
51	on average processed 32 images in 0.379820 seconds	7.468
52	on average processed 32 images in 0.379961 seconds	7.361
53	on average processed 32 images in 0.379842 seconds	7.429
54	on average processed 32 images in 0.379750 seconds	7.346
55	on average processed 32 images in 0.379681 seconds	7.416
56	on average processed 32 images in 0.379678 seconds	7.349
57	on average processed 32 images in 0.379761 seconds	7.283
58	on average processed 32 images in 0.379669 seconds	7.524
59	on average processed 32 images in 0.379652 seconds	7.383
60	on average processed 32 images in 0.379783 seconds	7.479
61	on average processed 32 images in 0.379987 seconds	7.384
62	on average processed 32 images in 0.380083 seconds	7.475
63	on average processed 32 images in 0.380258 seconds	7.252
64	on average processed 32 images in 0.380388 seconds	7.399
65	on average processed 32 images in 0.380406 seconds	7.419
66	on average processed 32 images in 0.380561 seconds	7.255
67	on average processed 32 images in 0.380983 seconds	7.480
68	on average processed 32 images in 0.381077 seconds	7.324
69	on average processed 32 images in 0.381083 seconds	7.288
70	on average processed 32 images in 0.381060 seconds	7.350
71	on average processed 32 images in 0.381303 seconds	7.344
72	on average processed 32 images in 0.381358 seconds	7.411
73	on average processed 32 images in 0.381390 seconds	7.307
74	on average processed 32 images in 0.381244 seconds	7.280
75	on average processed 32 images in 0.381124 seconds	7.387
76	on average processed 32 images in 0.381078 seconds	7.319
77	on average processed 32 images in 0.381044 seconds	7.311
78	on average processed 32 images in 0.381192 seconds	7.341
79	on average processed 32 images in 0.381047 seconds	7.316
80	on average processed 32 images in 0.381061 seconds	7.494
81	on average processed 32 images in 0.381175 seconds	7.463
82	on average processed 32 images in 0.381222 seconds	7.441
83	on average processed 32 images in 0.381215 seconds	7.503
84	on average processed 32 images in 0.381320 seconds	7.436
85	on average processed 32 images in 0.381306 seconds	7.326
86	on average processed 32 images in 0.381216 seconds	7.443
87	on average processed 32 images in 0.381292 seconds	7.455
88	on average processed 32 images in 0.381309 seconds	7.184
89	on average processed 32 images in 0.381440 seconds	7.390
90	on average processed 32 images in 0.381453 seconds	7.328
91	on average processed 32 images in 0.381266 seconds	7.331
92	on average processed 32 images in 0.381362 seconds	7.337
93	on average processed 32 images in 0.381422 seconds	7.425
94	on average processed 32 images in 0.381454 seconds	7.465
95	on average processed 32 images in 0.381548 seconds	7.339
96	on average processed 32 images in 0.381681 seconds	7.403
97	on average processed 32 images in 0.381616 seconds	7.369
98	on average processed 32 images in 0.381860 seconds	7.335
99	on average processed 32 images in 0.381951 seconds	7.473
100	on average processed 32 images in 0.382076 seconds	7.440
Finishing real work at step 440 at time Mon Nov 20 15:49:46 2017
----------------------------------------------------------------
total images/sec: 335.50
----------------------------------------------------------------
