2017-10-17 14:11:03.964412: I tensorflow/core/common_runtime/gpu/gpu_device.cc:940] Found device 0 with properties: 
name: Tesla P100-PCIE-16GB
major: 6 minor: 0 memoryClockRate (GHz) 1.3285
pciBusID 0000:02:00.0
Total memory: 15.89GiB
Free memory: 15.61GiB
2017-10-17 14:11:03.965246: I tensorflow/core/common_runtime/gpu/gpu_device.cc:961] DMA: 0 
2017-10-17 14:11:03.965266: I tensorflow/core/common_runtime/gpu/gpu_device.cc:971] 0:   Y 
2017-10-17 14:11:03.965285: I tensorflow/core/common_runtime/gpu/gpu_device.cc:1030] Creating TensorFlow device (/gpu:0) -> (device: 0, name: Tesla P100-PCIE-16GB, pci bus id: 0000:02:00.0)
2017-10-17 14:11:04.156452: I tensorflow/core/distributed_runtime/rpc/grpc_channel.cc:215] Initialize GrpcChannelCache for job ps -> {0 -> nid01954:2230, 1 -> nid01955:2230, 2 -> nid01956:2230, 3 -> nid01957:2230, 4 -> nid01958:2230, 5 -> nid01959:2230, 6 -> nid01960:2230, 7 -> nid01961:2230, 8 -> nid01962:2230, 9 -> nid01963:2230, 10 -> nid01964:2230, 11 -> nid01965:2230, 12 -> nid01966:2230, 13 -> nid01967:2230, 14 -> nid02659:2230, 15 -> nid02660:2230, 16 -> nid02661:2230, 17 -> nid06243:2230, 18 -> nid06244:2230, 19 -> nid06245:2230, 20 -> nid06246:2230, 21 -> nid06247:2230, 22 -> nid06248:2230, 23 -> nid06249:2230, 24 -> nid06250:2230, 25 -> nid06251:2230, 26 -> nid06252:2230, 27 -> nid06253:2230, 28 -> nid06254:2230, 29 -> nid06255:2230, 30 -> nid06256:2230, 31 -> nid06257:2230}
2017-10-17 14:11:04.156496: I tensorflow/core/distributed_runtime/rpc/grpc_channel.cc:215] Initialize GrpcChannelCache for job worker -> {0 -> nid01954:2220, 1 -> nid01955:2220, 2 -> nid01956:2220, 3 -> nid01957:2220, 4 -> nid01958:2220, 5 -> nid01959:2220, 6 -> nid01960:2220, 7 -> nid01961:2220, 8 -> nid01962:2220, 9 -> nid01963:2220, 10 -> nid01964:2220, 11 -> nid01965:2220, 12 -> localhost:2220, 13 -> nid01967:2220, 14 -> nid02659:2220, 15 -> nid02660:2220, 16 -> nid02661:2220, 17 -> nid06243:2220, 18 -> nid06244:2220, 19 -> nid06245:2220, 20 -> nid06246:2220, 21 -> nid06247:2220, 22 -> nid06248:2220, 23 -> nid06249:2220, 24 -> nid06250:2220, 25 -> nid06251:2220, 26 -> nid06252:2220, 27 -> nid06253:2220, 28 -> nid06254:2220, 29 -> nid06255:2220, 30 -> nid06256:2220, 31 -> nid06257:2220}
2017-10-17 14:11:04.157248: I tensorflow/core/distributed_runtime/rpc/grpc_server_lib.cc:316] Started server with target: grpc://localhost:2220
2017-10-17 14:12:40.229339: I tensorflow/core/distributed_runtime/master_session.cc:999] Start master session 16438b02f0634f24 with config: 
intra_op_parallelism_threads: 1
allow_soft_placement: true

TensorFlow:  1.2
Model:       resnet152
Mode:        training
Batch size:  32 global
             32.0 per device
Devices:     ['/job:worker/task:12/gpu:0']
Data format: NCHW
Optimizer:   sgd
Variables:   distributed_replicated
Sync:        True
==========
Generating model
Running warm up
Done warm up
Step	Img/sec	loss
Starting real work at step 320 at time Tue Oct 17 14:13:10 2017
1	on average processed 32 images in 0.786459 seconds	10.101
2	on average processed 32 images in 0.765985 seconds	10.254
3	on average processed 32 images in 0.770796 seconds	9.989
4	on average processed 32 images in 0.761956 seconds	9.857
5	on average processed 32 images in 0.768466 seconds	10.059
6	on average processed 32 images in 0.768843 seconds	9.866
7	on average processed 32 images in 0.772092 seconds	10.635
8	on average processed 32 images in 0.769714 seconds	9.909
9	on average processed 32 images in 0.766573 seconds	9.435
10	on average processed 32 images in 0.769292 seconds	9.847
11	on average processed 32 images in 0.771487 seconds	9.986
12	on average processed 32 images in 0.772594 seconds	10.330
13	on average processed 32 images in 0.771756 seconds	9.961
14	on average processed 32 images in 0.770921 seconds	14.527
15	on average processed 32 images in 0.771759 seconds	10.125
16	on average processed 32 images in 0.772669 seconds	9.602
17	on average processed 32 images in 0.773452 seconds	9.752
18	on average processed 32 images in 0.773356 seconds	9.958
19	on average processed 32 images in 0.773845 seconds	9.878
20	on average processed 32 images in 0.772202 seconds	9.454
21	on average processed 32 images in 0.771603 seconds	9.472
22	on average processed 32 images in 0.772949 seconds	9.568
23	on average processed 32 images in 0.772643 seconds	9.475
24	on average processed 32 images in 0.773796 seconds	9.675
25	on average processed 32 images in 0.775021 seconds	10.265
26	on average processed 32 images in 0.775031 seconds	10.105
27	on average processed 32 images in 0.774960 seconds	9.646
28	on average processed 32 images in 0.775559 seconds	9.453
29	on average processed 32 images in 0.775853 seconds	9.778
30	on average processed 32 images in 0.777230 seconds	9.837
31	on average processed 32 images in 0.778574 seconds	9.828
32	on average processed 32 images in 0.778359 seconds	9.391
33	on average processed 32 images in 0.777303 seconds	9.667
34	on average processed 32 images in 0.776509 seconds	9.585
35	on average processed 32 images in 0.777488 seconds	9.583
36	on average processed 32 images in 0.777847 seconds	9.621
37	on average processed 32 images in 0.777762 seconds	9.679
38	on average processed 32 images in 0.778742 seconds	9.665
39	on average processed 32 images in 0.779053 seconds	9.753
40	on average processed 32 images in 0.779684 seconds	9.629
41	on average processed 32 images in 0.779983 seconds	9.660
42	on average processed 32 images in 0.780137 seconds	9.414
43	on average processed 32 images in 0.780559 seconds	9.510
44	on average processed 32 images in 0.780873 seconds	9.574
45	on average processed 32 images in 0.781259 seconds	9.577
46	on average processed 32 images in 0.780460 seconds	9.477
47	on average processed 32 images in 0.780194 seconds	9.624
48	on average processed 32 images in 0.780547 seconds	9.415
49	on average processed 32 images in 0.780899 seconds	9.583
50	on average processed 32 images in 0.781170 seconds	9.547
51	on average processed 32 images in 0.781041 seconds	10.484
52	on average processed 32 images in 0.781284 seconds	10.075
53	on average processed 32 images in 0.780970 seconds	9.552
54	on average processed 32 images in 0.781168 seconds	9.482
55	on average processed 32 images in 0.781312 seconds	9.661
56	on average processed 32 images in 0.781057 seconds	9.577
57	on average processed 32 images in 0.781300 seconds	9.637
58	on average processed 32 images in 0.781279 seconds	9.435
59	on average processed 32 images in 0.781268 seconds	10.161
60	on average processed 32 images in 0.781832 seconds	9.597
61	on average processed 32 images in 0.781722 seconds	9.473
62	on average processed 32 images in 0.781566 seconds	9.564
63	on average processed 32 images in 0.781671 seconds	9.612
64	on average processed 32 images in 0.781955 seconds	9.738
65	on average processed 32 images in 0.781946 seconds	9.622
66	on average processed 32 images in 0.781515 seconds	9.526
67	on average processed 32 images in 0.781500 seconds	11.794
68	on average processed 32 images in 0.781809 seconds	9.455
69	on average processed 32 images in 0.781968 seconds	9.527
70	on average processed 32 images in 0.782076 seconds	9.644
71	on average processed 32 images in 0.782369 seconds	9.503
72	on average processed 32 images in 0.782457 seconds	9.395
73	on average processed 32 images in 0.782589 seconds	9.484
74	on average processed 32 images in 0.783022 seconds	9.589
75	on average processed 32 images in 0.782852 seconds	9.507
76	on average processed 32 images in 0.782195 seconds	9.705
77	on average processed 32 images in 0.782339 seconds	11.021
78	on average processed 32 images in 0.782569 seconds	9.458
79	on average processed 32 images in 0.782811 seconds	9.648
80	on average processed 32 images in 0.782792 seconds	9.709
81	on average processed 32 images in 0.782945 seconds	9.618
82	on average processed 32 images in 0.783189 seconds	9.546
83	on average processed 32 images in 0.783507 seconds	9.553
84	on average processed 32 images in 0.783238 seconds	9.503
85	on average processed 32 images in 0.782692 seconds	9.472
86	on average processed 32 images in 0.782372 seconds	9.662
87	on average processed 32 images in 0.782109 seconds	9.488
88	on average processed 32 images in 0.781889 seconds	9.515
89	on average processed 32 images in 0.782130 seconds	9.540
90	on average processed 32 images in 0.782217 seconds	10.047
91	on average processed 32 images in 0.782084 seconds	9.671
92	on average processed 32 images in 0.781883 seconds	9.749
93	on average processed 32 images in 0.781920 seconds	9.473
94	on average processed 32 images in 0.782002 seconds	9.497
95	on average processed 32 images in 0.782040 seconds	9.570
96	on average processed 32 images in 0.781683 seconds	9.495
97	on average processed 32 images in 0.781767 seconds	9.513
98	on average processed 32 images in 0.782197 seconds	9.781
99	on average processed 32 images in 0.782544 seconds	9.391
100	on average processed 32 images in 0.782575 seconds	9.534
Finishing real work at step 3520 at time Tue Oct 17 14:14:28 2017
----------------------------------------------------------------
total images/sec: 1308.54
----------------------------------------------------------------
