2017-10-11 22:18:02.932877: I tensorflow/core/common_runtime/gpu/gpu_device.cc:940] Found device 0 with properties: 
name: Tesla P100-PCIE-16GB
major: 6 minor: 0 memoryClockRate (GHz) 1.3285
pciBusID 0000:02:00.0
Total memory: 15.89GiB
Free memory: 15.61GiB
2017-10-11 22:18:02.933251: I tensorflow/core/common_runtime/gpu/gpu_device.cc:961] DMA: 0 
2017-10-11 22:18:02.933269: I tensorflow/core/common_runtime/gpu/gpu_device.cc:971] 0:   Y 
2017-10-11 22:18:02.933287: I tensorflow/core/common_runtime/gpu/gpu_device.cc:1030] Creating TensorFlow device (/gpu:0) -> (device: 0, name: Tesla P100-PCIE-16GB, pci bus id: 0000:02:00.0)
2017-10-11 22:18:03.115070: I tensorflow/core/distributed_runtime/rpc/grpc_channel.cc:215] Initialize GrpcChannelCache for job ps -> {0 -> nid02428:2230}
2017-10-11 22:18:03.115120: I tensorflow/core/distributed_runtime/rpc/grpc_channel.cc:215] Initialize GrpcChannelCache for job worker -> {0 -> localhost:2220}
2017-10-11 22:18:03.115858: I tensorflow/core/distributed_runtime/rpc/grpc_server_lib.cc:316] Started server with target: grpc://localhost:2220
2017-10-11 22:18:13.313383: I tensorflow/core/distributed_runtime/master_session.cc:999] Start master session 9bb660bb5692e99a with config: 
intra_op_parallelism_threads: 1
allow_soft_placement: true

TensorFlow:  1.2
Model:       alexnet
Mode:        training
Batch size:  32 global
             32.0 per device
Devices:     ['/job:worker/task:0/gpu:0']
Data format: NCHW
Optimizer:   sgd
Variables:   parameter_server
Sync:        True
==========
Generating model
Running warm up
Done warm up
Step	Img/sec	loss
Starting real work at step 10 at time Wed Oct 11 22:18:28 2017
1	on average processed 32 images in 0.917068 seconds	7.289
2	on average processed 32 images in 0.884178 seconds	7.282
3	on average processed 32 images in 0.874551 seconds	7.289
4	on average processed 32 images in 0.862787 seconds	7.290
5	on average processed 32 images in 0.851723 seconds	7.278
6	on average processed 32 images in 0.852922 seconds	7.284
7	on average processed 32 images in 0.850153 seconds	7.277
8	on average processed 32 images in 0.849019 seconds	7.282
9	on average processed 32 images in 0.849975 seconds	7.276
10	on average processed 32 images in 0.849634 seconds	7.275
11	on average processed 32 images in 0.848353 seconds	7.283
12	on average processed 32 images in 0.846256 seconds	7.288
13	on average processed 32 images in 0.845631 seconds	7.282
14	on average processed 32 images in 0.843932 seconds	7.285
15	on average processed 32 images in 0.843107 seconds	7.278
16	on average processed 32 images in 0.842181 seconds	7.282
17	on average processed 32 images in 0.840935 seconds	7.280
18	on average processed 32 images in 0.840799 seconds	7.266
19	on average processed 32 images in 0.840101 seconds	7.296
20	on average processed 32 images in 0.839004 seconds	7.286
21	on average processed 32 images in 0.838780 seconds	7.266
22	on average processed 32 images in 0.837361 seconds	7.285
23	on average processed 32 images in 0.837429 seconds	7.279
24	on average processed 32 images in 0.838917 seconds	7.275
25	on average processed 32 images in 0.839067 seconds	7.280
26	on average processed 32 images in 0.839266 seconds	7.285
27	on average processed 32 images in 0.839246 seconds	7.272
28	on average processed 32 images in 0.838790 seconds	7.269
29	on average processed 32 images in 0.838270 seconds	7.275
30	on average processed 32 images in 0.837808 seconds	7.272
31	on average processed 32 images in 0.837213 seconds	7.296
32	on average processed 32 images in 0.836976 seconds	7.277
33	on average processed 32 images in 0.836943 seconds	7.283
34	on average processed 32 images in 0.836706 seconds	7.281
35	on average processed 32 images in 0.836780 seconds	7.277
36	on average processed 32 images in 0.836777 seconds	7.276
37	on average processed 32 images in 0.836597 seconds	7.279
38	on average processed 32 images in 0.836244 seconds	7.291
39	on average processed 32 images in 0.836149 seconds	7.282
40	on average processed 32 images in 0.836190 seconds	7.270
41	on average processed 32 images in 0.836692 seconds	7.286
42	on average processed 32 images in 0.836416 seconds	7.288
43	on average processed 32 images in 0.836038 seconds	7.288
44	on average processed 32 images in 0.836027 seconds	7.290
45	on average processed 32 images in 0.836266 seconds	7.290
46	on average processed 32 images in 0.835896 seconds	7.262
47	on average processed 32 images in 0.836214 seconds	7.274
48	on average processed 32 images in 0.835769 seconds	7.283
49	on average processed 32 images in 0.835695 seconds	7.297
50	on average processed 32 images in 0.835592 seconds	7.292
51	on average processed 32 images in 0.835297 seconds	7.282
52	on average processed 32 images in 0.835224 seconds	7.277
53	on average processed 32 images in 0.835049 seconds	7.279
54	on average processed 32 images in 0.834904 seconds	7.269
55	on average processed 32 images in 0.834442 seconds	7.292
56	on average processed 32 images in 0.834374 seconds	7.279
57	on average processed 32 images in 0.834473 seconds	7.277
58	on average processed 32 images in 0.834225 seconds	7.276
59	on average processed 32 images in 0.834051 seconds	7.274
60	on average processed 32 images in 0.834031 seconds	7.281
61	on average processed 32 images in 0.833769 seconds	7.276
62	on average processed 32 images in 0.833750 seconds	7.275
63	on average processed 32 images in 0.833516 seconds	7.277
64	on average processed 32 images in 0.833268 seconds	7.277
65	on average processed 32 images in 0.833162 seconds	7.268
66	on average processed 32 images in 0.833561 seconds	7.281
67	on average processed 32 images in 0.833611 seconds	7.282
68	on average processed 32 images in 0.833493 seconds	7.282
69	on average processed 32 images in 0.833363 seconds	7.267
70	on average processed 32 images in 0.833196 seconds	7.297
71	on average processed 32 images in 0.833160 seconds	7.277
72	on average processed 32 images in 0.833105 seconds	7.280
73	on average processed 32 images in 0.833031 seconds	7.273
74	on average processed 32 images in 0.833151 seconds	7.273
75	on average processed 32 images in 0.832973 seconds	7.280
76	on average processed 32 images in 0.833061 seconds	7.291
77	on average processed 32 images in 0.833135 seconds	7.282
78	on average processed 32 images in 0.833010 seconds	7.284
79	on average processed 32 images in 0.832840 seconds	7.275
80	on average processed 32 images in 0.832518 seconds	7.284
81	on average processed 32 images in 0.832472 seconds	7.276
82	on average processed 32 images in 0.832420 seconds	7.280
83	on average processed 32 images in 0.832341 seconds	7.280
84	on average processed 32 images in 0.832427 seconds	7.283
85	on average processed 32 images in 0.832560 seconds	7.286
86	on average processed 32 images in 0.832490 seconds	7.283
87	on average processed 32 images in 0.832359 seconds	7.273
88	on average processed 32 images in 0.832441 seconds	7.290
89	on average processed 32 images in 0.832467 seconds	7.270
90	on average processed 32 images in 0.832475 seconds	7.282
91	on average processed 32 images in 0.832451 seconds	7.271
92	on average processed 32 images in 0.832328 seconds	7.272
93	on average processed 32 images in 0.832317 seconds	7.284
94	on average processed 32 images in 0.832349 seconds	7.279
95	on average processed 32 images in 0.832286 seconds	7.265
96	on average processed 32 images in 0.832494 seconds	7.271
97	on average processed 32 images in 0.833105 seconds	7.270
98	on average processed 32 images in 0.833287 seconds	7.287
99	on average processed 32 images in 0.833577 seconds	7.275
Finishing real work at step 109 at time Wed Oct 11 22:19:51 2017
100	on average processed 32 images in 0.833390 seconds	7.284
----------------------------------------------------------------
total images/sec: 38.39
----------------------------------------------------------------
