2017-10-08 23:44:21.878121: I tensorflow/core/common_runtime/gpu/gpu_device.cc:940] Found device 0 with properties: 
name: Tesla P100-PCIE-16GB
major: 6 minor: 0 memoryClockRate (GHz) 1.3285
pciBusID 0000:02:00.0
Total memory: 15.89GiB
Free memory: 15.61GiB
2017-10-08 23:44:21.878579: I tensorflow/core/common_runtime/gpu/gpu_device.cc:961] DMA: 0 
2017-10-08 23:44:21.878596: I tensorflow/core/common_runtime/gpu/gpu_device.cc:971] 0:   Y 
2017-10-08 23:44:21.881995: I tensorflow/core/common_runtime/gpu/gpu_device.cc:1030] Creating TensorFlow device (/gpu:0) -> (device: 0, name: Tesla P100-PCIE-16GB, pci bus id: 0000:02:00.0)
2017-10-08 23:44:22.076126: I tensorflow/core/distributed_runtime/rpc/grpc_channel.cc:215] Initialize GrpcChannelCache for job ps -> {0 -> nid02007:2230, 1 -> nid02008:2230, 2 -> nid02009:2230, 3 -> nid02010:2230, 4 -> nid02011:2230, 5 -> nid02012:2230, 6 -> nid02013:2230, 7 -> nid02014:2230, 8 -> nid02015:2230, 9 -> nid02016:2230, 10 -> nid02017:2230, 11 -> nid02018:2230, 12 -> nid02019:2230, 13 -> nid02020:2230, 14 -> nid02021:2230, 15 -> nid02022:2230, 16 -> nid02023:2230, 17 -> nid02024:2230, 18 -> nid02025:2230, 19 -> nid02026:2230, 20 -> nid02027:2230, 21 -> nid02028:2230, 22 -> nid02029:2230, 23 -> nid02030:2230, 24 -> nid02031:2230, 25 -> nid02032:2230, 26 -> nid02033:2230, 27 -> nid02034:2230, 28 -> nid02035:2230, 29 -> nid02036:2230, 30 -> nid02037:2230, 31 -> nid02038:2230}
2017-10-08 23:44:22.076174: I tensorflow/core/distributed_runtime/rpc/grpc_channel.cc:215] Initialize GrpcChannelCache for job worker -> {0 -> nid02007:2220, 1 -> nid02008:2220, 2 -> nid02009:2220, 3 -> nid02010:2220, 4 -> nid02011:2220, 5 -> nid02012:2220, 6 -> nid02013:2220, 7 -> nid02014:2220, 8 -> nid02015:2220, 9 -> nid02016:2220, 10 -> nid02017:2220, 11 -> nid02018:2220, 12 -> nid02019:2220, 13 -> nid02020:2220, 14 -> nid02021:2220, 15 -> nid02022:2220, 16 -> nid02023:2220, 17 -> localhost:2220, 18 -> nid02025:2220, 19 -> nid02026:2220, 20 -> nid02027:2220, 21 -> nid02028:2220, 22 -> nid02029:2220, 23 -> nid02030:2220, 24 -> nid02031:2220, 25 -> nid02032:2220, 26 -> nid02033:2220, 27 -> nid02034:2220, 28 -> nid02035:2220, 29 -> nid02036:2220, 30 -> nid02037:2220, 31 -> nid02038:2220}
2017-10-08 23:44:22.076941: I tensorflow/core/distributed_runtime/rpc/grpc_server_lib.cc:316] Started server with target: grpc://localhost:2220
2017-10-08 23:44:34.502508: I tensorflow/core/distributed_runtime/master_session.cc:999] Start master session fbee8bc5f4d68f6b with config: 
intra_op_parallelism_threads: 1
allow_soft_placement: true

2017-10-08 23:45:08.492470: I tensorflow/core/distributed_runtime/master_session.cc:999] Start master session c2fd99f40820ac8c with config: 
intra_op_parallelism_threads: 1
allow_soft_placement: true

TensorFlow:  1.2
Model:       alexnet
Mode:        training
Batch size:  32 global
             32.0 per device
Devices:     ['/job:worker/task:17/gpu:0']
Data format: NCHW
Optimizer:   sgd
Variables:   distributed_replicated
Sync:        True
==========
Generating model
Running warm up
Done warm up
Step	Img/sec	loss
Starting real work at step 320 at time Sun Oct  8 23:47:23 2017
1	on average processed 32 images in 12.736109 seconds	7.279
2	on average processed 32 images in 12.650853 seconds	7.272
3	on average processed 32 images in 12.736590 seconds	7.280
4	on average processed 32 images in 12.681116 seconds	7.274
5	on average processed 32 images in 12.666448 seconds	7.275
6	on average processed 32 images in 12.617866 seconds	7.284
7	on average processed 32 images in 12.617576 seconds	7.281
8	on average processed 32 images in 12.636320 seconds	7.282
9	on average processed 32 images in 12.607350 seconds	7.277
10	on average processed 32 images in 12.542565 seconds	7.292
11	on average processed 32 images in 12.555921 seconds	7.272
12	on average processed 32 images in 12.511619 seconds	7.269
13	on average processed 32 images in 12.518923 seconds	7.275
14	on average processed 32 images in 12.539462 seconds	7.259
15	on average processed 32 images in 12.523788 seconds	7.270
16	on average processed 32 images in 12.534401 seconds	7.264
17	on average processed 32 images in 12.576024 seconds	7.256
18	on average processed 32 images in 12.546148 seconds	7.283
19	on average processed 32 images in 12.536443 seconds	7.291
20	on average processed 32 images in 12.541620 seconds	7.272
21	on average processed 32 images in 12.566332 seconds	7.264
22	on average processed 32 images in 12.573218 seconds	7.304
23	on average processed 32 images in 12.567329 seconds	7.213
24	on average processed 32 images in 12.568116 seconds	7.262
25	on average processed 32 images in 12.558902 seconds	7.265
26	on average processed 32 images in 12.564894 seconds	7.304
27	on average processed 32 images in 12.565294 seconds	7.286
28	on average processed 32 images in 12.583457 seconds	7.233
29	on average processed 32 images in 12.585402 seconds	7.179
30	on average processed 32 images in 12.574758 seconds	7.302
31	on average processed 32 images in 12.574189 seconds	7.253
32	on average processed 32 images in 12.580598 seconds	7.277
33	on average processed 32 images in 12.571843 seconds	7.255
34	on average processed 32 images in 12.578391 seconds	7.296
35	on average processed 32 images in 12.580475 seconds	7.240
36	on average processed 32 images in 12.581059 seconds	7.271
37	on average processed 32 images in 12.584356 seconds	7.218
38	on average processed 32 images in 12.582992 seconds	7.264
39	on average processed 32 images in 12.583001 seconds	7.232
40	on average processed 32 images in 12.588169 seconds	7.260
41	on average processed 32 images in 12.584728 seconds	7.305
42	on average processed 32 images in 12.580238 seconds	7.278
43	on average processed 32 images in 12.587567 seconds	7.202
44	on average processed 32 images in 12.591285 seconds	7.247
45	on average processed 32 images in 12.601005 seconds	7.280
46	on average processed 32 images in 12.586684 seconds	7.242
47	on average processed 32 images in 12.583134 seconds	7.281
48	on average processed 32 images in 12.589945 seconds	7.275
49	on average processed 32 images in 12.590544 seconds	7.229
50	on average processed 32 images in 12.590938 seconds	7.219
51	on average processed 32 images in 12.585186 seconds	7.184
52	on average processed 32 images in 12.584617 seconds	7.183
53	on average processed 32 images in 12.588080 seconds	7.245
54	on average processed 32 images in 12.588269 seconds	7.260
55	on average processed 32 images in 12.580459 seconds	7.261
56	on average processed 32 images in 12.584566 seconds	7.138
57	on average processed 32 images in 12.580430 seconds	7.197
58	on average processed 32 images in 12.579772 seconds	7.219
59	on average processed 32 images in 12.581911 seconds	7.248
60	on average processed 32 images in 12.582189 seconds	7.214
61	on average processed 32 images in 12.584005 seconds	7.199
62	on average processed 32 images in 12.588327 seconds	7.161
63	on average processed 32 images in 12.586470 seconds	7.208
64	on average processed 32 images in 12.591486 seconds	7.242
65	on average processed 32 images in 12.594496 seconds	7.262
66	on average processed 32 images in 12.593707 seconds	7.278
67	on average processed 32 images in 12.591438 seconds	7.163
68	on average processed 32 images in 12.591040 seconds	7.268
69	on average processed 32 images in 12.591311 seconds	7.190
70	on average processed 32 images in 12.592710 seconds	7.248
71	on average processed 32 images in 12.588318 seconds	7.230
72	on average processed 32 images in 12.587042 seconds	7.167
73	on average processed 32 images in 12.587198 seconds	7.262
74	on average processed 32 images in 12.588502 seconds	7.260
75	on average processed 32 images in 12.588321 seconds	7.258
76	on average processed 32 images in 12.587471 seconds	7.238
77	on average processed 32 images in 12.587130 seconds	7.278
78	on average processed 32 images in 12.586150 seconds	7.147
79	on average processed 32 images in 12.586451 seconds	7.253
80	on average processed 32 images in 12.587314 seconds	7.254
81	on average processed 32 images in 12.582044 seconds	7.272
82	on average processed 32 images in 12.585048 seconds	7.231
83	on average processed 32 images in 12.581626 seconds	7.222
84	on average processed 32 images in 12.578477 seconds	7.242
85	on average processed 32 images in 12.575095 seconds	7.091
86	on average processed 32 images in 12.572536 seconds	7.237
87	on average processed 32 images in 12.575225 seconds	7.211
88	on average processed 32 images in 12.576752 seconds	7.228
89	on average processed 32 images in 12.582255 seconds	7.224
90	on average processed 32 images in 12.585925 seconds	7.183
91	on average processed 32 images in 12.583059 seconds	7.259
92	on average processed 32 images in 12.581221 seconds	7.358
93	on average processed 32 images in 12.582425 seconds	7.231
94	on average processed 32 images in 12.582841 seconds	7.250
95	on average processed 32 images in 12.581108 seconds	7.315
96	on average processed 32 images in 12.577056 seconds	7.196
97	on average processed 32 images in 12.576174 seconds	7.205
98	on average processed 32 images in 12.577810 seconds	7.246
99	on average processed 32 images in 12.578055 seconds	7.297
100	on average processed 32 images in 12.578944 seconds	7.157
Finishing real work at step 3520 at time Mon Oct  9 00:08:21 2017
----------------------------------------------------------------
total images/sec: 81.40
----------------------------------------------------------------
