2017-10-10 19:58:55.522281: I tensorflow/core/common_runtime/gpu/gpu_device.cc:940] Found device 0 with properties: 
name: Tesla P100-PCIE-16GB
major: 6 minor: 0 memoryClockRate (GHz) 1.3285
pciBusID 0000:02:00.0
Total memory: 15.89GiB
Free memory: 15.61GiB
2017-10-10 19:58:55.522744: I tensorflow/core/common_runtime/gpu/gpu_device.cc:961] DMA: 0 
2017-10-10 19:58:55.522761: I tensorflow/core/common_runtime/gpu/gpu_device.cc:971] 0:   Y 
2017-10-10 19:58:55.522778: I tensorflow/core/common_runtime/gpu/gpu_device.cc:1030] Creating TensorFlow device (/gpu:0) -> (device: 0, name: Tesla P100-PCIE-16GB, pci bus id: 0000:02:00.0)
2017-10-10 19:58:55.799756: I tensorflow/core/distributed_runtime/rpc/grpc_channel.cc:215] Initialize GrpcChannelCache for job ps -> {0 -> nid02027:2230, 1 -> nid02028:2230, 2 -> nid03053:2230, 3 -> nid03054:2230, 4 -> nid03055:2230, 5 -> nid03056:2230, 6 -> nid03117:2230, 7 -> nid03118:2230, 8 -> nid03119:2230, 9 -> nid03124:2230, 10 -> nid05290:2230, 11 -> nid05291:2230, 12 -> nid05292:2230, 13 -> nid05293:2230, 14 -> nid05294:2230, 15 -> nid05295:2230, 16 -> nid05296:2230, 17 -> nid05297:2230, 18 -> nid05298:2230, 19 -> nid05299:2230, 20 -> nid05300:2230, 21 -> nid05301:2230, 22 -> nid05302:2230, 23 -> nid05303:2230, 24 -> nid05304:2230, 25 -> nid05305:2230, 26 -> nid05332:2230, 27 -> nid05333:2230, 28 -> nid05334:2230, 29 -> nid05335:2230, 30 -> nid05336:2230, 31 -> nid05337:2230}
2017-10-10 19:58:55.799800: I tensorflow/core/distributed_runtime/rpc/grpc_channel.cc:215] Initialize GrpcChannelCache for job worker -> {0 -> nid02027:2220, 1 -> nid02028:2220, 2 -> nid03053:2220, 3 -> nid03054:2220, 4 -> nid03055:2220, 5 -> nid03056:2220, 6 -> nid03117:2220, 7 -> nid03118:2220, 8 -> nid03119:2220, 9 -> nid03124:2220, 10 -> nid05290:2220, 11 -> nid05291:2220, 12 -> nid05292:2220, 13 -> nid05293:2220, 14 -> nid05294:2220, 15 -> localhost:2220, 16 -> nid05296:2220, 17 -> nid05297:2220, 18 -> nid05298:2220, 19 -> nid05299:2220, 20 -> nid05300:2220, 21 -> nid05301:2220, 22 -> nid05302:2220, 23 -> nid05303:2220, 24 -> nid05304:2220, 25 -> nid05305:2220, 26 -> nid05332:2220, 27 -> nid05333:2220, 28 -> nid05334:2220, 29 -> nid05335:2220, 30 -> nid05336:2220, 31 -> nid05337:2220}
2017-10-10 19:58:55.800556: I tensorflow/core/distributed_runtime/rpc/grpc_server_lib.cc:316] Started server with target: grpc://localhost:2220
2017-10-10 19:59:14.414762: I tensorflow/core/distributed_runtime/master_session.cc:999] Start master session 6ae0a2dbe619788d with config: 
intra_op_parallelism_threads: 1
allow_soft_placement: true

TensorFlow:  1.2
Model:       resnet50
Mode:        training
Batch size:  32 global
             32.0 per device
Devices:     ['/job:worker/task:15/gpu:0']
Data format: NCHW
Optimizer:   sgd
Variables:   parameter_server
Sync:        True
==========
Generating model
Running warm up
Done warm up
Step	Img/sec	loss
Starting real work at step 320 at time Tue Oct 10 20:00:01 2017
1	on average processed 32 images in 0.529777 seconds	8.029
2	on average processed 32 images in 0.537549 seconds	7.936
3	on average processed 32 images in 0.532971 seconds	8.078
4	on average processed 32 images in 0.534826 seconds	8.388
5	on average processed 32 images in 0.532928 seconds	7.933
6	on average processed 32 images in 0.539883 seconds	7.938
7	on average processed 32 images in 0.538496 seconds	8.045
8	on average processed 32 images in 0.540910 seconds	7.982
9	on average processed 32 images in 0.537861 seconds	7.840
10	on average processed 32 images in 0.535957 seconds	7.951
11	on average processed 32 images in 0.535919 seconds	7.694
12	on average processed 32 images in 0.535663 seconds	7.917
13	on average processed 32 images in 0.535813 seconds	8.020
14	on average processed 32 images in 0.537267 seconds	7.834
15	on average processed 32 images in 0.537115 seconds	8.070
16	on average processed 32 images in 0.536825 seconds	7.816
17	on average processed 32 images in 0.538047 seconds	7.918
18	on average processed 32 images in 0.539223 seconds	8.071
19	on average processed 32 images in 0.539210 seconds	8.171
20	on average processed 32 images in 0.537099 seconds	7.882
21	on average processed 32 images in 0.536493 seconds	8.159
22	on average processed 32 images in 0.536965 seconds	7.981
23	on average processed 32 images in 0.536178 seconds	7.904
24	on average processed 32 images in 0.536611 seconds	7.839
25	on average processed 32 images in 0.536890 seconds	7.922
26	on average processed 32 images in 0.536630 seconds	7.931
27	on average processed 32 images in 0.537136 seconds	7.776
28	on average processed 32 images in 0.537293 seconds	7.760
29	on average processed 32 images in 0.537082 seconds	7.761
30	on average processed 32 images in 0.538799 seconds	7.886
31	on average processed 32 images in 0.538879 seconds	8.102
32	on average processed 32 images in 0.538898 seconds	7.608
33	on average processed 32 images in 0.538775 seconds	7.886
34	on average processed 32 images in 0.538568 seconds	7.698
35	on average processed 32 images in 0.538930 seconds	7.964
36	on average processed 32 images in 0.538853 seconds	7.990
37	on average processed 32 images in 0.539202 seconds	7.689
38	on average processed 32 images in 0.538652 seconds	7.842
39	on average processed 32 images in 0.538601 seconds	7.953
40	on average processed 32 images in 0.538614 seconds	7.747
41	on average processed 32 images in 0.538593 seconds	7.837
42	on average processed 32 images in 0.538350 seconds	7.990
43	on average processed 32 images in 0.538294 seconds	7.874
44	on average processed 32 images in 0.538200 seconds	7.889
45	on average processed 32 images in 0.537633 seconds	7.985
46	on average processed 32 images in 0.538403 seconds	7.879
47	on average processed 32 images in 0.538436 seconds	7.742
48	on average processed 32 images in 0.537716 seconds	8.043
49	on average processed 32 images in 0.537524 seconds	7.666
50	on average processed 32 images in 0.536961 seconds	7.730
51	on average processed 32 images in 0.536633 seconds	7.702
52	on average processed 32 images in 0.537027 seconds	7.840
53	on average processed 32 images in 0.537007 seconds	7.715
54	on average processed 32 images in 0.539801 seconds	7.861
55	on average processed 32 images in 0.539764 seconds	7.734
56	on average processed 32 images in 0.539226 seconds	7.945
57	on average processed 32 images in 0.539156 seconds	7.855
58	on average processed 32 images in 0.539314 seconds	7.656
59	on average processed 32 images in 0.539272 seconds	7.772
60	on average processed 32 images in 0.539103 seconds	7.905
61	on average processed 32 images in 0.539049 seconds	7.869
62	on average processed 32 images in 0.538803 seconds	7.718
63	on average processed 32 images in 0.538847 seconds	7.863
64	on average processed 32 images in 0.538678 seconds	7.707
65	on average processed 32 images in 0.538664 seconds	7.777
66	on average processed 32 images in 0.538256 seconds	7.796
67	on average processed 32 images in 0.538268 seconds	7.794
68	on average processed 32 images in 0.538214 seconds	7.811
69	on average processed 32 images in 0.538079 seconds	7.453
70	on average processed 32 images in 0.537801 seconds	7.700
71	on average processed 32 images in 0.537620 seconds	7.899
72	on average processed 32 images in 0.537546 seconds	7.741
73	on average processed 32 images in 0.540842 seconds	7.755
74	on average processed 32 images in 0.540841 seconds	7.925
75	on average processed 32 images in 0.540789 seconds	7.876
76	on average processed 32 images in 0.540694 seconds	7.648
77	on average processed 32 images in 0.540548 seconds	7.444
78	on average processed 32 images in 0.540846 seconds	7.533
79	on average processed 32 images in 0.540953 seconds	7.481
80	on average processed 32 images in 0.540789 seconds	7.746
81	on average processed 32 images in 0.540704 seconds	7.576
82	on average processed 32 images in 0.540790 seconds	8.000
83	on average processed 32 images in 0.540769 seconds	7.713
84	on average processed 32 images in 0.540581 seconds	7.788
85	on average processed 32 images in 0.540392 seconds	7.656
86	on average processed 32 images in 0.540379 seconds	7.779
87	on average processed 32 images in 0.540397 seconds	7.771
88	on average processed 32 images in 0.540134 seconds	7.665
89	on average processed 32 images in 0.540275 seconds	7.853
90	on average processed 32 images in 0.540056 seconds	7.595
91	on average processed 32 images in 0.539922 seconds	7.585
92	on average processed 32 images in 0.540075 seconds	7.641
93	on average processed 32 images in 0.540260 seconds	7.508
94	on average processed 32 images in 0.540269 seconds	7.794
95	on average processed 32 images in 0.540316 seconds	7.876
96	on average processed 32 images in 0.540276 seconds	7.900
97	on average processed 32 images in 0.540212 seconds	7.570
98	on average processed 32 images in 0.540328 seconds	7.485
99	on average processed 32 images in 0.540271 seconds	7.806
100	on average processed 32 images in 0.540254 seconds	7.572
Finishing real work at step 3520 at time Tue Oct 10 20:00:55 2017
----------------------------------------------------------------
total images/sec: 1896.63
----------------------------------------------------------------
