2017-10-10 19:58:57.258918: I tensorflow/core/common_runtime/gpu/gpu_device.cc:940] Found device 0 with properties: 
name: Tesla P100-PCIE-16GB
major: 6 minor: 0 memoryClockRate (GHz) 1.3285
pciBusID 0000:02:00.0
Total memory: 15.89GiB
Free memory: 15.61GiB
2017-10-10 19:58:57.259408: I tensorflow/core/common_runtime/gpu/gpu_device.cc:961] DMA: 0 
2017-10-10 19:58:57.259425: I tensorflow/core/common_runtime/gpu/gpu_device.cc:971] 0:   Y 
2017-10-10 19:58:57.259443: I tensorflow/core/common_runtime/gpu/gpu_device.cc:1030] Creating TensorFlow device (/gpu:0) -> (device: 0, name: Tesla P100-PCIE-16GB, pci bus id: 0000:02:00.0)
2017-10-10 19:58:57.496374: I tensorflow/core/distributed_runtime/rpc/grpc_channel.cc:215] Initialize GrpcChannelCache for job ps -> {0 -> nid02027:2230, 1 -> nid02028:2230, 2 -> nid03053:2230, 3 -> nid03054:2230, 4 -> nid03055:2230, 5 -> nid03056:2230, 6 -> nid03117:2230, 7 -> nid03118:2230, 8 -> nid03119:2230, 9 -> nid03124:2230, 10 -> nid05290:2230, 11 -> nid05291:2230, 12 -> nid05292:2230, 13 -> nid05293:2230, 14 -> nid05294:2230, 15 -> nid05295:2230, 16 -> nid05296:2230, 17 -> nid05297:2230, 18 -> nid05298:2230, 19 -> nid05299:2230, 20 -> nid05300:2230, 21 -> nid05301:2230, 22 -> nid05302:2230, 23 -> nid05303:2230, 24 -> nid05304:2230, 25 -> nid05305:2230, 26 -> nid05332:2230, 27 -> nid05333:2230, 28 -> nid05334:2230, 29 -> nid05335:2230, 30 -> nid05336:2230, 31 -> nid05337:2230}
2017-10-10 19:58:57.496418: I tensorflow/core/distributed_runtime/rpc/grpc_channel.cc:215] Initialize GrpcChannelCache for job worker -> {0 -> nid02027:2220, 1 -> nid02028:2220, 2 -> nid03053:2220, 3 -> nid03054:2220, 4 -> localhost:2220, 5 -> nid03056:2220, 6 -> nid03117:2220, 7 -> nid03118:2220, 8 -> nid03119:2220, 9 -> nid03124:2220, 10 -> nid05290:2220, 11 -> nid05291:2220, 12 -> nid05292:2220, 13 -> nid05293:2220, 14 -> nid05294:2220, 15 -> nid05295:2220, 16 -> nid05296:2220, 17 -> nid05297:2220, 18 -> nid05298:2220, 19 -> nid05299:2220, 20 -> nid05300:2220, 21 -> nid05301:2220, 22 -> nid05302:2220, 23 -> nid05303:2220, 24 -> nid05304:2220, 25 -> nid05305:2220, 26 -> nid05332:2220, 27 -> nid05333:2220, 28 -> nid05334:2220, 29 -> nid05335:2220, 30 -> nid05336:2220, 31 -> nid05337:2220}
2017-10-10 19:58:57.497132: I tensorflow/core/distributed_runtime/rpc/grpc_server_lib.cc:316] Started server with target: grpc://localhost:2220
2017-10-10 19:59:16.002356: I tensorflow/core/distributed_runtime/master_session.cc:999] Start master session 54cf8802aa7def89 with config: 
intra_op_parallelism_threads: 1
allow_soft_placement: true

TensorFlow:  1.2
Model:       resnet50
Mode:        training
Batch size:  32 global
             32.0 per device
Devices:     ['/job:worker/task:4/gpu:0']
Data format: NCHW
Optimizer:   sgd
Variables:   parameter_server
Sync:        True
==========
Generating model
Running warm up
Done warm up
Step	Img/sec	loss
Starting real work at step 320 at time Tue Oct 10 20:00:02 2017
1	on average processed 32 images in 0.530001 seconds	7.939
2	on average processed 32 images in 0.537467 seconds	7.800
3	on average processed 32 images in 0.532980 seconds	7.845
4	on average processed 32 images in 0.534889 seconds	7.839
5	on average processed 32 images in 0.532959 seconds	7.954
6	on average processed 32 images in 0.539991 seconds	7.912
7	on average processed 32 images in 0.538587 seconds	7.982
8	on average processed 32 images in 0.540988 seconds	8.338
9	on average processed 32 images in 0.537972 seconds	8.309
10	on average processed 32 images in 0.536064 seconds	8.028
11	on average processed 32 images in 0.536039 seconds	7.823
12	on average processed 32 images in 0.535792 seconds	8.084
13	on average processed 32 images in 0.535939 seconds	8.022
14	on average processed 32 images in 0.537393 seconds	8.231
15	on average processed 32 images in 0.537219 seconds	7.738
16	on average processed 32 images in 0.536966 seconds	7.735
17	on average processed 32 images in 0.538179 seconds	7.967
18	on average processed 32 images in 0.539347 seconds	7.865
19	on average processed 32 images in 0.539326 seconds	7.938
20	on average processed 32 images in 0.537235 seconds	7.884
21	on average processed 32 images in 0.536619 seconds	8.011
22	on average processed 32 images in 0.537095 seconds	7.862
23	on average processed 32 images in 0.536304 seconds	7.967
24	on average processed 32 images in 0.536740 seconds	7.799
25	on average processed 32 images in 0.537019 seconds	7.786
26	on average processed 32 images in 0.536760 seconds	8.019
27	on average processed 32 images in 0.537265 seconds	7.770
28	on average processed 32 images in 0.537426 seconds	7.762
29	on average processed 32 images in 0.537207 seconds	7.962
30	on average processed 32 images in 0.538919 seconds	7.799
31	on average processed 32 images in 0.539001 seconds	7.899
32	on average processed 32 images in 0.539030 seconds	7.840
33	on average processed 32 images in 0.538903 seconds	7.836
34	on average processed 32 images in 0.538694 seconds	7.847
35	on average processed 32 images in 0.539060 seconds	7.926
36	on average processed 32 images in 0.538990 seconds	7.746
37	on average processed 32 images in 0.539334 seconds	8.042
38	on average processed 32 images in 0.538785 seconds	7.840
39	on average processed 32 images in 0.538736 seconds	7.769
40	on average processed 32 images in 0.538747 seconds	7.781
41	on average processed 32 images in 0.538732 seconds	7.836
42	on average processed 32 images in 0.538482 seconds	7.930
43	on average processed 32 images in 0.538422 seconds	7.827
44	on average processed 32 images in 0.538334 seconds	7.777
45	on average processed 32 images in 0.537763 seconds	7.838
46	on average processed 32 images in 0.538537 seconds	7.829
47	on average processed 32 images in 0.538567 seconds	8.067
48	on average processed 32 images in 0.537848 seconds	7.981
49	on average processed 32 images in 0.537653 seconds	7.879
50	on average processed 32 images in 0.537096 seconds	7.754
51	on average processed 32 images in 0.536770 seconds	7.856
52	on average processed 32 images in 0.537160 seconds	7.712
53	on average processed 32 images in 0.537139 seconds	7.801
54	on average processed 32 images in 0.539936 seconds	7.629
55	on average processed 32 images in 0.539900 seconds	7.623
56	on average processed 32 images in 0.539362 seconds	7.832
57	on average processed 32 images in 0.539292 seconds	7.898
58	on average processed 32 images in 0.539454 seconds	7.842
59	on average processed 32 images in 0.539407 seconds	7.771
60	on average processed 32 images in 0.539238 seconds	7.899
61	on average processed 32 images in 0.539185 seconds	7.930
62	on average processed 32 images in 0.538937 seconds	7.681
63	on average processed 32 images in 0.538983 seconds	7.860
64	on average processed 32 images in 0.538814 seconds	7.772
65	on average processed 32 images in 0.538800 seconds	7.748
66	on average processed 32 images in 0.538392 seconds	7.629
67	on average processed 32 images in 0.538401 seconds	7.723
68	on average processed 32 images in 0.538349 seconds	7.658
69	on average processed 32 images in 0.538215 seconds	7.708
70	on average processed 32 images in 0.537940 seconds	7.782
71	on average processed 32 images in 0.537757 seconds	7.720
72	on average processed 32 images in 0.537681 seconds	7.781
73	on average processed 32 images in 0.540981 seconds	7.583
74	on average processed 32 images in 0.540977 seconds	7.792
75	on average processed 32 images in 0.540929 seconds	7.491
76	on average processed 32 images in 0.540831 seconds	7.911
77	on average processed 32 images in 0.540686 seconds	7.804
78	on average processed 32 images in 0.540987 seconds	8.050
79	on average processed 32 images in 0.541094 seconds	7.687
80	on average processed 32 images in 0.540930 seconds	7.716
81	on average processed 32 images in 0.540841 seconds	7.613
82	on average processed 32 images in 0.540927 seconds	7.662
83	on average processed 32 images in 0.540908 seconds	7.878
84	on average processed 32 images in 0.540723 seconds	7.761
85	on average processed 32 images in 0.540531 seconds	7.685
86	on average processed 32 images in 0.540517 seconds	8.138
87	on average processed 32 images in 0.540537 seconds	7.539
88	on average processed 32 images in 0.540272 seconds	7.575
89	on average processed 32 images in 0.540415 seconds	7.682
90	on average processed 32 images in 0.540197 seconds	7.845
91	on average processed 32 images in 0.540063 seconds	7.593
92	on average processed 32 images in 0.540214 seconds	7.724
93	on average processed 32 images in 0.540401 seconds	7.629
94	on average processed 32 images in 0.540408 seconds	7.794
95	on average processed 32 images in 0.540457 seconds	7.601
96	on average processed 32 images in 0.540417 seconds	7.644
97	on average processed 32 images in 0.540352 seconds	7.806
98	on average processed 32 images in 0.540468 seconds	7.563
99	on average processed 32 images in 0.540412 seconds	7.759
100	on average processed 32 images in 0.540395 seconds	7.786
Finishing real work at step 3520 at time Tue Oct 10 20:00:56 2017
----------------------------------------------------------------
total images/sec: 1896.10
----------------------------------------------------------------
