2017-10-09 00:46:27.022587: I tensorflow/core/common_runtime/gpu/gpu_device.cc:940] Found device 0 with properties: 
name: Tesla P100-PCIE-16GB
major: 6 minor: 0 memoryClockRate (GHz) 1.3285
pciBusID 0000:02:00.0
Total memory: 15.89GiB
Free memory: 15.61GiB
2017-10-09 00:46:27.023105: I tensorflow/core/common_runtime/gpu/gpu_device.cc:961] DMA: 0 
2017-10-09 00:46:27.023123: I tensorflow/core/common_runtime/gpu/gpu_device.cc:971] 0:   Y 
2017-10-09 00:46:27.025685: I tensorflow/core/common_runtime/gpu/gpu_device.cc:1030] Creating TensorFlow device (/gpu:0) -> (device: 0, name: Tesla P100-PCIE-16GB, pci bus id: 0000:02:00.0)
2017-10-09 00:46:27.245463: I tensorflow/core/distributed_runtime/rpc/grpc_channel.cc:215] Initialize GrpcChannelCache for job ps -> {0 -> nid03561:2230, 1 -> nid03562:2230, 2 -> nid03563:2230, 3 -> nid03564:2230, 4 -> nid03565:2230, 5 -> nid03566:2230, 6 -> nid03567:2230, 7 -> nid03568:2230, 8 -> nid03569:2230, 9 -> nid03570:2230, 10 -> nid03571:2230, 11 -> nid03572:2230, 12 -> nid03573:2230, 13 -> nid03574:2230, 14 -> nid03575:2230, 15 -> nid03576:2230}
2017-10-09 00:46:27.245504: I tensorflow/core/distributed_runtime/rpc/grpc_channel.cc:215] Initialize GrpcChannelCache for job worker -> {0 -> nid03561:2220, 1 -> nid03562:2220, 2 -> nid03563:2220, 3 -> nid03564:2220, 4 -> nid03565:2220, 5 -> nid03566:2220, 6 -> nid03567:2220, 7 -> nid03568:2220, 8 -> localhost:2220, 9 -> nid03570:2220, 10 -> nid03571:2220, 11 -> nid03572:2220, 12 -> nid03573:2220, 13 -> nid03574:2220, 14 -> nid03575:2220, 15 -> nid03576:2220}
2017-10-09 00:46:27.246217: I tensorflow/core/distributed_runtime/rpc/grpc_server_lib.cc:316] Started server with target: grpc://localhost:2220
2017-10-09 00:46:48.882233: I tensorflow/core/distributed_runtime/master.cc:209] CreateSession still waiting for response from worker: /job:ps/replica:0/task:4
2017-10-09 00:46:48.882332: I tensorflow/core/distributed_runtime/master.cc:209] CreateSession still waiting for response from worker: /job:worker/replica:0/task:4
2017-10-09 00:46:53.775877: I tensorflow/core/distributed_runtime/master_session.cc:999] Start master session a291a69b27ff54bf with config: 
intra_op_parallelism_threads: 1
allow_soft_placement: true

2017-10-09 00:47:26.475350: I tensorflow/core/distributed_runtime/master_session.cc:999] Start master session 70a0c89993f95e61 with config: 
intra_op_parallelism_threads: 1
allow_soft_placement: true

TensorFlow:  1.2
Model:       alexnet
Mode:        training
Batch size:  32 global
             32.0 per device
Devices:     ['/job:worker/task:8/gpu:0']
Data format: NCHW
Optimizer:   sgd
Variables:   distributed_replicated
Sync:        True
==========
Generating model
Running warm up
Done warm up
Step	Img/sec	loss
Starting real work at step 160 at time Mon Oct  9 00:48:47 2017
1	on average processed 32 images in 6.595252 seconds	7.277
2	on average processed 32 images in 6.612894 seconds	7.285
3	on average processed 32 images in 6.598385 seconds	7.281
4	on average processed 32 images in 6.628103 seconds	7.274
5	on average processed 32 images in 6.664731 seconds	7.284
6	on average processed 32 images in 6.652958 seconds	7.280
7	on average processed 32 images in 6.618497 seconds	7.245
8	on average processed 32 images in 6.621271 seconds	7.267
9	on average processed 32 images in 6.626550 seconds	7.286
10	on average processed 32 images in 6.629639 seconds	7.260
11	on average processed 32 images in 6.633865 seconds	7.275
12	on average processed 32 images in 6.628351 seconds	7.259
13	on average processed 32 images in 6.624776 seconds	7.281
14	on average processed 32 images in 6.620855 seconds	7.258
15	on average processed 32 images in 6.609282 seconds	7.274
16	on average processed 32 images in 6.603056 seconds	7.263
17	on average processed 32 images in 6.607057 seconds	7.276
18	on average processed 32 images in 6.588544 seconds	7.267
19	on average processed 32 images in 6.579050 seconds	7.266
20	on average processed 32 images in 6.584553 seconds	7.238
21	on average processed 32 images in 6.578100 seconds	7.279
22	on average processed 32 images in 6.580271 seconds	7.288
23	on average processed 32 images in 6.583237 seconds	7.269
24	on average processed 32 images in 6.579313 seconds	7.281
25	on average processed 32 images in 6.576479 seconds	7.272
26	on average processed 32 images in 6.575103 seconds	7.241
27	on average processed 32 images in 6.577976 seconds	7.264
28	on average processed 32 images in 6.579635 seconds	7.280
29	on average processed 32 images in 6.568771 seconds	7.246
30	on average processed 32 images in 6.568008 seconds	7.244
31	on average processed 32 images in 6.570311 seconds	7.271
32	on average processed 32 images in 6.571531 seconds	7.245
33	on average processed 32 images in 6.570463 seconds	7.258
34	on average processed 32 images in 6.572620 seconds	7.260
35	on average processed 32 images in 6.572574 seconds	7.263
36	on average processed 32 images in 6.573531 seconds	7.250
37	on average processed 32 images in 6.572310 seconds	7.264
38	on average processed 32 images in 6.574789 seconds	7.256
39	on average processed 32 images in 6.569341 seconds	7.267
40	on average processed 32 images in 6.570192 seconds	7.236
41	on average processed 32 images in 6.571402 seconds	7.288
42	on average processed 32 images in 6.569261 seconds	7.263
43	on average processed 32 images in 6.570679 seconds	7.284
44	on average processed 32 images in 6.572158 seconds	7.264
45	on average processed 32 images in 6.574344 seconds	7.271
46	on average processed 32 images in 6.577535 seconds	7.262
47	on average processed 32 images in 6.574704 seconds	7.208
48	on average processed 32 images in 6.572361 seconds	7.256
49	on average processed 32 images in 6.573542 seconds	7.277
50	on average processed 32 images in 6.576887 seconds	7.274
51	on average processed 32 images in 6.575550 seconds	7.298
52	on average processed 32 images in 6.576105 seconds	7.232
53	on average processed 32 images in 6.576480 seconds	7.263
54	on average processed 32 images in 6.573733 seconds	7.233
55	on average processed 32 images in 6.573822 seconds	7.252
56	on average processed 32 images in 6.566338 seconds	7.240
57	on average processed 32 images in 6.566922 seconds	7.314
58	on average processed 32 images in 6.562154 seconds	7.266
59	on average processed 32 images in 6.563599 seconds	7.278
60	on average processed 32 images in 6.564845 seconds	7.253
61	on average processed 32 images in 6.566486 seconds	7.287
62	on average processed 32 images in 6.564557 seconds	7.260
63	on average processed 32 images in 6.565085 seconds	7.234
64	on average processed 32 images in 6.565571 seconds	7.263
65	on average processed 32 images in 6.566306 seconds	7.226
66	on average processed 32 images in 6.564648 seconds	7.261
67	on average processed 32 images in 6.563841 seconds	7.268
68	on average processed 32 images in 6.563027 seconds	7.256
69	on average processed 32 images in 6.562363 seconds	7.219
70	on average processed 32 images in 6.560707 seconds	7.265
71	on average processed 32 images in 6.561291 seconds	7.244
72	on average processed 32 images in 6.560629 seconds	7.286
73	on average processed 32 images in 6.561047 seconds	7.238
74	on average processed 32 images in 6.565207 seconds	7.282
75	on average processed 32 images in 6.565632 seconds	7.291
76	on average processed 32 images in 6.564609 seconds	7.242
77	on average processed 32 images in 6.564111 seconds	7.333
78	on average processed 32 images in 6.562274 seconds	7.277
79	on average processed 32 images in 6.562212 seconds	7.259
80	on average processed 32 images in 6.563232 seconds	7.311
81	on average processed 32 images in 6.563134 seconds	7.276
82	on average processed 32 images in 6.561302 seconds	7.248
83	on average processed 32 images in 6.562429 seconds	7.276
84	on average processed 32 images in 6.563015 seconds	7.234
85	on average processed 32 images in 6.563459 seconds	7.272
86	on average processed 32 images in 6.563951 seconds	7.259
87	on average processed 32 images in 6.565610 seconds	7.204
88	on average processed 32 images in 6.566386 seconds	7.295
89	on average processed 32 images in 6.566296 seconds	7.262
90	on average processed 32 images in 6.565833 seconds	7.185
91	on average processed 32 images in 6.568664 seconds	7.260
92	on average processed 32 images in 6.569892 seconds	7.201
93	on average processed 32 images in 6.570364 seconds	7.268
94	on average processed 32 images in 6.570080 seconds	7.185
95	on average processed 32 images in 6.570979 seconds	7.206
96	on average processed 32 images in 6.571730 seconds	7.227
97	on average processed 32 images in 6.572281 seconds	7.197
98	on average processed 32 images in 6.572490 seconds	7.299
99	on average processed 32 images in 6.573287 seconds	7.220
100	on average processed 32 images in 6.573581 seconds	7.294
Finishing real work at step 1760 at time Mon Oct  9 00:59:45 2017
----------------------------------------------------------------
total images/sec: 77.90
----------------------------------------------------------------
