2017-10-06 17:46:31.285359: I tensorflow/core/common_runtime/gpu/gpu_device.cc:940] Found device 0 with properties: 
name: Tesla P100-PCIE-16GB
major: 6 minor: 0 memoryClockRate (GHz) 1.3285
pciBusID 0000:02:00.0
Total memory: 15.89GiB
Free memory: 15.61GiB
2017-10-06 17:46:31.285788: I tensorflow/core/common_runtime/gpu/gpu_device.cc:961] DMA: 0 
2017-10-06 17:46:31.285805: I tensorflow/core/common_runtime/gpu/gpu_device.cc:971] 0:   Y 
2017-10-06 17:46:31.294101: I tensorflow/core/common_runtime/gpu/gpu_device.cc:1030] Creating TensorFlow device (/gpu:0) -> (device: 0, name: Tesla P100-PCIE-16GB, pci bus id: 0000:02:00.0)
2017-10-06 17:46:31.476765: I tensorflow/core/distributed_runtime/rpc/grpc_channel.cc:215] Initialize GrpcChannelCache for job ps -> {0 -> nid03500:2230, 1 -> nid03501:2230, 2 -> nid03680:2230, 3 -> nid03681:2230, 4 -> nid03682:2230, 5 -> nid03683:2230, 6 -> nid03684:2230, 7 -> nid03685:2230}
2017-10-06 17:46:31.476805: I tensorflow/core/distributed_runtime/rpc/grpc_channel.cc:215] Initialize GrpcChannelCache for job worker -> {0 -> nid03500:2220, 1 -> nid03501:2220, 2 -> nid03680:2220, 3 -> nid03681:2220, 4 -> nid03682:2220, 5 -> localhost:2220, 6 -> nid03684:2220, 7 -> nid03685:2220}
2017-10-06 17:46:31.477538: I tensorflow/core/distributed_runtime/rpc/grpc_server_lib.cc:316] Started server with target: grpc://localhost:2220
2017-10-06 17:47:26.887652: I tensorflow/core/distributed_runtime/master_session.cc:999] Start master session 7c914e5459f7dbfc with config: 
intra_op_parallelism_threads: 1
allow_soft_placement: true

2017-10-06 17:48:10.199558: I tensorflow/core/distributed_runtime/master_session.cc:999] Start master session 4c7c8cfc797ddbcd with config: 
intra_op_parallelism_threads: 1
allow_soft_placement: true

2017-10-06 17:48:11.241572: I tensorflow/core/common_runtime/gpu/pool_allocator.cc:247] PoolAllocator: After 1554 get requests, put_count=1200 evicted_count=1000 eviction_rate=0.833333 and unsatisfied allocation rate=0.93565
2017-10-06 17:48:11.241642: I tensorflow/core/common_runtime/gpu/pool_allocator.cc:259] Raising pool_size_limit_ from 100 to 110
TensorFlow:  1.2
Model:       resnet152
Mode:        training
Batch size:  32 global
             32.0 per device
Devices:     ['/job:worker/task:5/gpu:0']
Data format: NCHW
Optimizer:   sgd
Variables:   distributed_replicated
Sync:        True
==========
Generating model
Running warm up
Done warm up
Step	Img/sec	loss
Starting real work at step 80 at time Fri Oct  6 17:48:28 2017
1	on average processed 32 images in 0.637007 seconds	9.625
2	on average processed 32 images in 0.634138 seconds	9.620
3	on average processed 32 images in 0.638812 seconds	9.882
4	on average processed 32 images in 0.637577 seconds	9.914
5	on average processed 32 images in 0.637998 seconds	9.493
6	on average processed 32 images in 0.631683 seconds	9.362
7	on average processed 32 images in 0.631391 seconds	9.432
8	on average processed 32 images in 0.629510 seconds	9.753
9	on average processed 32 images in 0.629839 seconds	9.646
10	on average processed 32 images in 0.629002 seconds	9.756
11	on average processed 32 images in 0.629024 seconds	9.766
12	on average processed 32 images in 0.629291 seconds	9.526
13	on average processed 32 images in 0.628245 seconds	9.608
14	on average processed 32 images in 0.628400 seconds	9.664
15	on average processed 32 images in 0.628699 seconds	9.758
16	on average processed 32 images in 0.629744 seconds	9.573
17	on average processed 32 images in 0.629637 seconds	9.897
18	on average processed 32 images in 0.629969 seconds	9.540
19	on average processed 32 images in 0.629665 seconds	9.605
20	on average processed 32 images in 0.628008 seconds	9.859
21	on average processed 32 images in 0.627871 seconds	9.806
22	on average processed 32 images in 0.627810 seconds	9.746
23	on average processed 32 images in 0.628014 seconds	9.373
24	on average processed 32 images in 0.627752 seconds	9.881
25	on average processed 32 images in 0.627749 seconds	9.495
26	on average processed 32 images in 0.628169 seconds	9.537
27	on average processed 32 images in 0.628585 seconds	9.602
28	on average processed 32 images in 0.628847 seconds	9.663
29	on average processed 32 images in 0.628860 seconds	9.685
30	on average processed 32 images in 0.628921 seconds	9.676
31	on average processed 32 images in 0.628720 seconds	9.578
32	on average processed 32 images in 0.628764 seconds	9.528
33	on average processed 32 images in 0.628253 seconds	9.438
34	on average processed 32 images in 0.628111 seconds	9.395
35	on average processed 32 images in 0.627461 seconds	9.654
36	on average processed 32 images in 0.627651 seconds	9.536
37	on average processed 32 images in 0.627545 seconds	9.587
38	on average processed 32 images in 0.627622 seconds	9.472
39	on average processed 32 images in 0.628035 seconds	9.601
40	on average processed 32 images in 0.627400 seconds	9.967
41	on average processed 32 images in 0.627624 seconds	9.436
42	on average processed 32 images in 0.627704 seconds	10.095
43	on average processed 32 images in 0.627668 seconds	9.477
44	on average processed 32 images in 0.628233 seconds	9.596
45	on average processed 32 images in 0.627938 seconds	9.392
46	on average processed 32 images in 0.628169 seconds	9.595
47	on average processed 32 images in 0.628294 seconds	9.724
48	on average processed 32 images in 0.627597 seconds	9.558
49	on average processed 32 images in 0.628009 seconds	9.952
50	on average processed 32 images in 0.628108 seconds	9.491
51	on average processed 32 images in 0.628180 seconds	9.704
52	on average processed 32 images in 0.628087 seconds	9.582
53	on average processed 32 images in 0.627704 seconds	9.607
54	on average processed 32 images in 0.627759 seconds	9.639
55	on average processed 32 images in 0.627117 seconds	9.846
56	on average processed 32 images in 0.627258 seconds	10.001
57	on average processed 32 images in 0.627300 seconds	9.614
58	on average processed 32 images in 0.626933 seconds	9.567
59	on average processed 32 images in 0.627056 seconds	9.796
60	on average processed 32 images in 0.627132 seconds	9.619
61	on average processed 32 images in 0.627566 seconds	9.503
62	on average processed 32 images in 0.627585 seconds	9.597
63	on average processed 32 images in 0.627636 seconds	9.720
64	on average processed 32 images in 0.627739 seconds	9.464
65	on average processed 32 images in 0.627299 seconds	9.454
66	on average processed 32 images in 0.627365 seconds	9.466
67	on average processed 32 images in 0.627430 seconds	9.756
68	on average processed 32 images in 0.627355 seconds	9.433
69	on average processed 32 images in 0.627657 seconds	9.652
70	on average processed 32 images in 0.627642 seconds	9.480
71	on average processed 32 images in 0.627751 seconds	9.601
72	on average processed 32 images in 0.627785 seconds	9.521
73	on average processed 32 images in 0.627859 seconds	9.497
74	on average processed 32 images in 0.627910 seconds	9.557
75	on average processed 32 images in 0.627984 seconds	9.519
76	on average processed 32 images in 0.628064 seconds	9.420
77	on average processed 32 images in 0.628042 seconds	9.493
78	on average processed 32 images in 0.628112 seconds	9.425
79	on average processed 32 images in 0.627587 seconds	9.522
80	on average processed 32 images in 0.627621 seconds	9.613
81	on average processed 32 images in 0.627672 seconds	9.531
82	on average processed 32 images in 0.627718 seconds	9.548
83	on average processed 32 images in 0.627656 seconds	9.533
84	on average processed 32 images in 0.627689 seconds	9.681
85	on average processed 32 images in 0.627590 seconds	9.517
86	on average processed 32 images in 0.627722 seconds	9.716
87	on average processed 32 images in 0.627746 seconds	9.662
88	on average processed 32 images in 0.627795 seconds	9.445
89	on average processed 32 images in 0.627861 seconds	9.514
90	on average processed 32 images in 0.627846 seconds	9.481
91	on average processed 32 images in 0.627856 seconds	9.442
92	on average processed 32 images in 0.628118 seconds	9.519
93	on average processed 32 images in 0.628163 seconds	9.650
94	on average processed 32 images in 0.628183 seconds	9.540
95	on average processed 32 images in 0.628236 seconds	9.475
96	on average processed 32 images in 0.628183 seconds	9.535
97	on average processed 32 images in 0.628210 seconds	9.435
98	on average processed 32 images in 0.628193 seconds	9.597
99	on average processed 32 images in 0.628212 seconds	9.640
100	on average processed 32 images in 0.628263 seconds	9.400
Finishing real work at step 879 at time Fri Oct  6 17:49:31 2017
----------------------------------------------------------------
total images/sec: 407.80
----------------------------------------------------------------
