2017-10-09 01:15:55.565830: I tensorflow/core/common_runtime/gpu/gpu_device.cc:940] Found device 0 with properties: 
name: Tesla P100-PCIE-16GB
major: 6 minor: 0 memoryClockRate (GHz) 1.3285
pciBusID 0000:02:00.0
Total memory: 15.89GiB
Free memory: 15.61GiB
2017-10-09 01:15:55.566305: I tensorflow/core/common_runtime/gpu/gpu_device.cc:961] DMA: 0 
2017-10-09 01:15:55.566322: I tensorflow/core/common_runtime/gpu/gpu_device.cc:971] 0:   Y 
2017-10-09 01:15:55.571413: I tensorflow/core/common_runtime/gpu/gpu_device.cc:1030] Creating TensorFlow device (/gpu:0) -> (device: 0, name: Tesla P100-PCIE-16GB, pci bus id: 0000:02:00.0)
2017-10-09 01:15:55.755468: I tensorflow/core/distributed_runtime/rpc/grpc_channel.cc:215] Initialize GrpcChannelCache for job ps -> {0 -> nid04699:2230, 1 -> nid04700:2230, 2 -> nid04701:2230, 3 -> nid04702:2230, 4 -> nid04703:2230, 5 -> nid04704:2230, 6 -> nid04705:2230, 7 -> nid04706:2230, 8 -> nid04707:2230, 9 -> nid04708:2230, 10 -> nid04709:2230, 11 -> nid04710:2230, 12 -> nid04711:2230, 13 -> nid04712:2230, 14 -> nid04713:2230, 15 -> nid04714:2230, 16 -> nid04715:2230, 17 -> nid04716:2230, 18 -> nid04717:2230, 19 -> nid04718:2230, 20 -> nid04719:2230, 21 -> nid04720:2230, 22 -> nid04721:2230, 23 -> nid04722:2230, 24 -> nid04723:2230, 25 -> nid04724:2230, 26 -> nid04725:2230, 27 -> nid04726:2230, 28 -> nid04727:2230, 29 -> nid04728:2230, 30 -> nid04729:2230, 31 -> nid04730:2230}
2017-10-09 01:15:55.755510: I tensorflow/core/distributed_runtime/rpc/grpc_channel.cc:215] Initialize GrpcChannelCache for job worker -> {0 -> nid04699:2220, 1 -> nid04700:2220, 2 -> nid04701:2220, 3 -> nid04702:2220, 4 -> nid04703:2220, 5 -> nid04704:2220, 6 -> nid04705:2220, 7 -> nid04706:2220, 8 -> nid04707:2220, 9 -> nid04708:2220, 10 -> nid04709:2220, 11 -> nid04710:2220, 12 -> nid04711:2220, 13 -> nid04712:2220, 14 -> nid04713:2220, 15 -> nid04714:2220, 16 -> nid04715:2220, 17 -> nid04716:2220, 18 -> nid04717:2220, 19 -> nid04718:2220, 20 -> nid04719:2220, 21 -> nid04720:2220, 22 -> nid04721:2220, 23 -> nid04722:2220, 24 -> nid04723:2220, 25 -> nid04724:2220, 26 -> nid04725:2220, 27 -> nid04726:2220, 28 -> nid04727:2220, 29 -> localhost:2220, 30 -> nid04729:2220, 31 -> nid04730:2220}
2017-10-09 01:15:55.756231: I tensorflow/core/distributed_runtime/rpc/grpc_server_lib.cc:316] Started server with target: grpc://localhost:2220
2017-10-09 01:16:08.319272: I tensorflow/core/distributed_runtime/master_session.cc:999] Start master session ffb4fa79c83932ed with config: 
intra_op_parallelism_threads: 1
allow_soft_placement: true

2017-10-09 01:16:42.621418: I tensorflow/core/distributed_runtime/master_session.cc:999] Start master session 2be8fbdd012b15ed with config: 
intra_op_parallelism_threads: 1
allow_soft_placement: true

TensorFlow:  1.2
Model:       alexnet
Mode:        training
Batch size:  32 global
             32.0 per device
Devices:     ['/job:worker/task:29/gpu:0']
Data format: NCHW
Optimizer:   sgd
Variables:   distributed_replicated
Sync:        True
==========
Generating model
Running warm up
Done warm up
Step	Img/sec	loss
Starting real work at step 320 at time Mon Oct  9 01:19:02 2017
1	on average processed 32 images in 12.411025 seconds	7.279
2	on average processed 32 images in 12.668652 seconds	7.275
3	on average processed 32 images in 12.679448 seconds	7.254
4	on average processed 32 images in 12.681783 seconds	7.281
5	on average processed 32 images in 12.695110 seconds	7.295
6	on average processed 32 images in 12.671325 seconds	7.280
7	on average processed 32 images in 12.637716 seconds	7.273
8	on average processed 32 images in 12.647886 seconds	7.237
9	on average processed 32 images in 12.652883 seconds	7.275
10	on average processed 32 images in 12.637362 seconds	7.276
11	on average processed 32 images in 12.645155 seconds	7.270
12	on average processed 32 images in 12.645812 seconds	7.267
13	on average processed 32 images in 12.645367 seconds	7.266
14	on average processed 32 images in 12.626450 seconds	7.286
15	on average processed 32 images in 12.635165 seconds	7.285
16	on average processed 32 images in 12.645374 seconds	7.276
17	on average processed 32 images in 12.632949 seconds	7.277
18	on average processed 32 images in 12.635894 seconds	7.310
19	on average processed 32 images in 12.599395 seconds	7.269
20	on average processed 32 images in 12.600107 seconds	7.233
21	on average processed 32 images in 12.602498 seconds	7.274
22	on average processed 32 images in 12.605388 seconds	7.275
23	on average processed 32 images in 12.603322 seconds	7.272
24	on average processed 32 images in 12.606387 seconds	7.271
25	on average processed 32 images in 12.597108 seconds	7.241
26	on average processed 32 images in 12.595418 seconds	7.211
27	on average processed 32 images in 12.595953 seconds	7.239
28	on average processed 32 images in 12.593621 seconds	7.196
29	on average processed 32 images in 12.579553 seconds	7.278
30	on average processed 32 images in 12.574768 seconds	7.210
31	on average processed 32 images in 12.552604 seconds	7.237
32	on average processed 32 images in 12.559150 seconds	7.231
33	on average processed 32 images in 12.556312 seconds	7.299
34	on average processed 32 images in 12.558837 seconds	7.318
35	on average processed 32 images in 12.561010 seconds	7.285
36	on average processed 32 images in 12.565124 seconds	7.255
37	on average processed 32 images in 12.570859 seconds	7.226
38	on average processed 32 images in 12.568062 seconds	7.244
39	on average processed 32 images in 12.573204 seconds	7.248
40	on average processed 32 images in 12.575922 seconds	7.245
41	on average processed 32 images in 12.582447 seconds	7.251
42	on average processed 32 images in 12.583980 seconds	7.265
43	on average processed 32 images in 12.582484 seconds	7.265
44	on average processed 32 images in 12.593775 seconds	7.247
45	on average processed 32 images in 12.589873 seconds	7.255
46	on average processed 32 images in 12.592814 seconds	7.258
47	on average processed 32 images in 12.594829 seconds	7.257
48	on average processed 32 images in 12.584142 seconds	7.281
49	on average processed 32 images in 12.579041 seconds	7.267
50	on average processed 32 images in 12.580542 seconds	7.208
51	on average processed 32 images in 12.584106 seconds	7.306
52	on average processed 32 images in 12.577701 seconds	7.198
53	on average processed 32 images in 12.572326 seconds	7.207
54	on average processed 32 images in 12.574166 seconds	7.336
55	on average processed 32 images in 12.575417 seconds	7.229
56	on average processed 32 images in 12.572616 seconds	7.242
57	on average processed 32 images in 12.574279 seconds	7.318
58	on average processed 32 images in 12.572033 seconds	7.192
59	on average processed 32 images in 12.572994 seconds	7.167
60	on average processed 32 images in 12.574137 seconds	7.239
61	on average processed 32 images in 12.578288 seconds	7.210
62	on average processed 32 images in 12.579964 seconds	7.234
63	on average processed 32 images in 12.577286 seconds	7.263
64	on average processed 32 images in 12.579353 seconds	7.259
65	on average processed 32 images in 12.573790 seconds	7.226
66	on average processed 32 images in 12.570055 seconds	7.295
67	on average processed 32 images in 12.560276 seconds	7.265
68	on average processed 32 images in 12.558084 seconds	7.272
69	on average processed 32 images in 12.557258 seconds	7.227
70	on average processed 32 images in 12.561004 seconds	7.252
71	on average processed 32 images in 12.554184 seconds	7.274
72	on average processed 32 images in 12.553179 seconds	7.187
73	on average processed 32 images in 12.553842 seconds	7.188
74	on average processed 32 images in 12.550899 seconds	7.246
75	on average processed 32 images in 12.550752 seconds	7.250
76	on average processed 32 images in 12.551574 seconds	7.254
77	on average processed 32 images in 12.551445 seconds	7.226
78	on average processed 32 images in 12.550156 seconds	7.216
79	on average processed 32 images in 12.549453 seconds	7.250
80	on average processed 32 images in 12.551415 seconds	7.212
81	on average processed 32 images in 12.553379 seconds	7.256
82	on average processed 32 images in 12.553647 seconds	7.225
83	on average processed 32 images in 12.554970 seconds	7.251
84	on average processed 32 images in 12.557794 seconds	7.346
85	on average processed 32 images in 12.559607 seconds	7.189
86	on average processed 32 images in 12.560829 seconds	7.302
87	on average processed 32 images in 12.555559 seconds	7.233
88	on average processed 32 images in 12.558883 seconds	7.296
89	on average processed 32 images in 12.554548 seconds	7.224
90	on average processed 32 images in 12.555511 seconds	7.163
91	on average processed 32 images in 12.558075 seconds	7.367
92	on average processed 32 images in 12.560320 seconds	7.215
93	on average processed 32 images in 12.554946 seconds	7.289
94	on average processed 32 images in 12.555807 seconds	7.282
95	on average processed 32 images in 12.558043 seconds	7.146
96	on average processed 32 images in 12.552190 seconds	7.194
97	on average processed 32 images in 12.545982 seconds	7.242
98	on average processed 32 images in 12.547230 seconds	7.251
99	on average processed 32 images in 12.544958 seconds	7.275
100	on average processed 32 images in 12.545005 seconds	7.203
Finishing real work at step 3519 at time Mon Oct  9 01:39:56 2017
----------------------------------------------------------------
total images/sec: 81.60
----------------------------------------------------------------
