2017-10-09 01:15:55.658103: I tensorflow/core/common_runtime/gpu/gpu_device.cc:940] Found device 0 with properties: 
name: Tesla P100-PCIE-16GB
major: 6 minor: 0 memoryClockRate (GHz) 1.3285
pciBusID 0000:02:00.0
Total memory: 15.89GiB
Free memory: 15.61GiB
2017-10-09 01:15:55.658528: I tensorflow/core/common_runtime/gpu/gpu_device.cc:961] DMA: 0 
2017-10-09 01:15:55.658545: I tensorflow/core/common_runtime/gpu/gpu_device.cc:971] 0:   Y 
2017-10-09 01:15:55.661101: I tensorflow/core/common_runtime/gpu/gpu_device.cc:1030] Creating TensorFlow device (/gpu:0) -> (device: 0, name: Tesla P100-PCIE-16GB, pci bus id: 0000:02:00.0)
2017-10-09 01:15:55.874578: I tensorflow/core/distributed_runtime/rpc/grpc_channel.cc:215] Initialize GrpcChannelCache for job ps -> {0 -> nid04699:2230, 1 -> nid04700:2230, 2 -> nid04701:2230, 3 -> nid04702:2230, 4 -> nid04703:2230, 5 -> nid04704:2230, 6 -> nid04705:2230, 7 -> nid04706:2230, 8 -> nid04707:2230, 9 -> nid04708:2230, 10 -> nid04709:2230, 11 -> nid04710:2230, 12 -> nid04711:2230, 13 -> nid04712:2230, 14 -> nid04713:2230, 15 -> nid04714:2230, 16 -> nid04715:2230, 17 -> nid04716:2230, 18 -> nid04717:2230, 19 -> nid04718:2230, 20 -> nid04719:2230, 21 -> nid04720:2230, 22 -> nid04721:2230, 23 -> nid04722:2230, 24 -> nid04723:2230, 25 -> nid04724:2230, 26 -> nid04725:2230, 27 -> nid04726:2230, 28 -> nid04727:2230, 29 -> nid04728:2230, 30 -> nid04729:2230, 31 -> nid04730:2230}
2017-10-09 01:15:55.874621: I tensorflow/core/distributed_runtime/rpc/grpc_channel.cc:215] Initialize GrpcChannelCache for job worker -> {0 -> nid04699:2220, 1 -> nid04700:2220, 2 -> nid04701:2220, 3 -> nid04702:2220, 4 -> nid04703:2220, 5 -> nid04704:2220, 6 -> nid04705:2220, 7 -> nid04706:2220, 8 -> nid04707:2220, 9 -> nid04708:2220, 10 -> nid04709:2220, 11 -> nid04710:2220, 12 -> nid04711:2220, 13 -> nid04712:2220, 14 -> nid04713:2220, 15 -> nid04714:2220, 16 -> nid04715:2220, 17 -> nid04716:2220, 18 -> nid04717:2220, 19 -> nid04718:2220, 20 -> nid04719:2220, 21 -> localhost:2220, 22 -> nid04721:2220, 23 -> nid04722:2220, 24 -> nid04723:2220, 25 -> nid04724:2220, 26 -> nid04725:2220, 27 -> nid04726:2220, 28 -> nid04727:2220, 29 -> nid04728:2220, 30 -> nid04729:2220, 31 -> nid04730:2220}
2017-10-09 01:15:55.875373: I tensorflow/core/distributed_runtime/rpc/grpc_server_lib.cc:316] Started server with target: grpc://localhost:2220
2017-10-09 01:16:08.500349: I tensorflow/core/distributed_runtime/master_session.cc:999] Start master session d994271c157b5b8c with config: 
intra_op_parallelism_threads: 1
allow_soft_placement: true

2017-10-09 01:16:42.750617: I tensorflow/core/distributed_runtime/master_session.cc:999] Start master session 31db7c89909864c3 with config: 
intra_op_parallelism_threads: 1
allow_soft_placement: true

TensorFlow:  1.2
Model:       alexnet
Mode:        training
Batch size:  32 global
             32.0 per device
Devices:     ['/job:worker/task:21/gpu:0']
Data format: NCHW
Optimizer:   sgd
Variables:   distributed_replicated
Sync:        True
==========
Generating model
Running warm up
Done warm up
Step	Img/sec	loss
Starting real work at step 320 at time Mon Oct  9 01:19:02 2017
1	on average processed 32 images in 12.411434 seconds	7.266
2	on average processed 32 images in 12.668883 seconds	7.279
3	on average processed 32 images in 12.679732 seconds	7.275
4	on average processed 32 images in 12.682082 seconds	7.269
5	on average processed 32 images in 12.695384 seconds	7.274
6	on average processed 32 images in 12.671634 seconds	7.289
7	on average processed 32 images in 12.638015 seconds	7.273
8	on average processed 32 images in 12.648178 seconds	7.273
9	on average processed 32 images in 12.653159 seconds	7.269
10	on average processed 32 images in 12.637632 seconds	7.248
11	on average processed 32 images in 12.645456 seconds	7.277
12	on average processed 32 images in 12.646095 seconds	7.255
13	on average processed 32 images in 12.645658 seconds	7.267
14	on average processed 32 images in 12.626731 seconds	7.239
15	on average processed 32 images in 12.635456 seconds	7.336
16	on average processed 32 images in 12.645650 seconds	7.247
17	on average processed 32 images in 12.633227 seconds	7.276
18	on average processed 32 images in 12.636166 seconds	7.264
19	on average processed 32 images in 12.599676 seconds	7.243
20	on average processed 32 images in 12.600389 seconds	7.248
21	on average processed 32 images in 12.602784 seconds	7.262
22	on average processed 32 images in 12.605665 seconds	7.266
23	on average processed 32 images in 12.603597 seconds	7.228
24	on average processed 32 images in 12.606658 seconds	7.211
25	on average processed 32 images in 12.597384 seconds	7.290
26	on average processed 32 images in 12.595690 seconds	7.256
27	on average processed 32 images in 12.596229 seconds	7.290
28	on average processed 32 images in 12.593894 seconds	7.263
29	on average processed 32 images in 12.579831 seconds	7.287
30	on average processed 32 images in 12.575051 seconds	7.298
31	on average processed 32 images in 12.552876 seconds	7.307
32	on average processed 32 images in 12.559426 seconds	7.253
33	on average processed 32 images in 12.556587 seconds	7.202
34	on average processed 32 images in 12.559116 seconds	7.206
35	on average processed 32 images in 12.561292 seconds	7.272
36	on average processed 32 images in 12.565403 seconds	7.256
37	on average processed 32 images in 12.571127 seconds	7.259
38	on average processed 32 images in 12.568340 seconds	7.266
39	on average processed 32 images in 12.573485 seconds	7.239
40	on average processed 32 images in 12.576198 seconds	7.228
41	on average processed 32 images in 12.582726 seconds	7.248
42	on average processed 32 images in 12.584257 seconds	7.287
43	on average processed 32 images in 12.582763 seconds	7.263
44	on average processed 32 images in 12.594052 seconds	7.282
45	on average processed 32 images in 12.590149 seconds	7.209
46	on average processed 32 images in 12.593093 seconds	7.256
47	on average processed 32 images in 12.595108 seconds	7.217
48	on average processed 32 images in 12.584417 seconds	7.229
49	on average processed 32 images in 12.579316 seconds	7.319
50	on average processed 32 images in 12.580818 seconds	7.276
51	on average processed 32 images in 12.584383 seconds	7.191
52	on average processed 32 images in 12.577980 seconds	7.269
53	on average processed 32 images in 12.572607 seconds	7.229
54	on average processed 32 images in 12.574441 seconds	7.254
55	on average processed 32 images in 12.575696 seconds	7.349
56	on average processed 32 images in 12.572895 seconds	7.248
57	on average processed 32 images in 12.574557 seconds	7.289
58	on average processed 32 images in 12.572312 seconds	7.250
59	on average processed 32 images in 12.573273 seconds	7.269
60	on average processed 32 images in 12.574414 seconds	7.188
61	on average processed 32 images in 12.578566 seconds	7.211
62	on average processed 32 images in 12.580243 seconds	7.139
63	on average processed 32 images in 12.577564 seconds	7.247
64	on average processed 32 images in 12.579632 seconds	7.255
65	on average processed 32 images in 12.574065 seconds	7.250
66	on average processed 32 images in 12.570334 seconds	7.315
67	on average processed 32 images in 12.560555 seconds	7.189
68	on average processed 32 images in 12.558358 seconds	7.229
69	on average processed 32 images in 12.557535 seconds	7.265
70	on average processed 32 images in 12.561280 seconds	7.284
71	on average processed 32 images in 12.554462 seconds	7.311
72	on average processed 32 images in 12.553456 seconds	7.308
73	on average processed 32 images in 12.554120 seconds	7.197
74	on average processed 32 images in 12.551174 seconds	7.191
75	on average processed 32 images in 12.551030 seconds	7.226
76	on average processed 32 images in 12.551852 seconds	7.272
77	on average processed 32 images in 12.551724 seconds	7.273
78	on average processed 32 images in 12.550428 seconds	7.311
79	on average processed 32 images in 12.549728 seconds	7.230
80	on average processed 32 images in 12.551690 seconds	7.185
81	on average processed 32 images in 12.553657 seconds	7.152
82	on average processed 32 images in 12.553927 seconds	7.223
83	on average processed 32 images in 12.555247 seconds	7.258
84	on average processed 32 images in 12.558075 seconds	7.280
85	on average processed 32 images in 12.559886 seconds	7.222
86	on average processed 32 images in 12.561106 seconds	7.230
87	on average processed 32 images in 12.555838 seconds	7.270
88	on average processed 32 images in 12.559160 seconds	7.246
89	on average processed 32 images in 12.554827 seconds	7.214
90	on average processed 32 images in 12.555790 seconds	7.211
91	on average processed 32 images in 12.558357 seconds	7.268
92	on average processed 32 images in 12.560601 seconds	7.261
93	on average processed 32 images in 12.555225 seconds	7.271
94	on average processed 32 images in 12.556087 seconds	7.176
95	on average processed 32 images in 12.558321 seconds	7.178
96	on average processed 32 images in 12.552469 seconds	7.199
97	on average processed 32 images in 12.546263 seconds	7.304
98	on average processed 32 images in 12.547509 seconds	7.203
99	on average processed 32 images in 12.545236 seconds	7.250
100	on average processed 32 images in 12.545283 seconds	7.234
Finishing real work at step 3519 at time Mon Oct  9 01:39:56 2017
----------------------------------------------------------------
total images/sec: 81.60
----------------------------------------------------------------
