2017-10-13 19:40:38.271336: I tensorflow/core/common_runtime/gpu/gpu_device.cc:940] Found device 0 with properties: 
name: Tesla P100-PCIE-16GB
major: 6 minor: 0 memoryClockRate (GHz) 1.3285
pciBusID 0000:02:00.0
Total memory: 15.89GiB
Free memory: 15.61GiB
2017-10-13 19:40:38.271719: I tensorflow/core/common_runtime/gpu/gpu_device.cc:961] DMA: 0 
2017-10-13 19:40:38.271738: I tensorflow/core/common_runtime/gpu/gpu_device.cc:971] 0:   Y 
2017-10-13 19:40:38.271758: I tensorflow/core/common_runtime/gpu/gpu_device.cc:1030] Creating TensorFlow device (/gpu:0) -> (device: 0, name: Tesla P100-PCIE-16GB, pci bus id: 0000:02:00.0)
2017-10-13 19:40:38.760605: I tensorflow/core/distributed_runtime/rpc/grpc_channel.cc:215] Initialize GrpcChannelCache for job ps -> {0 -> nid05402:2230, 1 -> nid05403:2230, 2 -> nid05404:2230, 3 -> nid05405:2230, 4 -> nid05406:2230, 5 -> nid05407:2230, 6 -> nid05408:2230, 7 -> nid05409:2230}
2017-10-13 19:40:38.760662: I tensorflow/core/distributed_runtime/rpc/grpc_channel.cc:215] Initialize GrpcChannelCache for job worker -> {0 -> nid05402:2220, 1 -> nid05403:2220, 2 -> nid05404:2220, 3 -> nid05405:2220, 4 -> nid05406:2220, 5 -> localhost:2220, 6 -> nid05408:2220, 7 -> nid05409:2220}
2017-10-13 19:40:38.761425: I tensorflow/core/distributed_runtime/rpc/grpc_server_lib.cc:316] Started server with target: grpc://localhost:2220
2017-10-13 19:40:49.277341: I tensorflow/core/distributed_runtime/master_session.cc:999] Start master session ea02eae7ffa258f9 with config: 
intra_op_parallelism_threads: 1
allow_soft_placement: true

TensorFlow:  1.2
Model:       alexnet
Mode:        training
Batch size:  32 global
             32.0 per device
Devices:     ['/job:worker/task:5/gpu:0']
Data format: NCHW
Optimizer:   sgd
Variables:   parameter_server
Sync:        True
==========
Generating model
Running warm up
Done warm up
Step	Img/sec	loss
Starting real work at step 80 at time Fri Oct 13 19:41:59 2017
1	on average processed 32 images in 3.624339 seconds	7.276
2	on average processed 32 images in 3.528748 seconds	7.280
3	on average processed 32 images in 3.495493 seconds	7.277
4	on average processed 32 images in 3.505015 seconds	7.277
5	on average processed 32 images in 3.507451 seconds	7.284
6	on average processed 32 images in 3.518388 seconds	7.280
7	on average processed 32 images in 3.508856 seconds	7.267
8	on average processed 32 images in 3.515121 seconds	7.267
9	on average processed 32 images in 3.530849 seconds	7.271
10	on average processed 32 images in 3.536555 seconds	7.271
11	on average processed 32 images in 3.541982 seconds	7.280
12	on average processed 32 images in 3.532338 seconds	7.279
13	on average processed 32 images in 3.525779 seconds	7.289
14	on average processed 32 images in 3.530115 seconds	7.283
15	on average processed 32 images in 3.540725 seconds	7.264
16	on average processed 32 images in 3.549853 seconds	7.278
17	on average processed 32 images in 3.547801 seconds	7.275
18	on average processed 32 images in 3.542913 seconds	7.278
19	on average processed 32 images in 3.547195 seconds	7.269
20	on average processed 32 images in 3.540544 seconds	7.276
21	on average processed 32 images in 3.523948 seconds	7.274
22	on average processed 32 images in 3.525024 seconds	7.279
23	on average processed 32 images in 3.524084 seconds	7.277
24	on average processed 32 images in 3.528203 seconds	7.282
25	on average processed 32 images in 3.528537 seconds	7.273
26	on average processed 32 images in 3.531260 seconds	7.261
27	on average processed 32 images in 3.529597 seconds	7.277
28	on average processed 32 images in 3.524908 seconds	7.288
29	on average processed 32 images in 3.525912 seconds	7.268
30	on average processed 32 images in 3.518736 seconds	7.288
31	on average processed 32 images in 3.514630 seconds	7.278
32	on average processed 32 images in 3.509546 seconds	7.275
33	on average processed 32 images in 3.512704 seconds	7.258
34	on average processed 32 images in 3.515536 seconds	7.282
35	on average processed 32 images in 3.516092 seconds	7.277
36	on average processed 32 images in 3.508958 seconds	7.269
37	on average processed 32 images in 3.504768 seconds	7.256
38	on average processed 32 images in 3.505759 seconds	7.280
39	on average processed 32 images in 3.509697 seconds	7.268
40	on average processed 32 images in 3.511312 seconds	7.269
41	on average processed 32 images in 3.510106 seconds	7.278
42	on average processed 32 images in 3.509729 seconds	7.277
43	on average processed 32 images in 3.512348 seconds	7.280
44	on average processed 32 images in 3.512468 seconds	7.264
45	on average processed 32 images in 3.515004 seconds	7.266
46	on average processed 32 images in 3.515057 seconds	7.266
47	on average processed 32 images in 3.515680 seconds	7.283
48	on average processed 32 images in 3.517994 seconds	7.284
49	on average processed 32 images in 3.514761 seconds	7.287
50	on average processed 32 images in 3.517186 seconds	7.279
51	on average processed 32 images in 3.516795 seconds	7.268
52	on average processed 32 images in 3.516268 seconds	7.275
53	on average processed 32 images in 3.516407 seconds	7.280
54	on average processed 32 images in 3.516898 seconds	7.278
55	on average processed 32 images in 3.516457 seconds	7.279
56	on average processed 32 images in 3.515280 seconds	7.270
57	on average processed 32 images in 3.517077 seconds	7.282
58	on average processed 32 images in 3.515117 seconds	7.291
59	on average processed 32 images in 3.515958 seconds	7.294
60	on average processed 32 images in 3.513692 seconds	7.260
61	on average processed 32 images in 3.513413 seconds	7.267
62	on average processed 32 images in 3.513760 seconds	7.277
63	on average processed 32 images in 3.513008 seconds	7.280
64	on average processed 32 images in 3.512620 seconds	7.278
65	on average processed 32 images in 3.505064 seconds	7.283
66	on average processed 32 images in 3.506442 seconds	7.266
67	on average processed 32 images in 3.508254 seconds	7.283
68	on average processed 32 images in 3.508501 seconds	7.281
69	on average processed 32 images in 3.509370 seconds	7.276
70	on average processed 32 images in 3.510385 seconds	7.262
71	on average processed 32 images in 3.510818 seconds	7.280
72	on average processed 32 images in 3.510350 seconds	7.261
73	on average processed 32 images in 3.509811 seconds	7.266
74	on average processed 32 images in 3.508339 seconds	7.259
75	on average processed 32 images in 3.508175 seconds	7.283
76	on average processed 32 images in 3.508785 seconds	7.281
77	on average processed 32 images in 3.508133 seconds	7.283
78	on average processed 32 images in 3.510295 seconds	7.277
79	on average processed 32 images in 3.511392 seconds	7.260
80	on average processed 32 images in 3.511117 seconds	7.266
81	on average processed 32 images in 3.512150 seconds	7.286
82	on average processed 32 images in 3.512275 seconds	7.258
83	on average processed 32 images in 3.512623 seconds	7.262
84	on average processed 32 images in 3.511717 seconds	7.253
85	on average processed 32 images in 3.511214 seconds	7.270
86	on average processed 32 images in 3.510646 seconds	7.253
87	on average processed 32 images in 3.511008 seconds	7.285
88	on average processed 32 images in 3.511027 seconds	7.254
89	on average processed 32 images in 3.509663 seconds	7.281
90	on average processed 32 images in 3.510887 seconds	7.284
91	on average processed 32 images in 3.509910 seconds	7.265
92	on average processed 32 images in 3.509519 seconds	7.254
93	on average processed 32 images in 3.510141 seconds	7.274
94	on average processed 32 images in 3.511530 seconds	7.268
95	on average processed 32 images in 3.510324 seconds	7.274
96	on average processed 32 images in 3.510088 seconds	7.279
97	on average processed 32 images in 3.510580 seconds	7.243
98	on average processed 32 images in 3.508646 seconds	7.252
99	on average processed 32 images in 3.510627 seconds	7.270
Finishing real work at step 879 at time Fri Oct 13 19:47:50 2017
100	on average processed 32 images in 3.511196 seconds	7.292
----------------------------------------------------------------
total images/sec: 72.93
----------------------------------------------------------------
