2017-10-15 23:31:24.815199: I tensorflow/core/common_runtime/gpu/gpu_device.cc:940] Found device 0 with properties: 
name: Tesla P100-PCIE-16GB
major: 6 minor: 0 memoryClockRate (GHz) 1.3285
pciBusID 0000:02:00.0
Total memory: 15.89GiB
Free memory: 15.61GiB
2017-10-15 23:31:24.815912: I tensorflow/core/common_runtime/gpu/gpu_device.cc:961] DMA: 0 
2017-10-15 23:31:24.815928: I tensorflow/core/common_runtime/gpu/gpu_device.cc:971] 0:   Y 
2017-10-15 23:31:24.815946: I tensorflow/core/common_runtime/gpu/gpu_device.cc:1030] Creating TensorFlow device (/gpu:0) -> (device: 0, name: Tesla P100-PCIE-16GB, pci bus id: 0000:02:00.0)
2017-10-15 23:31:25.014431: I tensorflow/core/distributed_runtime/rpc/grpc_channel.cc:215] Initialize GrpcChannelCache for job ps -> {0 -> nid05859:2230, 1 -> nid05860:2230, 2 -> nid05861:2230, 3 -> nid05862:2230, 4 -> nid05863:2230, 5 -> nid05864:2230, 6 -> nid05865:2230, 7 -> nid05866:2230, 8 -> nid05867:2230, 9 -> nid05868:2230, 10 -> nid05869:2230, 11 -> nid05870:2230, 12 -> nid05871:2230, 13 -> nid05872:2230, 14 -> nid05873:2230, 15 -> nid05874:2230}
2017-10-15 23:31:25.014474: I tensorflow/core/distributed_runtime/rpc/grpc_channel.cc:215] Initialize GrpcChannelCache for job worker -> {0 -> nid05859:2220, 1 -> nid05860:2220, 2 -> nid05861:2220, 3 -> nid05862:2220, 4 -> nid05863:2220, 5 -> nid05864:2220, 6 -> nid05865:2220, 7 -> nid05866:2220, 8 -> localhost:2220, 9 -> nid05868:2220, 10 -> nid05869:2220, 11 -> nid05870:2220, 12 -> nid05871:2220, 13 -> nid05872:2220, 14 -> nid05873:2220, 15 -> nid05874:2220}
2017-10-15 23:31:25.015168: I tensorflow/core/distributed_runtime/rpc/grpc_server_lib.cc:316] Started server with target: grpc://localhost:2220
2017-10-15 23:32:02.124321: I tensorflow/core/distributed_runtime/master_session.cc:999] Start master session 8088d5870efbe5c6 with config: 
intra_op_parallelism_threads: 1
allow_soft_placement: true

TensorFlow:  1.2
Model:       inception3
Mode:        training
Batch size:  32 global
             32.0 per device
Devices:     ['/job:worker/task:8/gpu:0']
Data format: NCHW
Optimizer:   sgd
Variables:   distributed_replicated
Sync:        True
==========
Generating model
Running warm up
Done warm up
Step	Img/sec	loss
Starting real work at step 160 at time Sun Oct 15 23:32:49 2017
1	on average processed 32 images in 0.442710 seconds	7.369
2	on average processed 32 images in 0.428407 seconds	7.486
3	on average processed 32 images in 0.427411 seconds	7.353
4	on average processed 32 images in 0.425773 seconds	7.457
5	on average processed 32 images in 0.429553 seconds	7.410
6	on average processed 32 images in 0.431797 seconds	7.412
7	on average processed 32 images in 0.431047 seconds	7.398
8	on average processed 32 images in 0.429327 seconds	7.334
9	on average processed 32 images in 0.430926 seconds	7.456
10	on average processed 32 images in 0.432835 seconds	7.465
11	on average processed 32 images in 0.433708 seconds	7.343
12	on average processed 32 images in 0.433751 seconds	7.415
13	on average processed 32 images in 0.433603 seconds	7.290
14	on average processed 32 images in 0.434984 seconds	7.479
15	on average processed 32 images in 0.436520 seconds	7.385
16	on average processed 32 images in 0.435903 seconds	7.295
17	on average processed 32 images in 0.436161 seconds	7.292
18	on average processed 32 images in 0.435045 seconds	7.307
19	on average processed 32 images in 0.435312 seconds	7.443
20	on average processed 32 images in 0.435339 seconds	7.371
21	on average processed 32 images in 0.434625 seconds	7.303
22	on average processed 32 images in 0.434232 seconds	7.431
23	on average processed 32 images in 0.435087 seconds	7.263
24	on average processed 32 images in 0.435343 seconds	7.210
25	on average processed 32 images in 0.435331 seconds	7.306
26	on average processed 32 images in 0.434596 seconds	7.369
27	on average processed 32 images in 0.435272 seconds	7.363
28	on average processed 32 images in 0.435576 seconds	7.382
29	on average processed 32 images in 0.436560 seconds	7.384
30	on average processed 32 images in 0.436624 seconds	7.363
31	on average processed 32 images in 0.436118 seconds	7.327
32	on average processed 32 images in 0.436223 seconds	7.232
33	on average processed 32 images in 0.435930 seconds	7.352
34	on average processed 32 images in 0.435917 seconds	7.359
35	on average processed 32 images in 0.435484 seconds	7.390
36	on average processed 32 images in 0.435532 seconds	7.268
37	on average processed 32 images in 0.435346 seconds	7.325
38	on average processed 32 images in 0.435059 seconds	7.258
39	on average processed 32 images in 0.434495 seconds	7.386
40	on average processed 32 images in 0.434800 seconds	7.370
41	on average processed 32 images in 0.434957 seconds	7.375
42	on average processed 32 images in 0.435189 seconds	7.388
43	on average processed 32 images in 0.434668 seconds	7.248
44	on average processed 32 images in 0.434930 seconds	7.333
45	on average processed 32 images in 0.434830 seconds	7.303
46	on average processed 32 images in 0.434561 seconds	7.278
47	on average processed 32 images in 0.434608 seconds	7.388
48	on average processed 32 images in 0.434971 seconds	7.172
49	on average processed 32 images in 0.434793 seconds	7.328
50	on average processed 32 images in 0.434841 seconds	7.380
51	on average processed 32 images in 0.434695 seconds	7.454
52	on average processed 32 images in 0.434569 seconds	7.332
53	on average processed 32 images in 0.434355 seconds	7.386
54	on average processed 32 images in 0.434168 seconds	7.307
55	on average processed 32 images in 0.433991 seconds	7.376
56	on average processed 32 images in 0.434559 seconds	7.289
57	on average processed 32 images in 0.434320 seconds	7.354
58	on average processed 32 images in 0.434114 seconds	7.265
59	on average processed 32 images in 0.433810 seconds	7.331
60	on average processed 32 images in 0.433813 seconds	7.370
61	on average processed 32 images in 0.433884 seconds	7.340
62	on average processed 32 images in 0.434125 seconds	7.251
63	on average processed 32 images in 0.433889 seconds	7.282
64	on average processed 32 images in 0.433631 seconds	7.347
65	on average processed 32 images in 0.433317 seconds	7.473
66	on average processed 32 images in 0.433710 seconds	7.286
67	on average processed 32 images in 0.433898 seconds	7.340
68	on average processed 32 images in 0.433896 seconds	7.264
69	on average processed 32 images in 0.434344 seconds	7.433
70	on average processed 32 images in 0.434204 seconds	7.304
71	on average processed 32 images in 0.434564 seconds	7.345
72	on average processed 32 images in 0.434454 seconds	7.339
73	on average processed 32 images in 0.434086 seconds	7.350
74	on average processed 32 images in 0.433953 seconds	7.352
75	on average processed 32 images in 0.434306 seconds	7.264
76	on average processed 32 images in 0.434741 seconds	7.382
77	on average processed 32 images in 0.434685 seconds	7.289
78	on average processed 32 images in 0.434412 seconds	7.306
79	on average processed 32 images in 0.434034 seconds	7.446
80	on average processed 32 images in 0.434168 seconds	7.375
81	on average processed 32 images in 0.434406 seconds	7.300
82	on average processed 32 images in 0.434175 seconds	7.324
83	on average processed 32 images in 0.434459 seconds	7.238
84	on average processed 32 images in 0.434587 seconds	7.302
85	on average processed 32 images in 0.434352 seconds	7.234
86	on average processed 32 images in 0.434496 seconds	7.196
87	on average processed 32 images in 0.434513 seconds	7.385
88	on average processed 32 images in 0.434428 seconds	7.235
89	on average processed 32 images in 0.434341 seconds	7.275
90	on average processed 32 images in 0.434439 seconds	7.262
91	on average processed 32 images in 0.434723 seconds	7.261
92	on average processed 32 images in 0.434694 seconds	7.254
93	on average processed 32 images in 0.434548 seconds	7.371
94	on average processed 32 images in 0.434668 seconds	7.275
95	on average processed 32 images in 0.434800 seconds	7.265
96	on average processed 32 images in 0.434884 seconds	7.203
97	on average processed 32 images in 0.434867 seconds	7.320
98	on average processed 32 images in 0.435276 seconds	7.067
99	on average processed 32 images in 0.435322 seconds	7.316
100	on average processed 32 images in 0.435146 seconds	7.244
Finishing real work at step 1759 at time Sun Oct 15 23:33:32 2017
----------------------------------------------------------------
total images/sec: 1177.25
----------------------------------------------------------------
