2017-10-11 14:54:48.734272: I tensorflow/core/common_runtime/gpu/gpu_device.cc:940] Found device 0 with properties: 
name: Tesla P100-PCIE-16GB
major: 6 minor: 0 memoryClockRate (GHz) 1.3285
pciBusID 0000:02:00.0
Total memory: 15.89GiB
Free memory: 15.61GiB
2017-10-11 14:54:48.734743: I tensorflow/core/common_runtime/gpu/gpu_device.cc:961] DMA: 0 
2017-10-11 14:54:48.734760: I tensorflow/core/common_runtime/gpu/gpu_device.cc:971] 0:   Y 
2017-10-11 14:54:48.734779: I tensorflow/core/common_runtime/gpu/gpu_device.cc:1030] Creating TensorFlow device (/gpu:0) -> (device: 0, name: Tesla P100-PCIE-16GB, pci bus id: 0000:02:00.0)
2017-10-11 14:54:48.906610: I tensorflow/core/distributed_runtime/rpc/grpc_channel.cc:215] Initialize GrpcChannelCache for job ps -> {0 -> nid02434:2230, 1 -> nid02435:2230, 2 -> nid02436:2230, 3 -> nid05228:2230, 4 -> nid05229:2230, 5 -> nid05230:2230, 6 -> nid05231:2230, 7 -> nid05232:2230, 8 -> nid05233:2230, 9 -> nid05234:2230, 10 -> nid05235:2230, 11 -> nid05236:2230, 12 -> nid05237:2230, 13 -> nid05238:2230, 14 -> nid05239:2230, 15 -> nid05472:2230, 16 -> nid05473:2230, 17 -> nid05474:2230, 18 -> nid05475:2230, 19 -> nid05476:2230, 20 -> nid06365:2230, 21 -> nid06366:2230, 22 -> nid06367:2230, 23 -> nid06368:2230, 24 -> nid06369:2230, 25 -> nid06370:2230, 26 -> nid06371:2230, 27 -> nid06372:2230, 28 -> nid06373:2230, 29 -> nid06374:2230, 30 -> nid06375:2230, 31 -> nid06376:2230}
2017-10-11 14:54:48.906652: I tensorflow/core/distributed_runtime/rpc/grpc_channel.cc:215] Initialize GrpcChannelCache for job worker -> {0 -> nid02434:2220, 1 -> nid02435:2220, 2 -> nid02436:2220, 3 -> nid05228:2220, 4 -> nid05229:2220, 5 -> nid05230:2220, 6 -> nid05231:2220, 7 -> nid05232:2220, 8 -> nid05233:2220, 9 -> nid05234:2220, 10 -> nid05235:2220, 11 -> nid05236:2220, 12 -> nid05237:2220, 13 -> nid05238:2220, 14 -> nid05239:2220, 15 -> nid05472:2220, 16 -> nid05473:2220, 17 -> nid05474:2220, 18 -> nid05475:2220, 19 -> nid05476:2220, 20 -> nid06365:2220, 21 -> nid06366:2220, 22 -> nid06367:2220, 23 -> nid06368:2220, 24 -> localhost:2220, 25 -> nid06370:2220, 26 -> nid06371:2220, 27 -> nid06372:2220, 28 -> nid06373:2220, 29 -> nid06374:2220, 30 -> nid06375:2220, 31 -> nid06376:2220}
2017-10-11 14:54:48.907331: I tensorflow/core/distributed_runtime/rpc/grpc_server_lib.cc:316] Started server with target: grpc://localhost:2220
2017-10-11 14:54:59.274700: I tensorflow/core/distributed_runtime/master_session.cc:999] Start master session a45e619c0e016444 with config: 
intra_op_parallelism_threads: 1
allow_soft_placement: true

2017-10-11 14:55:31.630067: I tensorflow/core/distributed_runtime/master_session.cc:999] Start master session 8503889a4657360f with config: 
intra_op_parallelism_threads: 1
allow_soft_placement: true

TensorFlow:  1.2
Model:       alexnet
Mode:        training
Batch size:  32 global
             32.0 per device
Devices:     ['/job:worker/task:24/gpu:0']
Data format: NCHW
Optimizer:   sgd
Variables:   parameter_server
Sync:        True
==========
Generating model
Running warm up
Done warm up
Step	Img/sec	loss
Starting real work at step 320 at time Wed Oct 11 14:57:36 2017
1	on average processed 32 images in 12.203453 seconds	7.267
2	on average processed 32 images in 10.876308 seconds	7.271
3	on average processed 32 images in 11.146844 seconds	7.275
4	on average processed 32 images in 11.437786 seconds	7.282
5	on average processed 32 images in 11.347863 seconds	7.264
6	on average processed 32 images in 11.563312 seconds	7.294
7	on average processed 32 images in 11.436149 seconds	7.277
8	on average processed 32 images in 11.557829 seconds	7.285
9	on average processed 32 images in 11.438438 seconds	7.286
10	on average processed 32 images in 11.528352 seconds	7.270
11	on average processed 32 images in 11.519793 seconds	7.271
12	on average processed 32 images in 11.475269 seconds	7.270
13	on average processed 32 images in 11.557655 seconds	7.274
14	on average processed 32 images in 11.585845 seconds	7.268
15	on average processed 32 images in 11.640457 seconds	7.256
16	on average processed 32 images in 11.675655 seconds	7.263
17	on average processed 32 images in 11.693269 seconds	7.269
18	on average processed 32 images in 11.644070 seconds	7.263
19	on average processed 32 images in 11.647417 seconds	7.283
20	on average processed 32 images in 11.629601 seconds	7.270
21	on average processed 32 images in 11.636496 seconds	7.238
22	on average processed 32 images in 11.510237 seconds	7.289
23	on average processed 32 images in 11.518914 seconds	7.241
24	on average processed 32 images in 11.530306 seconds	7.310
25	on average processed 32 images in 11.559975 seconds	7.239
26	on average processed 32 images in 11.595720 seconds	7.262
27	on average processed 32 images in 11.624704 seconds	7.222
28	on average processed 32 images in 11.601897 seconds	7.238
29	on average processed 32 images in 11.614677 seconds	7.303
30	on average processed 32 images in 11.628721 seconds	7.260
31	on average processed 32 images in 11.664807 seconds	7.225
32	on average processed 32 images in 11.695477 seconds	7.259
33	on average processed 32 images in 11.725318 seconds	7.249
34	on average processed 32 images in 11.739496 seconds	7.186
35	on average processed 32 images in 11.766194 seconds	7.269
36	on average processed 32 images in 11.779009 seconds	7.218
37	on average processed 32 images in 11.784198 seconds	7.225
38	on average processed 32 images in 11.789124 seconds	7.251
39	on average processed 32 images in 11.801641 seconds	7.304
40	on average processed 32 images in 11.810304 seconds	7.338
41	on average processed 32 images in 11.818194 seconds	7.276
42	on average processed 32 images in 11.826538 seconds	7.240
43	on average processed 32 images in 11.830111 seconds	7.235
44	on average processed 32 images in 11.819853 seconds	7.248
45	on average processed 32 images in 11.833643 seconds	7.144
46	on average processed 32 images in 11.841741 seconds	7.282
47	on average processed 32 images in 11.851010 seconds	7.278
48	on average processed 32 images in 11.864298 seconds	7.270
49	on average processed 32 images in 11.869568 seconds	7.242
50	on average processed 32 images in 11.847617 seconds	7.190
51	on average processed 32 images in 11.842136 seconds	7.306
52	on average processed 32 images in 11.858147 seconds	7.238
53	on average processed 32 images in 11.867975 seconds	7.214
54	on average processed 32 images in 11.875229 seconds	7.263
55	on average processed 32 images in 11.887087 seconds	7.288
56	on average processed 32 images in 11.889871 seconds	7.301
57	on average processed 32 images in 11.900788 seconds	7.228
58	on average processed 32 images in 11.906873 seconds	7.276
59	on average processed 32 images in 11.902916 seconds	7.179
60	on average processed 32 images in 11.914676 seconds	7.190
61	on average processed 32 images in 11.899707 seconds	7.268
62	on average processed 32 images in 11.902274 seconds	7.214
63	on average processed 32 images in 11.907415 seconds	7.266
64	on average processed 32 images in 11.871923 seconds	7.147
65	on average processed 32 images in 11.873033 seconds	7.252
66	on average processed 32 images in 11.877975 seconds	7.233
67	on average processed 32 images in 11.882591 seconds	7.199
68	on average processed 32 images in 11.869805 seconds	7.224
69	on average processed 32 images in 11.873654 seconds	7.138
70	on average processed 32 images in 11.861667 seconds	7.248
71	on average processed 32 images in 11.857564 seconds	7.295
72	on average processed 32 images in 11.863704 seconds	7.253
73	on average processed 32 images in 11.871037 seconds	7.263
74	on average processed 32 images in 11.873921 seconds	7.239
75	on average processed 32 images in 11.881487 seconds	7.173
76	on average processed 32 images in 11.890076 seconds	7.248
77	on average processed 32 images in 11.880152 seconds	7.239
78	on average processed 32 images in 11.891158 seconds	7.299
79	on average processed 32 images in 11.894980 seconds	7.190
80	on average processed 32 images in 11.894392 seconds	7.314
81	on average processed 32 images in 11.902683 seconds	7.258
82	on average processed 32 images in 11.864390 seconds	7.226
83	on average processed 32 images in 11.838329 seconds	7.258
84	on average processed 32 images in 11.829529 seconds	7.291
85	on average processed 32 images in 11.807297 seconds	7.173
86	on average processed 32 images in 11.810028 seconds	7.215
87	on average processed 32 images in 11.787517 seconds	7.167
88	on average processed 32 images in 11.796270 seconds	7.251
89	on average processed 32 images in 11.802030 seconds	7.173
90	on average processed 32 images in 11.810390 seconds	7.307
91	on average processed 32 images in 11.798178 seconds	7.291
92	on average processed 32 images in 11.777732 seconds	7.252
93	on average processed 32 images in 11.768063 seconds	7.305
94	on average processed 32 images in 11.763290 seconds	7.268
95	on average processed 32 images in 11.759378 seconds	7.249
96	on average processed 32 images in 11.757384 seconds	7.245
97	on average processed 32 images in 11.758165 seconds	7.252
98	on average processed 32 images in 11.747737 seconds	7.312
99	on average processed 32 images in 11.755855 seconds	7.222
100	on average processed 32 images in 11.749339 seconds	7.172
Finishing real work at step 3520 at time Wed Oct 11 15:17:11 2017
----------------------------------------------------------------
total images/sec: 87.15
----------------------------------------------------------------
