2017-11-20 16:50:56.171840: I tensorflow/core/common_runtime/gpu/gpu_device.cc:940] Found device 0 with properties: 
name: Tesla P100-PCIE-16GB
major: 6 minor: 0 memoryClockRate (GHz) 1.3285
pciBusID 0000:02:00.0
Total memory: 15.89GiB
Free memory: 15.61GiB
2017-11-20 16:50:56.172786: I tensorflow/core/common_runtime/gpu/gpu_device.cc:961] DMA: 0 
2017-11-20 16:50:56.172803: I tensorflow/core/common_runtime/gpu/gpu_device.cc:971] 0:   Y 
2017-11-20 16:50:56.173179: I tensorflow/core/common_runtime/gpu/gpu_device.cc:1030] Creating TensorFlow device (/gpu:0) -> (device: 0, name: Tesla P100-PCIE-16GB, pci bus id: 0000:02:00.0)
2017-11-20 16:50:56.322272: I tensorflow/core/distributed_runtime/rpc/grpc_channel.cc:215] Initialize GrpcChannelCache for job ps -> {0 -> nid05654:2230, 1 -> nid05655:2230, 2 -> nid05656:2230, 3 -> nid05657:2230, 4 -> nid05658:2230, 5 -> nid05659:2230, 6 -> nid05660:2230, 7 -> nid05661:2230, 8 -> nid05662:2230, 9 -> nid05663:2230, 10 -> nid06072:2230, 11 -> nid06073:2230}
2017-11-20 16:50:56.322342: I tensorflow/core/distributed_runtime/rpc/grpc_channel.cc:215] Initialize GrpcChannelCache for job worker -> {0 -> nid05654:2220, 1 -> nid05655:2220, 2 -> nid05656:2220, 3 -> nid05657:2220, 4 -> nid05658:2220, 5 -> nid05659:2220, 6 -> nid05660:2220, 7 -> nid05661:2220, 8 -> nid05662:2220, 9 -> nid05663:2220, 10 -> localhost:2220, 11 -> nid06073:2220, 12 -> nid06074:2220, 13 -> nid06075:2220, 14 -> nid06076:2220, 15 -> nid06077:2220}
2017-11-20 16:50:56.323053: I tensorflow/core/distributed_runtime/rpc/grpc_server_lib.cc:316] Started server with target: grpc://localhost:2220
2017-11-20 16:51:06.828717: I tensorflow/core/distributed_runtime/master_session.cc:999] Start master session 1d0d1ce4ed640d3f with config: 
intra_op_parallelism_threads: 1
allow_soft_placement: true

2017-11-20 16:51:40.157349: I tensorflow/core/distributed_runtime/master_session.cc:999] Start master session 8dc6761098125aea with config: 
intra_op_parallelism_threads: 1
allow_soft_placement: true

