2017-11-27 15:11:00.336990: I tensorflow/core/common_runtime/gpu/gpu_device.cc:940] Found device 0 with properties: 
name: Tesla P100-PCIE-16GB
major: 6 minor: 0 memoryClockRate (GHz) 1.3285
pciBusID 0000:02:00.0
Total memory: 15.89GiB
Free memory: 15.61GiB
2017-11-27 15:11:00.337485: I tensorflow/core/common_runtime/gpu/gpu_device.cc:961] DMA: 0 
2017-11-27 15:11:00.337504: I tensorflow/core/common_runtime/gpu/gpu_device.cc:971] 0:   Y 
2017-11-27 15:11:00.337739: I tensorflow/core/common_runtime/gpu/gpu_device.cc:1030] Creating TensorFlow device (/gpu:0) -> (device: 0, name: Tesla P100-PCIE-16GB, pci bus id: 0000:02:00.0)
2017-11-27 15:11:00.495410: I tensorflow/core/distributed_runtime/rpc/grpc_channel.cc:215] Initialize GrpcChannelCache for job ps -> {0 -> nid02758:2230, 1 -> nid02759:2230, 2 -> nid02760:2230, 3 -> nid02761:2230, 4 -> nid02762:2230, 5 -> nid02763:2230, 6 -> nid02764:2230, 7 -> nid02765:2230, 8 -> nid02766:2230, 9 -> nid02767:2230, 10 -> nid02768:2230, 11 -> nid02769:2230}
2017-11-27 15:11:00.495468: I tensorflow/core/distributed_runtime/rpc/grpc_channel.cc:215] Initialize GrpcChannelCache for job worker -> {0 -> nid02758:2220, 1 -> nid02759:2220, 2 -> nid02760:2220, 3 -> nid02761:2220, 4 -> nid02762:2220, 5 -> nid02763:2220, 6 -> nid02764:2220, 7 -> nid02765:2220, 8 -> nid02766:2220, 9 -> nid02767:2220, 10 -> nid02768:2220, 11 -> nid02769:2220, 12 -> nid02770:2220, 13 -> nid02771:2220, 14 -> nid02772:2220, 15 -> localhost:2220}
2017-11-27 15:11:00.498083: I tensorflow/core/distributed_runtime/rpc/grpc_server_lib.cc:316] Started server with target: grpc://localhost:2220
2017-11-27 15:11:29.452764: I tensorflow/core/distributed_runtime/master_session.cc:999] Start master session b45deb54c086b447 with config: 
intra_op_parallelism_threads: 1
allow_soft_placement: true

