2017-11-22 11:02:04.184369: I tensorflow/core/common_runtime/gpu/gpu_device.cc:940] Found device 0 with properties: 
name: Tesla P100-PCIE-16GB
major: 6 minor: 0 memoryClockRate (GHz) 1.3285
pciBusID 0000:02:00.0
Total memory: 15.89GiB
Free memory: 15.61GiB
2017-11-22 11:02:04.185042: I tensorflow/core/common_runtime/gpu/gpu_device.cc:961] DMA: 0 
2017-11-22 11:02:04.185059: I tensorflow/core/common_runtime/gpu/gpu_device.cc:971] 0:   Y 
2017-11-22 11:02:04.185300: I tensorflow/core/common_runtime/gpu/gpu_device.cc:1030] Creating TensorFlow device (/gpu:0) -> (device: 0, name: Tesla P100-PCIE-16GB, pci bus id: 0000:02:00.0)
2017-11-22 11:02:04.333438: I tensorflow/core/distributed_runtime/rpc/grpc_channel.cc:215] Initialize GrpcChannelCache for job ps -> {0 -> nid05583:2230, 1 -> nid05584:2230, 2 -> nid05585:2230, 3 -> nid05586:2230, 4 -> nid05587:2230, 5 -> nid05588:2230}
2017-11-22 11:02:04.333492: I tensorflow/core/distributed_runtime/rpc/grpc_channel.cc:215] Initialize GrpcChannelCache for job worker -> {0 -> nid05583:2220, 1 -> nid05584:2220, 2 -> nid05585:2220, 3 -> nid05586:2220, 4 -> localhost:2220, 5 -> nid05588:2220, 6 -> nid05589:2220, 7 -> nid05590:2220}
2017-11-22 11:02:04.334227: I tensorflow/core/distributed_runtime/rpc/grpc_server_lib.cc:316] Started server with target: grpc://localhost:2220
2017-11-22 11:02:38.407626: I tensorflow/core/distributed_runtime/master_session.cc:999] Start master session b3eba3988175888a with config: 
intra_op_parallelism_threads: 1
allow_soft_placement: true

2017-11-22 11:03:16.989883: I tensorflow/core/distributed_runtime/master_session.cc:999] Start master session 5228e791f07c8c01 with config: 
intra_op_parallelism_threads: 1
allow_soft_placement: true

