2017-10-17 13:44:59.159467: I tensorflow/core/common_runtime/gpu/gpu_device.cc:940] Found device 0 with properties: 
name: Tesla P100-PCIE-16GB
major: 6 minor: 0 memoryClockRate (GHz) 1.3285
pciBusID 0000:02:00.0
Total memory: 15.89GiB
Free memory: 15.61GiB
2017-10-17 13:44:59.159994: I tensorflow/core/common_runtime/gpu/gpu_device.cc:961] DMA: 0 
2017-10-17 13:44:59.160012: I tensorflow/core/common_runtime/gpu/gpu_device.cc:971] 0:   Y 
2017-10-17 13:44:59.160032: I tensorflow/core/common_runtime/gpu/gpu_device.cc:1030] Creating TensorFlow device (/gpu:0) -> (device: 0, name: Tesla P100-PCIE-16GB, pci bus id: 0000:02:00.0)
2017-10-17 13:44:59.404075: I tensorflow/core/distributed_runtime/rpc/grpc_channel.cc:215] Initialize GrpcChannelCache for job ps -> {0 -> nid02343:2230, 1 -> nid02344:2230}
2017-10-17 13:44:59.404112: I tensorflow/core/distributed_runtime/rpc/grpc_channel.cc:215] Initialize GrpcChannelCache for job worker -> {0 -> nid02343:2220, 1 -> localhost:2220}
2017-10-17 13:44:59.404861: I tensorflow/core/distributed_runtime/rpc/grpc_server_lib.cc:316] Started server with target: grpc://localhost:2220
2017-10-17 13:45:27.930121: I tensorflow/core/distributed_runtime/master_session.cc:999] Start master session 2bb2358178078497 with config: 
intra_op_parallelism_threads: 1
allow_soft_placement: true

TensorFlow:  1.2
Model:       inception3
Mode:        training
Batch size:  32 global
             32.0 per device
Devices:     ['/job:worker/task:1/gpu:0']
Data format: NCHW
Optimizer:   sgd
Variables:   distributed_replicated
Sync:        True
==========
Generating model
Running warm up
Done warm up
Step	Img/sec	loss
Starting real work at step 20 at time Tue Oct 17 13:45:40 2017
1	on average processed 32 images in 0.333257 seconds	7.365
2	on average processed 32 images in 0.333713 seconds	7.325
3	on average processed 32 images in 0.336434 seconds	7.323
4	on average processed 32 images in 0.338067 seconds	7.535
5	on average processed 32 images in 0.336857 seconds	7.331
6	on average processed 32 images in 0.337154 seconds	7.455
7	on average processed 32 images in 0.335564 seconds	7.511
8	on average processed 32 images in 0.336545 seconds	7.421
9	on average processed 32 images in 0.337797 seconds	7.413
10	on average processed 32 images in 0.337704 seconds	7.490
11	on average processed 32 images in 0.337625 seconds	7.379
12	on average processed 32 images in 0.336357 seconds	7.484
13	on average processed 32 images in 0.336328 seconds	7.433
14	on average processed 32 images in 0.336214 seconds	7.420
15	on average processed 32 images in 0.336598 seconds	7.512
16	on average processed 32 images in 0.337070 seconds	7.482
17	on average processed 32 images in 0.337820 seconds	7.471
18	on average processed 32 images in 0.338191 seconds	7.460
19	on average processed 32 images in 0.338881 seconds	7.254
20	on average processed 32 images in 0.339161 seconds	7.238
21	on average processed 32 images in 0.338930 seconds	7.499
22	on average processed 32 images in 0.339167 seconds	7.361
23	on average processed 32 images in 0.339358 seconds	7.300
24	on average processed 32 images in 0.339332 seconds	7.383
25	on average processed 32 images in 0.340009 seconds	7.258
26	on average processed 32 images in 0.340656 seconds	7.507
27	on average processed 32 images in 0.340372 seconds	7.527
28	on average processed 32 images in 0.340474 seconds	7.483
29	on average processed 32 images in 0.340614 seconds	7.563
30	on average processed 32 images in 0.340829 seconds	7.347
31	on average processed 32 images in 0.340775 seconds	7.398
32	on average processed 32 images in 0.340763 seconds	7.477
33	on average processed 32 images in 0.340602 seconds	7.452
34	on average processed 32 images in 0.340648 seconds	7.432
35	on average processed 32 images in 0.340465 seconds	7.273
36	on average processed 32 images in 0.340563 seconds	7.583
37	on average processed 32 images in 0.340306 seconds	7.239
38	on average processed 32 images in 0.340014 seconds	7.365
39	on average processed 32 images in 0.340250 seconds	7.338
40	on average processed 32 images in 0.340165 seconds	7.503
41	on average processed 32 images in 0.339941 seconds	7.491
42	on average processed 32 images in 0.339634 seconds	7.359
43	on average processed 32 images in 0.339593 seconds	7.534
44	on average processed 32 images in 0.339744 seconds	7.448
45	on average processed 32 images in 0.339798 seconds	7.312
46	on average processed 32 images in 0.339595 seconds	7.400
47	on average processed 32 images in 0.339386 seconds	7.452
48	on average processed 32 images in 0.339294 seconds	7.382
49	on average processed 32 images in 0.339101 seconds	7.312
50	on average processed 32 images in 0.339253 seconds	7.449
51	on average processed 32 images in 0.339233 seconds	7.416
52	on average processed 32 images in 0.339214 seconds	7.355
53	on average processed 32 images in 0.339153 seconds	7.500
54	on average processed 32 images in 0.339107 seconds	7.284
55	on average processed 32 images in 0.339403 seconds	7.499
56	on average processed 32 images in 0.339384 seconds	7.450
57	on average processed 32 images in 0.339482 seconds	7.276
58	on average processed 32 images in 0.339342 seconds	7.389
59	on average processed 32 images in 0.339008 seconds	7.626
60	on average processed 32 images in 0.339189 seconds	7.412
61	on average processed 32 images in 0.339233 seconds	7.386
62	on average processed 32 images in 0.339407 seconds	7.409
63	on average processed 32 images in 0.339349 seconds	7.474
64	on average processed 32 images in 0.339186 seconds	7.462
65	on average processed 32 images in 0.339186 seconds	7.375
66	on average processed 32 images in 0.339288 seconds	7.371
67	on average processed 32 images in 0.339348 seconds	7.435
68	on average processed 32 images in 0.339405 seconds	7.572
69	on average processed 32 images in 0.339196 seconds	7.419
70	on average processed 32 images in 0.339354 seconds	7.512
71	on average processed 32 images in 0.339620 seconds	7.464
72	on average processed 32 images in 0.339642 seconds	7.437
73	on average processed 32 images in 0.339644 seconds	7.315
74	on average processed 32 images in 0.339612 seconds	7.408
75	on average processed 32 images in 0.339711 seconds	7.522
76	on average processed 32 images in 0.339653 seconds	7.433
77	on average processed 32 images in 0.339620 seconds	7.458
78	on average processed 32 images in 0.339595 seconds	7.310
79	on average processed 32 images in 0.339534 seconds	7.461
80	on average processed 32 images in 0.339654 seconds	7.395
81	on average processed 32 images in 0.339646 seconds	7.366
82	on average processed 32 images in 0.339641 seconds	7.470
83	on average processed 32 images in 0.339715 seconds	7.409
84	on average processed 32 images in 0.339804 seconds	7.447
85	on average processed 32 images in 0.339884 seconds	7.455
86	on average processed 32 images in 0.339831 seconds	7.411
87	on average processed 32 images in 0.339856 seconds	7.462
88	on average processed 32 images in 0.339758 seconds	7.459
89	on average processed 32 images in 0.339760 seconds	7.380
90	on average processed 32 images in 0.339756 seconds	7.389
91	on average processed 32 images in 0.339598 seconds	7.424
92	on average processed 32 images in 0.339594 seconds	7.381
93	on average processed 32 images in 0.339615 seconds	7.402
94	on average processed 32 images in 0.339649 seconds	7.359
95	on average processed 32 images in 0.339708 seconds	7.467
96	on average processed 32 images in 0.339744 seconds	7.324
97	on average processed 32 images in 0.339777 seconds	7.504
98	on average processed 32 images in 0.339912 seconds	7.340
99	on average processed 32 images in 0.339929 seconds	7.408
100	on average processed 32 images in 0.340042 seconds	7.399
Finishing real work at step 220 at time Tue Oct 17 13:46:14 2017
----------------------------------------------------------------
total images/sec: 188.21
----------------------------------------------------------------
