2017-11-20 15:19:12.268519: I tensorflow/core/common_runtime/gpu/gpu_device.cc:940] Found device 0 with properties: 
name: Tesla P100-PCIE-16GB
major: 6 minor: 0 memoryClockRate (GHz) 1.3285
pciBusID 0000:02:00.0
Total memory: 15.89GiB
Free memory: 15.61GiB
2017-11-20 15:19:12.269103: I tensorflow/core/common_runtime/gpu/gpu_device.cc:961] DMA: 0 
2017-11-20 15:19:12.269121: I tensorflow/core/common_runtime/gpu/gpu_device.cc:971] 0:   Y 
2017-11-20 15:19:12.269472: I tensorflow/core/common_runtime/gpu/gpu_device.cc:1030] Creating TensorFlow device (/gpu:0) -> (device: 0, name: Tesla P100-PCIE-16GB, pci bus id: 0000:02:00.0)
2017-11-20 15:19:12.417903: I tensorflow/core/distributed_runtime/rpc/grpc_channel.cc:215] Initialize GrpcChannelCache for job ps -> {0 -> nid03995:2230, 1 -> nid03996:2230, 2 -> nid03997:2230, 3 -> nid03998:2230, 4 -> nid03999:2230, 5 -> nid04000:2230, 6 -> nid04001:2230, 7 -> nid04002:2230, 8 -> nid04003:2230, 9 -> nid04004:2230, 10 -> nid04005:2230, 11 -> nid04006:2230}
2017-11-20 15:19:12.417960: I tensorflow/core/distributed_runtime/rpc/grpc_channel.cc:215] Initialize GrpcChannelCache for job worker -> {0 -> nid03995:2220, 1 -> nid03996:2220, 2 -> nid03997:2220, 3 -> localhost:2220, 4 -> nid03999:2220, 5 -> nid04000:2220, 6 -> nid04001:2220, 7 -> nid04002:2220, 8 -> nid04003:2220, 9 -> nid04004:2220, 10 -> nid04005:2220, 11 -> nid04006:2220, 12 -> nid04007:2220, 13 -> nid04008:2220, 14 -> nid04009:2220, 15 -> nid04010:2220}
2017-11-20 15:19:12.418689: I tensorflow/core/distributed_runtime/rpc/grpc_server_lib.cc:316] Started server with target: grpc://localhost:2220
2017-11-20 15:19:29.866851: I tensorflow/core/distributed_runtime/master_session.cc:999] Start master session f6666decd915f087 with config: 
intra_op_parallelism_threads: 1
allow_soft_placement: true

